ALG_ID	INPUT_ID/2-1	PLATFORM_ID	GPU_RATIO	E_GPU(J)	E_CPU(J)	E_MEM(J)	E_TOT(J)	TIME(s)	NR_ITER	HET_FOR_TIME(s)
5	0	4	1	1	2048	0.0458984	0.717285	0.055603	0.818787	0.028924	17	0.021975
5	0	4	1	1	4096	0.0281372	0.494202	0.0376587	0.559998	0.020078	14	0.014315
5	0	4	1	1	8192	0.0479126	0.888062	0.0584106	0.994385	0.033564	22	0.024034
5	0	4	1	1	16384	0.0291748	0.462952	0.03479	0.526917	0.020128	14	0.014057
5	0	4	1	1	32768	0.0594482	0.559814	0.0605469	0.67981	0.029099	14	0.021918
5	0	4	1	1	65536	0.0731201	0.683472	0.0733032	0.829895	0.035506	15	0.027233
5	0	4	1	1	131072	0.00268555	0.423462	0.0253296	0.451477	0.015946	14	0.009796
5	0	4	1	1	262144	0.00811768	0.473755	0.031311	0.513184	0.018668	14	0.012943
5	0	4	1	1	524288	0.0167236	0.644409	0.0526733	0.713806	0.03076	14	0.024203
5	0	4	1	1	1048576	0.0161133	9.9754	1.33698	11.3285	0.79626	4	0.79459
5	1	4	1	1	2048	0.234314	4.3045	0.280151	4.81897	0.156563	23	0.10864
5	1	4	1	1	4096	0.159546	3.2193	0.278259	3.6571	0.159881	16	0.12012
5	1	4	1	1	8192	0.117615	4.34229	0.369934	4.82983	0.191348	25	0.134216
5	1	4	1	1	16384	0.0625	3.2597	0.256531	3.57874	0.145059	16	0.101018
5	1	4	1	1	32768	0.0602417	2.16437	0.137756	2.36237	0.08351	16	0.048162
5	1	4	1	1	65536	0.0567017	2.0965	0.133057	2.28625	0.08086	16	0.044743
5	1	4	1	1	131072	0.0671997	2.15887	0.137695	2.36377	0.082024	16	0.043048
5	1	4	1	1	262144	0.0795898	2.11298	0.14502	2.33759	0.0836	16	0.045506
5	1	4	1	1	524288	0.139282	1.3974	0.186401	1.72308	0.087401	16	0.047957
5	1	4	1	1	1048576	0.0239868	2.06384	0.127625	2.21545	0.080712	16	0.045145
5	1	4	1	1	2097152	0.0238037	2.17963	0.15387	2.3573	0.093186	16	0.056998
5	1	4	1	1	4194304	0.0546265	1060.59	141.701	1202.34	83.4217	101	83.2074
5	2	4	1	1	2048	1.08154	19.3148	1.31647	21.7128	0.800499	28	0.538092
5	2	4	1	1	4096	0.365723	9.52545	0.660706	10.5519	0.401091	16	0.246089
5	2	4	1	1	8192	0.190247	8.32843	0.606995	9.12567	0.360329	16	0.208946
5	2	4	1	1	16384	0.215332	10.0066	0.70282	10.9247	0.426705	20	0.24019
5	2	4	1	1	32768	0.275757	9.51178	0.642395	10.4299	0.381754	19	0.206819
5	2	4	1	1	65536	0.349548	14.4769	0.967407	15.7939	0.574894	31	0.288348
5	2	4	1	1	131072	0.278015	9.41528	0.680359	10.3737	0.396812	20	0.208763
5	2	4	1	1	262144	0.206909	8.3421	0.637024	9.18604	0.374034	18	0.204353
5	2	4	1	1	524288	0.233948	7.33813	0.573914	8.146	0.317255	16	0.163622
5	2	4	1	1	1048576	0.206909	7.67468	0.598511	8.4801	0.33235	17	0.171483
5	2	4	1	1	2097152	0.350403	6.31226	0.669434	7.33209	0.345979	16	0.184615
5	2	4	1	1	4194304	0.0263062	7.61108	0.481628	8.11902	0.306885	16	0.155937
5	3	4	1	1	2048	3.05225	63.4243	3.87701	70.3535	2.37591	22	1.54318
5	3	4	1	1	4096	1.32251	35.0543	2.20459	38.5814	1.36409	16	0.745956
5	3	4	1	1	8192	0.851257	34.7546	2.22058	37.8265	1.38421	18	0.692956
5	3	4	1	1	16384	0.565491	33.103	2.10767	35.7762	1.32169	18	0.630877
5	3	4	1	1	32768	0.801575	35.6832	2.29633	38.7811	1.42298	19	0.671445
5	3	4	1	1	65536	0.891968	33.1638	2.18768	36.2434	1.31915	18	0.606364
5	3	4	1	1	131072	1.03961	33.1143	2.138	36.2919	1.29272	19	0.570383
5	3	4	1	1	262144	1.54254	27.576	1.87085	30.9894	1.07104	16	0.463405
5	3	4	1	1	524288	1.24042	27.8131	1.90283	30.9564	1.09842	16	0.486105
5	3	4	1	1	1048576	0.831543	27.0165	1.82977	29.6778	1.08327	16	0.47291
5	3	4	1	1	2097152	1.00476	26.384	1.8454	29.2341	1.06679	16	0.451302
5	3	4	1	1	4194304	1.00323	26.6823	1.84076	29.5263	1.06515	16	0.457036
5	4	4	1	1	2048	13.7288	194.481	14.2032	222.413	8.46938	17	5.39985
5	4	4	1	1	4096	6.66003	138.851	9.85864	155.37	6.00646	16	3.21681
5	4	4	1	1	8192	4.90491	151.446	10.7202	167.071	6.56876	19	3.27249
5	4	4	1	1	16384	3.51355	144.551	10.0383	158.103	6.19873	19	2.95543
5	4	4	1	1	32768	3.28442	131.403	9.14398	143.831	5.49258	17	2.56557
5	4	4	1	1	65536	4.24335	144.246	9.66418	158.153	5.85483	19	2.61526
5	4	4	1	1	131072	5.45929	120.6	8.0694	134.129	4.74112	16	2.08696
5	4	4	1	1	262144	7.57446	128.515	8.9798	145.069	5.07133	17	2.20426
5	4	4	1	1	524288	9.91553	133.43	9.91437	153.26	5.34896	17	2.36496
5	4	4	1	1	1048576	8.75049	118.766	8.67712	136.194	4.70835	16	2.06706
5	4	4	1	1	2097152	8.05219	117.373	8.46655	133.891	4.62013	16	1.99875
5	4	4	1	1	4194304	8.82922	147.448	10.3667	166.644	5.73823	20	2.45005
5	0	4	1	1	2048	0.0410156	0.760132	0.0536499	0.854797	0.030227	17	0.023145
5	0	4	1	1	4096	0.0429077	0.691162	0.053833	0.787903	0.029648	18	0.022338
5	0	4	1	1	8192	0.039856	0.750244	0.0504761	0.840576	0.029232	15	0.020185
5	0	4	1	1	16384	0.0222168	0.474365	0.0296021	0.526184	0.018092	14	0.011947
5	0	4	1	1	32768	0.0430298	0.476624	0.0515137	0.571167	0.025087	14	0.018514
5	0	4	1	1	65536	0.0457153	0.600708	0.0562134	0.702637	0.029082	15	0.021578
5	0	4	1	1	131072	0.00177002	0.369873	0.0212402	0.392883	0.014836	14	0.009564
5	0	4	1	1	262144	0.0133667	0.536316	0.0368652	0.586548	0.021016	14	0.014641
5	0	4	1	1	524288	0.0151978	0.689392	0.0532837	0.757874	0.031138	14	0.024216
5	0	4	1	1	1048576	0.0144043	9.71375	1.31348	11.0416	0.791611	4	0.790071
5	1	4	1	1	2048	0.211975	4.46094	0.268799	4.94171	0.16197	22	0.110722
5	1	4	1	1	4096	0.0977783	2.79468	0.286926	3.17938	0.157706	17	0.118536
5	1	4	1	1	8192	0.0847778	3.17627	0.199585	3.46063	0.122231	20	0.06988
5	1	4	1	1	16384	0.112793	4.22522	0.305359	4.64337	0.185885	24	0.130044
5	1	4	1	1	32768	0.0667114	2.36206	0.170593	2.59937	0.098702	18	0.060526
5	1	4	1	1	65536	0.045166	2.03302	0.127441	2.20563	0.078769	16	0.042875
5	1	4	1	1	131072	0.0665283	2.24042	0.243164	2.55011	0.136682	18	0.097475
5	1	4	1	1	262144	0.0563354	2.05847	0.231873	2.34668	0.129466	16	0.092675
5	1	4	1	1	524288	0.11261	1.75269	0.296509	2.1618	0.145815	16	0.102107
5	1	4	1	1	1048576	0.0166626	2.04504	0.1297	2.19141	0.082707	16	0.044335
5	1	4	1	1	2097152	0.0250854	2.20386	0.160767	2.38971	0.096745	16	0.059974
5	1	4	1	1	4194304	0.0490723	1031.63	139.282	1170.96	83.4007	101	83.1876
5	2	4	1	1	2048	0.602356	12.291	0.84729	13.7407	0.496043	17	0.335333
5	2	4	1	1	4096	0.344116	10.2121	0.661377	11.2176	0.407664	17	0.248652
5	2	4	1	1	8192	0.369507	13.3889	0.919739	14.6781	0.552053	26	0.31695
5	2	4	1	1	16384	0.171692	8.60107	0.604858	9.37762	0.363884	17	0.205758
5	2	4	1	1	32768	0.247803	10.8513	0.650757	11.7499	0.40339	22	0.202182
5	2	4	1	1	65536	0.329468	11.9346	0.818359	13.0825	0.483178	25	0.253801
5	2	4	1	1	131072	0.202515	9.71375	0.600403	10.5167	0.372004	21	0.182372
5	2	4	1	1	262144	0.199524	9.19824	0.670593	10.0684	0.393573	20	0.207127
5	2	4	1	1	524288	0.171509	7.29553	0.586853	8.05389	0.339424	16	0.182922
5	2	4	1	1	1048576	0.185364	7.1709	0.586487	7.94275	0.333221	16	0.180733
5	2	4	1	1	2097152	0.3479	6.20508	0.611694	7.16467	0.323545	16	0.153758
5	2	4	1	1	4194304	0.026001	7.55835	0.467834	8.05219	0.300214	16	0.148156
5	3	4	1	1	2048	2.39935	52.9648	3.1842	58.5483	1.95195	18	1.28146
5	3	4	1	1	4096	1.35797	39.9274	2.41602	43.7014	1.49772	18	0.815755
5	3	4	1	1	8192	0.780945	33.9251	2.07324	36.7793	1.29764	17	0.649679
5	3	4	1	1	16384	0.840637	37.7552	2.39087	40.9868	1.46755	19	0.728936
5	3	4	1	1	32768	0.799683	36.8755	2.30096	39.9761	1.43264	20	0.674519
5	3	4	1	1	65536	0.848755	34.9167	2.20483	37.9703	1.3485	19	0.612805
5	3	4	1	1	131072	0.891663	31.6196	2.00568	34.517	1.22104	18	0.541463
5	3	4	1	1	262144	0.970276	28.2216	1.82361	31.0155	1.08697	16	0.483114
5	3	4	1	1	524288	1.30389	28.0709	1.87219	31.2469	1.07835	16	0.469467
5	3	4	1	1	1048576	0.949158	26.7947	1.84576	29.5897	1.08164	16	0.469333
5	3	4	1	1	2097152	1.0191	26.634	1.83423	29.4873	1.06422	16	0.451951
5	3	4	1	1	4194304	1.07367	28.3749	1.98511	31.4337	1.14595	17	0.495243
5	4	4	1	1	2048	17.6867	245.191	17.9626	280.84	10.8772	22	6.91885
5	4	4	1	1	4096	8.32513	172.78	12.2137	193.319	7.4682	20	4.00119
5	4	4	1	1	8192	4.86847	166.991	11.4144	183.274	7.06752	21	3.48104
5	4	4	1	1	16384	2.91278	133.084	8.78381	144.781	5.46209	17	2.60788
5	4	4	1	1	32768	3.10034	139.5	9.01147	151.612	5.58421	18	2.58788
5	4	4	1	1	65536	4.23901	176.625	11.6021	192.466	7.05777	23	3.2015
5	4	4	1	1	131072	8.15161	171.829	11.4539	191.435	6.72373	23	2.92868
5	4	4	1	1	262144	7.86639	127.983	8.83038	144.679	4.96658	17	2.19033
5	4	4	1	1	524288	9.26764	131	9.40735	149.675	5.11122	17	2.27378
5	4	4	1	1	1048576	8.28467	126.619	9.00806	143.912	4.97115	17	2.18831
5	4	4	1	1	2097152	7.41205	118.141	8.43079	133.984	4.63633	16	2.01949
5	4	4	1	1	4194304	7.26544	130.483	9.23798	146.986	5.17736	18	2.196
5	0	4	1	1	2048	0.0393677	0.74353	0.052002	0.8349	0.029536	17	0.022612
5	0	4	1	1	4096	0.046814	0.598389	0.057312	0.702515	0.028513	14	0.021906
5	0	4	1	1	8192	0.0671997	0.984253	0.079834	1.13129	0.041611	25	0.030885
5	0	4	1	1	16384	0.0526123	0.549927	0.0598145	0.662354	0.027729	14	0.021158
5	0	4	1	1	32768	0.0529175	0.502747	0.0615845	0.617249	0.029392	14	0.022993
5	0	4	1	1	65536	0.0403442	0.576233	0.050293	0.66687	0.026414	15	0.019181
5	0	4	1	1	131072	0	0.376831	0.0410156	0.417847	0.015168	14	0.009644
5	0	4	1	1	262144	0.0144043	0.528748	0.036499	0.579651	0.021974	14	0.015012
5	0	4	1	1	524288	0.0134277	0.688538	0.0529175	0.754883	0.030924	14	0.024056
5	0	4	1	1	1048576	0.0223999	9.84119	1.33252	11.1961	0.799808	4	0.798237
5	1	4	1	1	2048	0.216614	4.39026	0.268555	4.87543	0.162206	21	0.114881
5	1	4	1	1	4096	0.155029	4.46185	0.360107	4.97699	0.208639	26	0.148151
5	1	4	1	1	8192	0.102966	3.34375	0.216309	3.66302	0.129552	21	0.075656
5	1	4	1	1	16384	0.0609741	2.81799	0.283875	3.16284	0.158273	19	0.114438
5	1	4	1	1	32768	0.0482178	2.30212	0.24939	2.59973	0.137217	16	0.101861
5	1	4	1	1	65536	0.0485229	2.04272	0.129761	2.22101	0.079925	16	0.045283
5	1	4	1	1	131072	0.0490112	2.04395	0.227722	2.32068	0.128822	16	0.092525
5	1	4	1	1	262144	0.0548096	1.94226	0.223022	2.22009	0.128997	16	0.091943
5	1	4	1	1	524288	0.107849	1.55774	0.286194	1.95178	0.146638	16	0.105181
5	1	4	1	1	1048576	0.0238037	2.12244	0.13385	2.28009	0.084929	16	0.047943
5	1	4	1	1	2097152	0.0216675	2.13873	0.150024	2.31042	0.092748	16	0.056331
5	1	4	1	1	4194304	0.0421753	1056.44	142.336	1198.82	83.494	101	83.28
5	2	4	1	1	2048	1.30707	23.8031	1.51263	26.6228	0.922181	33	0.608798
5	2	4	1	1	4096	0.389099	10.1926	0.686523	11.2682	0.419368	17	0.257978
5	2	4	1	1	8192	0.328064	12.3544	0.80957	13.4921	0.501767	23	0.287433
5	2	4	1	1	16384	0.26947	12.3223	0.842163	13.4339	0.508632	25	0.279918
5	2	4	1	1	32768	0.210632	10.3484	0.716736	11.2758	0.43536	21	0.239527
5	2	4	1	1	65536	0.238586	9.2522	0.688416	10.1792	0.393024	19	0.215453
5	2	4	1	1	131072	0.25116	13.9301	1.00586	15.1871	0.609192	30	0.336333
5	2	4	1	1	262144	0.188904	7.96735	0.499451	8.6557	0.304794	17	0.144758
5	2	4	1	1	524288	0.282532	9.31085	0.714172	10.3076	0.410256	21	0.211592
5	2	4	1	1	1048576	0.273743	7.18195	0.549988	8.00568	0.309219	17	0.144873
5	2	4	1	1	2097152	0.3526	6.15332	0.690918	7.19684	0.338605	16	0.169917
5	2	4	1	1	4194304	0.024231	7.61108	0.473633	8.10895	0.30237	16	0.149973
5	3	4	1	1	2048	2.78687	59.4242	3.64246	65.8535	2.21545	20	1.45099
5	3	4	1	1	4096	1.45319	38.6454	2.40747	42.506	1.47602	17	0.813608
5	3	4	1	1	8192	0.792542	33.0301	2.09137	35.914	1.30779	17	0.654845
5	3	4	1	1	16384	0.819641	39.1901	2.48022	42.49	1.55178	21	0.748299
5	3	4	1	1	32768	0.561096	29.5881	1.87848	32.0276	1.17058	16	0.548995
5	3	4	1	1	65536	0.770264	34.7866	2.19739	37.7542	1.3542	19	0.612376
5	3	4	1	1	131072	0.893494	30.0381	1.93011	32.8618	1.16823	17	0.525312
5	3	4	1	1	262144	1.16241	28.3408	1.88977	31.393	1.10289	16	0.49241
5	3	4	1	1	524288	1.25446	27.9055	1.86188	31.0218	1.07851	16	0.473163
5	3	4	1	1	1048576	0.911072	27.004	1.84625	29.7614	1.07918	16	0.465885
5	3	4	1	1	2097152	0.945496	26.6055	1.81512	29.3661	1.06015	16	0.452192
5	3	4	1	1	4194304	1.07861	26.7071	1.85284	29.6385	1.06661	16	0.44861
5	4	4	1	1	2048	12.8784	190.078	13.668	216.625	8.28497	17	5.25303
5	4	4	1	1	4096	6.40839	141.034	9.77844	157.221	5.99288	16	3.23015
5	4	4	1	1	8192	5.12738	179.826	12.4757	197.429	7.72012	23	3.79303
5	4	4	1	1	16384	4.15942	176.228	11.9108	192.298	7.39382	23	3.51449
5	4	4	1	1	32768	2.76294	124.419	8.03644	135.218	4.97942	16	2.31341
5	4	4	1	1	65536	3.49799	137.269	8.83643	149.603	5.41813	18	2.44298
5	4	4	1	1	131072	8.12012	164.448	11.0689	183.637	6.46779	22	2.82138
5	4	4	1	1	262144	7.39648	120.251	8.35425	136.002	4.67176	16	2.05378
5	4	4	1	1	524288	7.56512	121.725	8.52649	137.817	4.72155	16	2.08768
5	4	4	1	1	1048576	8.17694	119.152	8.59973	135.929	4.68968	16	2.06926
5	4	4	1	1	2097152	8.13171	124.592	9.01678	141.74	4.94239	17	2.13906
5	4	4	1	1	4194304	9.70374	162.471	11.8706	184.045	6.62669	23	2.79036
5	0	4	1	1	2048	0.0350342	0.675232	0.0441284	0.754395	0.025425	14	0.018954
5	0	4	1	1	4096	0.0360107	0.611938	0.0491943	0.697144	0.02571	16	0.019475
5	0	4	1	1	8192	0.0689087	0.564392	0.0787964	0.712097	0.034318	14	0.026464
5	0	4	1	1	16384	0.038269	0.473938	0.0454712	0.557678	0.023166	14	0.016783
5	0	4	1	1	32768	0.0604858	0.519775	0.0658569	0.646118	0.02944	14	0.022848
5	0	4	1	1	65536	0.0670776	0.540527	0.0639038	0.671509	0.030988	15	0.023581
5	0	4	1	1	131072	0.024231	0.578918	0.0407715	0.643921	0.022396	14	0.015053
5	0	4	1	1	262144	0.0159302	0.546875	0.0371704	0.599976	0.021823	14	0.014944
5	0	4	1	1	524288	0.0214233	0.685303	0.0554199	0.762146	0.031934	14	0.025005
5	0	4	1	1	1048576	0.015686	9.86945	1.32208	11.2072	0.79123	4	0.789645
5	1	4	1	1	2048	0.232361	4.77563	0.321045	5.32904	0.17919	23	0.122506
5	1	4	1	1	4096	0.110413	3.09985	0.191956	3.40222	0.116209	19	0.0728
5	1	4	1	1	8192	0.125549	4.1994	0.250549	4.5755	0.155123	26	0.090418
5	1	4	1	1	16384	0.053833	2.29974	0.244324	2.5979	0.141307	16	0.104297
5	1	4	1	1	32768	0.0500488	2.25604	0.232239	2.53833	0.139958	16	0.102946
5	1	4	1	1	65536	0.0646362	2.44598	0.257019	2.76764	0.145193	17	0.102586
5	1	4	1	1	131072	0.0546875	2.24872	0.152161	2.45557	0.090797	16	0.050188
5	1	4	1	1	262144	0.0616455	1.99323	0.131287	2.18616	0.077055	16	0.040385
5	1	4	1	1	524288	0.120789	1.48846	0.185242	1.79449	0.088378	16	0.050432
5	1	4	1	1	1048576	0.0249634	2.18042	0.140015	2.3454	0.08816	16	0.049426
5	1	4	1	1	2097152	0.0212402	2.14838	0.152039	2.32166	0.093097	16	0.055139
5	1	4	1	1	4194304	0.046936	1036.19	139.841	1176.08	83.4121	101	83.198
5	2	4	1	1	2048	1.21332	22.3899	1.52997	25.1332	0.907937	32	0.606914
5	2	4	1	1	4096	0.440674	10.8995	0.679138	12.0193	0.417031	18	0.237716
5	2	4	1	1	8192	0.227356	8.51166	0.592285	9.3313	0.342615	16	0.196304
5	2	4	1	1	16384	0.274963	12.0231	0.808411	13.1065	0.495584	24	0.27421
5	2	4	1	1	32768	0.275024	10.3889	0.72052	11.3844	0.43064	21	0.234913
5	2	4	1	1	65536	0.155334	7.84564	0.479858	8.48083	0.296776	16	0.147989
5	2	4	1	1	131072	0.329346	11.1602	0.78241	12.2719	0.462077	24	0.240184
5	2	4	1	1	262144	0.196289	7.90118	0.590637	8.68811	0.35255	17	0.192116
5	2	4	1	1	524288	0.226807	8.52191	0.658264	9.40698	0.380385	19	0.200024
5	2	4	1	1	1048576	0.203003	7.06219	0.592773	7.85797	0.33431	16	0.179969
5	2	4	1	1	2097152	0.344849	6.19452	0.656555	7.19592	0.331858	16	0.167942
5	2	4	1	1	4194304	0.0251465	7.62805	0.477356	8.13055	0.302668	16	0.147449
5	3	4	1	1	2048	2.68555	58.8981	3.53241	65.1161	2.1725	20	1.42645
5	3	4	1	1	4096	1.70917	46.3576	2.82367	50.8904	1.75398	21	0.953875
5	3	4	1	1	8192	0.822937	33.7634	2.09576	36.6821	1.3101	17	0.66075
5	3	4	1	1	16384	0.753357	39.2997	2.43195	42.485	1.52942	21	0.730728
5	3	4	1	1	32768	0.734192	35.0654	2.19202	37.9916	1.367	19	0.647621
5	3	4	1	1	65536	0.776428	31.6455	1.99316	34.4151	1.22102	17	0.561829
5	3	4	1	1	131072	0.822449	31.7629	2.01611	34.6014	1.23247	18	0.554208
5	3	4	1	1	262144	1.53076	32.9578	2.17529	36.6639	1.26789	19	0.552364
5	3	4	1	1	524288	1.29041	28.0448	1.88953	31.2247	1.08916	16	0.479819
5	3	4	1	1	1048576	1.01691	30.191	2.04492	33.2528	1.20045	18	0.516847
5	3	4	1	1	2097152	0.94043	26.9047	1.89349	29.7386	1.09194	16	0.471845
5	3	4	1	1	4194304	1.02936	26.4268	1.88965	29.3458	1.07842	16	0.454293
5	4	4	1	1	2048	15.4315	225.042	16.0917	256.565	9.74999	20	6.20095
5	4	4	1	1	4096	8.96649	188.087	13.4045	210.458	8.19818	22	4.37329
5	4	4	1	1	8192	3.57721	130.294	8.61926	142.49	5.34606	16	2.64201
5	4	4	1	1	16384	2.72162	125.924	8.30078	136.946	5.16225	16	2.48426
5	4	4	1	1	32768	3.85901	155.662	10.2056	169.726	6.28779	20	2.91665
5	4	4	1	1	65536	4.17462	159.159	10.3419	173.675	6.33485	21	2.85361
5	4	4	1	1	131072	5.90918	143.849	9.44427	159.202	5.59636	19	2.47759
5	4	4	1	1	262144	7.49164	120.665	8.35541	136.512	4.70255	16	2.08738
5	4	4	1	1	524288	11.0948	158.286	11.3058	180.687	6.20445	21	2.73236
5	4	4	1	1	1048576	8.65826	120.679	8.75159	138.089	4.73597	16	2.0826
5	4	4	1	1	2097152	6.99292	117.804	8.44653	133.243	4.6781	16	2.04439
5	4	4	1	1	4194304	6.24365	116.746	8.23157	131.221	4.61662	16	1.97665
5	0	4	1	1	2048	0.0474243	0.954895	0.0630493	1.06537	0.036773	20	0.028073
5	0	4	1	1	4096	0.0362549	0.670105	0.0499878	0.756348	0.027636	18	0.019796
5	0	4	1	1	8192	0.0422363	0.53186	0.0501709	0.624268	0.024426	15	0.017633
5	0	4	1	1	16384	0.0441895	0.746216	0.0532227	0.843628	0.029298	18	0.021574
5	0	4	1	1	32768	0.0499268	0.476074	0.0563965	0.582397	0.026709	14	0.019353
5	0	4	1	1	65536	0.0649414	0.475342	0.0696411	0.609924	0.031684	15	0.024643
5	0	4	1	1	131072	0	0.366211	0.0206299	0.386841	0.014527	14	0.009348
5	0	4	1	1	262144	0.0194702	0.641724	0.0435791	0.704773	0.024849	14	0.016708
5	0	4	1	1	524288	0.0144043	0.610168	0.0518188	0.676392	0.030017	14	0.023658
5	0	4	1	1	1048576	0.0214844	9.77563	1.31769	11.1148	0.791917	4	0.790391
5	1	4	1	1	2048	0.229919	4.74927	0.289001	5.26819	0.173784	23	0.120388
5	1	4	1	1	4096	0.141418	4.79126	0.332825	5.2655	0.202155	25	0.143616
5	1	4	1	1	8192	0.107971	3.79034	0.227478	4.12579	0.141586	25	0.084953
5	1	4	1	1	16384	0.0600586	2.55902	0.159851	2.77893	0.098165	18	0.057424
5	1	4	1	1	32768	0.0554199	2.24231	0.247009	2.54474	0.138261	16	0.101965
5	1	4	1	1	65536	0.0690308	2.78711	0.18158	3.03772	0.110433	22	0.062433
5	1	4	1	1	131072	0.064209	2.00281	0.138245	2.20526	0.080664	16	0.045257
5	1	4	1	1	262144	0.0584717	1.92963	0.126465	2.11456	0.074737	16	0.039041
5	1	4	1	1	524288	0.122009	1.59985	0.291382	2.01324	0.138117	16	0.098912
5	1	4	1	1	1048576	0.0238647	2.1275	0.137939	2.28931	0.086701	16	0.047847
5	1	4	1	1	2097152	0.0248413	2.17474	0.154785	2.35437	0.094897	16	0.058578
5	1	4	1	1	4194304	2.1463	1069.99	142.354	1214.49	83.6916	101	83.4786
5	2	4	1	1	2048	1.0752	19.7928	1.36139	22.2294	0.811327	28	0.550969
5	2	4	1	1	4096	0.839722	20.6422	1.38593	22.8678	0.847377	38	0.492264
5	2	4	1	1	8192	0.329407	11.3441	0.71167	12.3851	0.440206	22	0.234566
5	2	4	1	1	16384	0.289673	10.2489	0.637939	11.1765	0.390599	20	0.205956
5	2	4	1	1	32768	0.315613	11.9647	0.825317	13.1056	0.487484	24	0.265951
5	2	4	1	1	65536	0.236328	8.41547	0.529724	9.18152	0.318445	17	0.158798
5	2	4	1	1	131072	0.226929	8.56104	0.536133	9.3241	0.325233	18	0.158286
5	2	4	1	1	262144	0.298218	9.4032	0.688721	10.3901	0.388742	20	0.200963
5	2	4	1	1	524288	0.209045	7.32678	0.50708	8.04291	0.295973	16	0.143271
5	2	4	1	1	1048576	0.262329	7.25256	0.635132	8.15002	0.338802	16	0.177491
5	2	4	1	1	2097152	0.384338	6.52509	0.552673	7.4621	0.288709	16	0.129266
5	2	4	1	1	4194304	0.0615234	7.94653	0.512146	8.5202	0.315772	16	0.157013
5	3	4	1	1	2048	3.34027	70.7579	4.30035	78.3986	2.62502	24	1.71914
5	3	4	1	1	4096	1.55194	40.7756	2.51904	44.8466	1.54946	18	0.860045
5	3	4	1	1	8192	1.03412	39.5817	2.46991	43.0857	1.54079	20	0.776245
5	3	4	1	1	16384	1.09882	47.3819	2.97736	51.4581	1.84833	25	0.901435
5	3	4	1	1	32768	0.891541	38.9311	2.435	42.2576	1.51254	21	0.712472
5	3	4	1	1	65536	0.856995	35.2734	2.23499	38.3654	1.37071	19	0.633175
5	3	4	1	1	131072	0.990845	33.84	2.15033	36.9812	1.30271	19	0.586898
5	3	4	1	1	262144	1.10468	28.3972	1.85474	31.3566	1.08973	16	0.486663
5	3	4	1	1	524288	1.5412	28.8963	1.95807	32.3956	1.10296	16	0.497945
5	3	4	1	1	1048576	0.930481	27.3813	1.83569	30.1475	1.07193	16	0.468262
5	3	4	1	1	2097152	1.06116	30.6989	2.07617	33.8362	1.20857	18	0.52947
5	3	4	1	1	4194304	1.04297	27.346	1.87982	30.2688	1.08241	16	0.479761
5	4	4	1	1	2048	12.1676	184.185	12.9182	209.271	7.7955	16	4.96638
5	4	4	1	1	4096	6.60034	140.677	9.81274	157.09	5.99003	16	3.22176
5	4	4	1	1	8192	3.74872	129.226	8.71674	141.691	5.38979	16	2.66415
5	4	4	1	1	16384	2.92242	131.248	8.81458	142.985	5.46755	17	2.5988
5	4	4	1	1	32768	4.25397	175.519	11.6807	191.454	7.20692	23	3.32875
5	4	4	1	1	65536	3.94489	159.562	10.3677	173.874	6.35	21	2.86591
5	4	4	1	1	131072	6.66949	165.333	10.8533	182.855	6.44156	22	2.82382
5	4	4	1	1	262144	9.37311	150.762	10.3817	170.516	5.81994	20	2.55287
5	4	4	1	1	524288	9.474	142.828	10.0905	162.392	5.57838	19	2.46488
5	4	4	1	1	1048576	8.44519	121.34	8.66925	138.455	4.7079	16	2.07341
5	4	4	1	1	2097152	8.24139	125.72	9.01813	142.98	4.91338	17	2.14493
5	4	4	1	1	4194304	6.32288	118.265	8.2735	132.861	4.62134	16	2.00357
