ALG_ID	INPUT_ID	N.CPUs	N.GPUs	PLATFORM_ID	GPU_RATIO	E_GPU(J)	E_CPU(J)	E_MEM(J)	E_TOT(J)	TIME(s)	NR_ITER	HET_FOR_TIME(s)	HET_FOR_ENERGY(Joule)	
6	2	4	1	2	0.496732	0.527649	0.83197	0.112488	1.47211	0.0328859	20	0.0213465	1.02808	
6	4	4	1	2	0.709927	0.972778	1.87024	0.15448	2.9975	0.0520717	19	0.0237275	1.29309	
6	6	4	1	2	0.629931	1.76355	5.51996	0.3927	7.67621	0.13378	16	0.0541315	3.5592	
6	8	4	1	2	0.628008	9.90686	22.1685	1.94635	34.0217	0.558337	16	0.269753	17.808	
6	10	4	1	2	0.519441	45.5671	128.292	10.9816	184.841	2.99686	19	1.53842	100.823	
6	2	4	1	2	0.519702	0.300049	0.57428	0.0523071	0.926636	0.0167894	16	0.00943218	0.585388	
6	4	4	1	2	0.714035	0.932373	1.84686	0.14502	2.92426	0.0484052	19	0.021039	1.23804	
6	6	4	1	2	0.588307	1.95398	6.50165	0.449341	8.90497	0.152434	19	0.060359	3.909	
6	8	4	1	2	0.655823	11.6804	26.4563	2.30823	40.4449	0.658263	19	0.315038	20.9423	
6	10	4	1	2	0.516457	44.8486	139.015	11.6923	195.556	3.17665	20	1.62842	106.033	
6	2	4	1	2	0.430168	0.305969	0.511353	0.0482178	0.86554	0.0156268	14	0.00842311	0.703308	
6	4	4	1	2	0.652434	0.795715	1.66699	0.129883	2.59259	0.0435708	16	0.0197927	1.08533	
6	6	4	1	2	0.860788	2.18604	5.06274	0.403442	7.65222	0.134824	16	0.0560767	3.49042	
6	8	4	1	2	0.64416	10.0404	22.5414	1.97083	34.5526	0.561444	16	0.273238	17.952	
6	10	4	1	2	0.5317	42.8739	132.761	11.0731	186.708	2.99419	19	1.5206	100.405	
6	2	4	1	2	0.415621	0.450073	0.589966	0.0635376	1.10358	0.0208329	16	0.0112626	0.535156	
6	4	4	1	2	0.892481	0.810059	1.53754	0.145142	2.49274	0.0490911	16	0.021113	1.0069	
6	6	4	1	2	0.55909	1.53998	5.78558	0.387634	7.7132	0.129436	16	0.0517723	3.34692	
6	8	4	1	2	0.686242	10.7148	22.5522	2.00629	35.2734	0.575016	16	0.280506	18.524	
6	10	4	1	2	0.512602	43.4379	132.099	11.0518	186.588	2.98791	19	1.54507	101.537	
6	2	4	1	2	0.539949	0.456787	0.490845	0.0545044	1.00214	0.0186973	15	0.00978786	0.415039	
6	4	4	1	2	0.713186	0.836304	1.66107	0.145447	2.64282	0.0480668	16	0.0206297	0.978699	
6	6	4	1	2	0.630396	1.73218	5.75067	0.402649	7.8855	0.13349	16	0.0541828	3.52655	
6	8	4	1	2	0.658835	9.69434	22.554	1.94543	34.1937	0.553385	16	0.264311	17.4392	
6	10	4	1	2	0.506954	42.5505	132.297	11.0056	185.853	2.97214	19	1.53058	100.793	
6	2	4	1	2	0.493672	0.511047	0.675537	0.0675659	1.25415	0.0224958	19	0.0123142	0.465881	
6	4	4	1	2	0.693217	0.896912	1.92609	0.148376	2.97137	0.0489924	19	0.0215396	1.28607	
6	6	4	1	2	0.770883	1.91412	5.32568	0.397705	7.63751	0.132796	16	0.0535347	3.44208	
6	8	4	1	2	0.608036	9.17792	23.3364	1.95624	34.4705	0.552826	16	0.264862	17.6578	
6	10	4	1	2	0.523141	43.5082	133.114	11.147	187.77	3.00391	19	1.55757	101.976	
6	2	4	1	2	0.483032	0.32074	0.698914	0.0592651	1.07892	0.0189898	19	0.0105782	0.727356	
6	4	4	1	2	0.64751	0.816284	1.66064	0.130005	2.60693	0.0435262	16	0.0199099	0.999817	
6	6	4	1	2	0.729491	1.90271	5.50995	0.452332	7.86499	0.152684	16	0.0561847	3.35101	
6	8	4	1	2	0.670224	9.68408	22.8945	1.9765	34.5551	0.559909	16	0.266701	17.5668	
6	10	4	1	2	0.517998	42.9952	132.602	11.082	186.679	2.97972	19	1.53168	100.983	
6	2	4	1	2	0.519462	0.290771	0.624695	0.053894	0.96936	0.0164251	17	0.00905182	0.550049	
6	4	4	1	2	0.681129	0.831909	1.78101	0.140442	2.75336	0.0459712	17	0.0208681	1.10156	
6	6	4	1	2	0.597283	1.68604	5.66406	0.391846	7.74194	0.131402	16	0.0533028	3.49481	
6	8	4	1	2	0.609672	9.63342	24.1595	2.06012	35.853	0.583202	16	0.274148	18.5431	
6	10	4	1	2	0.504458	43.9847	141.448	11.985	197.418	3.22501	20	1.69902	107.143	
6	2	4	1	2	0.58403	0.585327	0.566895	0.0683594	1.22058	0.0242041	18	0.0127275	0.631653	
6	4	4	1	2	0.742992	0.829285	1.61115	0.130737	2.57117	0.0433907	16	0.019828	1.11029	
6	6	4	1	2	0.629738	1.73047	5.69714	0.401245	7.82886	0.133915	16	0.0548862	3.55969	
6	8	4	1	2	0.601481	9.08472	23.678	1.96124	34.7239	0.555637	16	0.265466	17.8209	
6	10	4	1	2	0.596005	41.1097	111.915	9.76862	162.794	2.64275	16	1.39912	89.5463	
6	2	4	1	2	0.536331	0.559265	0.686157	0.072937	1.31836	0.024443	20	0.0131239	0.684631	
6	4	4	1	2	0.709837	0.781677	1.62384	0.12738	2.5329	0.0432065	16	0.0192647	1.0213	
6	6	4	1	2	0.822518	2.146	5.49188	0.460266	8.09814	0.153602	16	0.0554325	3.32733	
6	8	4	1	2	0.672788	10.1774	23.0613	2.03503	35.2737	0.581019	16	0.274549	18.1609	
6	10	4	1	2	0.508923	52.72	169.519	13.9935	236.232	3.75151	24	1.93342	127.403	
6	2	4	1	2	0.482746	0.513916	0.728394	0.071106	1.31342	0.0232373	21	0.012402	0.320618	
6	4	4	1	2	0.68021	0.706116	1.63721	0.140564	2.48389	0.0471302	16	0.0199815	0.962585	
6	6	4	1	2	0.740605	1.8913	5.50891	0.402222	7.80243	0.133	16	0.0541774	3.41431	
6	8	4	1	2	0.602577	9.17596	23.5364	1.96832	34.6807	0.553406	16	0.265677	17.8409	
6	10	4	1	2	0.57164	41.2977	110.947	9.7489	161.993	2.63417	16	1.40534	89.8757	
6	2	4	1	2	0.51042	0.334412	0.650391	0.0577393	1.04254	0.0186115	18	0.0102256	0.551453	
6	4	4	1	2	0.714844	0.914795	1.90167	0.151917	2.96838	0.0498082	18	0.0227777	1.16327	
6	6	4	1	2	0.775546	1.93457	5.45306	0.433411	7.82104	0.146043	16	0.0538608	3.38635	
6	8	4	1	2	0.705391	9.6087	22.1617	1.93274	33.7031	0.550709	16	0.262068	16.9719	
6	10	4	1	2	0.514401	37.3755	120.143	9.93304	167.451	2.66261	17	1.37174	90.1621	
6	2	4	1	2	0.507959	0.436707	0.579102	0.0584106	1.07422	0.0193689	16	0.0103478	0.473389	
6	4	4	1	2	0.650671	1.00293	2.10242	0.160889	3.26624	0.0535077	20	0.0241359	1.39868	
6	6	4	1	2	0.709401	2.00439	5.45886	0.404907	7.86816	0.134928	16	0.0562193	3.50305	
6	8	4	1	2	0.782619	11.1451	21.7092	2.03912	34.8934	0.577523	16	0.278512	17.7505	
6	10	4	1	2	0.520877	42.8102	144.413	11.8348	199.058	3.18332	20	1.61628	106.796	
6	2	4	1	2	0.471826	0.541565	0.722717	0.0757446	1.34003	0.0251451	20	0.0137665	0.729248	
6	4	4	1	2	0.627643	0.733704	1.74982	0.132507	2.61603	0.0428382	16	0.019558	1.04724	
6	6	4	1	2	0.820343	2.06396	5.354	0.405518	7.82349	0.134205	16	0.055268	3.45032	
6	8	4	1	2	0.680117	9.51624	23.1432	1.97479	34.6342	0.557029	16	0.262882	17.4637	
6	10	4	1	2	0.53792	43.6808	143.427	11.8052	198.913	3.17386	20	1.6231	106.888	
6	2	4	1	2	0.53835	0.413757	0.499329	0.0523071	0.965393	0.0183326	15	0.0100279	0.576416	
6	4	4	1	2	0.737964	0.921326	1.74463	0.139954	2.80591	0.0459133	17	0.0204824	1.08301	
6	6	4	1	2	0.726144	1.93561	5.54071	0.448669	7.92499	0.149727	16	0.053781	3.32281	
6	8	4	1	2	0.682613	10.1451	22.8633	2.07391	35.0824	0.589795	16	0.268793	17.5748	
6	10	4	1	2	0.522991	42.6627	134.354	11.14	188.156	2.98983	19	1.5467	101.981	
6	2	4	1	2	0.483376	0.365051	0.465149	0.046875	0.877075	0.0165763	14	0.0089018	0.591309	
6	4	4	1	2	0.630839	0.622192	1.70422	0.126343	2.45276	0.0407402	16	0.0184481	0.997742	
6	6	4	1	2	0.619138	1.70978	5.74445	0.401978	7.8562	0.134309	16	0.0512923	3.47803	
6	8	4	1	2	0.607103	10.4211	26.7263	2.24255	39.39	0.628612	18	0.304495	20.3644	
6	10	4	1	2	0.609131	59.7576	164.32	14.2489	238.327	3.83375	24	1.97452	127.456	
6	2	4	1	2	0.477835	0.6026	0.75824	0.076355	1.43719	0.0256572	22	0.0135429	0.648254	
6	4	4	1	2	0.621647	1.15393	2.25287	0.174011	3.58081	0.0587085	22	0.0260529	1.51935	
6	6	4	1	2	0.625689	2.05487	6.79321	0.481628	9.32971	0.161367	19	0.0593829	3.98547	
6	8	4	1	2	0.627569	9.53638	23.4935	1.99286	35.0227	0.561659	16	0.273025	18.1475	
6	10	4	1	2	0.487154	43.3383	151.292	12.4479	207.078	3.33752	21	1.7303	111.418	
6	2	4	1	2	0.464511	0.506409	0.634521	0.0668945	1.20782	0.0225106	18	0.0120401	0.542114	
6	4	4	1	2	0.698356	0.815857	1.81158	0.145203	2.77264	0.0483682	18	0.0212536	1.27502	
6	6	4	1	2	0.675148	2.44141	7.66687	0.538208	10.6465	0.17938	22	0.0691545	4.54205	
6	8	4	1	2	0.648781	9.65253	23.7375	2.0235	35.4135	0.566145	16	0.271941	18.1122	
6	10	4	1	2	0.516534	39.5204	128.651	10.5896	178.762	2.83825	18	1.47027	96.7346	
6	2	4	1	2	0.501014	0.411987	0.566589	0.0583496	1.03693	0.0201364	16	0.0110618	0.615295	
6	4	4	1	2	0.747844	0.927246	1.71997	0.156128	2.80334	0.0523051	17	0.022565	1.29901	
6	6	4	1	2	0.781795	2.04352	5.37469	0.433838	7.85205	0.145499	16	0.0541771	3.49841	
6	8	4	1	2	0.632677	9.32684	23.6823	1.99158	35.0007	0.560011	16	0.266427	17.8766	
6	10	4	1	2	0.55881	40.9469	112.547	9.77869	163.272	2.63828	16	1.41159	90.8619	
6	2	4	1	2	0.356613	0.370239	0.58252	0.0531616	1.00592	0.0180089	16	0.010007	0.366882	
6	4	4	1	2	0.72452	0.863464	1.59741	0.127991	2.58887	0.0432436	16	0.0201092	1.14008	
6	6	4	1	2	0.693349	1.79504	5.56427	0.395264	7.75458	0.130734	16	0.0520169	3.3764	
6	8	4	1	2	0.650358	9.62897	23.3356	1.98181	34.9464	0.558765	16	0.265346	17.8037	
6	10	4	1	2	0.540248	44.818	150.348	12.4095	207.576	3.31643	21	1.6899	110.31	
