6	0.500000	1.226517	17.583557	1.721124	16
6	0.500000	0.346439	4.707031	0.406627	16
6	0.500000	0.319959	5.348083	0.376297	16
6	0.500000	0.307494	5.377930	0.365559	16
6	0.500000	0.309408	5.377502	0.366900	16
