0	0	2	0.000000	0.545349	0.123413	0.668762	0.031956	15
0	0	2	0.000000	0.515991	0.125366	0.641357	0.033152	15
0	0	2	0.000000	0.555176	0.131714	0.686890	0.033074	15
0	0	2	0.000000	0.542664	0.129883	0.672546	0.032955	15
0	0	2	0.000000	0.586548	0.156067	0.742615	0.036726	15
0	0	2	0.000000	0.578125	0.132202	0.710327	0.033282	15
0	0	2	0.000000	0.611389	0.144958	0.756348	0.034099	15
0	0	2	0.000000	0.580750	0.149536	0.730286	0.035951	15
0	0	2	0.000000	0.549133	0.147949	0.697083	0.036224	15
0	0	2	0.000000	0.614929	0.146484	0.761414	0.033965	15
1	0	2	0.000000	0.397949	0.057556	0.455505	0.016550	15
1	0	2	0.000000	0.419434	0.060669	0.480103	0.016335	15
1	0	2	0.000000	0.438049	0.062134	0.500183	0.016514	15
1	0	2	0.000000	0.398926	0.056152	0.455078	0.015470	15
1	0	2	0.000000	0.380371	0.044983	0.425354	0.013659	15
1	0	2	0.000000	0.402771	0.070618	0.473389	0.018179	15
1	0	2	0.000000	0.416626	0.059082	0.475708	0.016024	15
1	0	2	0.000000	0.431152	0.060120	0.491272	0.016339	15
1	0	2	0.000000	0.414246	0.060608	0.474854	0.016498	15
1	0	2	0.000000	0.437622	0.062988	0.500610	0.016449	15
2	0	2	0.000000	0.366455	0.061829	0.428284	0.018013	14
2	0	2	0.000000	0.426025	0.061096	0.487122	0.017750	14
2	0	2	0.000000	0.374084	0.052368	0.426453	0.015405	14
2	0	2	0.000000	0.300964	0.039185	0.340149	0.013213	14
2	0	2	0.000000	0.362671	0.053284	0.415955	0.015253	14
2	0	2	0.000000	0.324829	0.046387	0.371216	0.015664	14
2	0	2	0.000000	0.389099	0.056213	0.445312	0.015308	14
2	0	2	0.000000	0.321167	0.060425	0.381592	0.019133	14
2	0	2	0.000000	0.324646	0.049683	0.374329	0.015366	14
2	0	2	0.000000	0.349487	0.043762	0.393250	0.013769	14
3	0	2	0.129761	0.270325	0.036621	0.436707	0.012151	14
3	0	2	0.141296	0.324951	0.039673	0.505920	0.012012	14
3	0	2	0.133484	0.301086	0.036804	0.471375	0.011909	14
3	0	2	0.130188	0.299805	0.036621	0.466614	0.012077	14
3	0	2	0.131226	0.298340	0.036438	0.466003	0.012011	14
3	0	2	0.133362	0.302246	0.036682	0.472290	0.011899	14
3	0	2	0.129700	0.298096	0.036499	0.464294	0.011879	14
3	0	2	0.129822	0.291443	0.036194	0.457458	0.012008	14
3	0	2	0.131592	0.276917	0.036865	0.445374	0.011914	14
3	0	2	0.130249	0.298340	0.036560	0.465149	0.011916	14
0	1	2	0.000000	3.494446	0.603149	4.097595	0.153557	16
0	1	2	0.000000	3.543274	0.593872	4.137146	0.154455	16
0	1	2	0.000000	3.151489	0.549805	3.701294	0.149811	16
0	1	2	0.000000	3.107666	0.552856	3.660522	0.150666	16
0	1	2	0.000000	3.490112	0.587708	4.077820	0.151124	16
0	1	2	0.000000	3.263489	0.564270	3.827759	0.151294	16
0	1	2	0.000000	3.500366	0.581909	4.082275	0.149552	16
0	1	2	0.000000	3.469543	0.583984	4.053528	0.152073	16
0	1	2	0.000000	3.089294	0.552002	3.641296	0.151330	16
0	1	2	0.000000	3.466431	0.592163	4.058594	0.153258	16
1	1	2	0.000000	2.186768	0.163818	2.350586	0.050445	16
1	1	2	0.000000	2.204956	0.169983	2.374939	0.051001	16
1	1	2	0.000000	2.166199	0.159241	2.325439	0.050049	16
1	1	2	0.000000	2.223572	0.171875	2.395447	0.050661	16
1	1	2	0.000000	2.162170	0.164856	2.327026	0.050149	16
1	1	2	0.000000	2.161499	0.160583	2.322083	0.049982	16
1	1	2	0.000000	2.196777	0.167297	2.364075	0.050735	16
1	1	2	0.000000	2.179565	0.164307	2.343872	0.050560	16
1	1	2	0.000000	2.224426	0.172546	2.396973	0.050719	16
1	1	2	0.000000	2.201843	0.164185	2.366028	0.050553	16
2	1	2	0.000000	2.127136	0.153748	2.280884	0.050348	16
2	1	2	0.000000	2.156433	0.162170	2.318604	0.051661	16
2	1	2	0.000000	2.153320	0.160461	2.313782	0.051859	16
2	1	2	0.000000	2.176880	0.179077	2.355957	0.055375	16
2	1	2	0.000000	2.157593	0.157776	2.315369	0.050999	16
2	1	2	0.000000	2.208801	0.178955	2.387756	0.054986	16
2	1	2	0.000000	2.210144	0.176636	2.386780	0.053368	16
2	1	2	0.000000	2.152161	0.158813	2.310974	0.051542	16
2	1	2	0.000000	2.132202	0.151611	2.283813	0.049989	16
2	1	2	0.000000	2.155334	0.160767	2.316101	0.051861	16
3	1	2	0.430664	1.366150	0.143799	1.940613	0.046657	16
3	1	2	0.432129	1.375061	0.141724	1.948914	0.046551	16
3	1	2	0.436096	1.433044	0.147217	2.016357	0.047587	16
3	1	2	0.432007	1.382385	0.143433	1.957825	0.046777	16
3	1	2	0.429260	1.360901	0.140564	1.930725	0.046596	16
3	1	2	0.439270	1.438843	0.145081	2.023193	0.046705	16
3	1	2	0.433044	1.406433	0.144226	1.983704	0.046354	16
3	1	2	0.775940	1.172119	0.099854	2.047913	0.033620	16
3	1	2	0.436890	1.408875	0.143982	1.989746	0.047007	16
3	1	2	0.436829	1.425049	0.147278	2.009155	0.047571	16
0	2	2	0.000000	13.836426	2.369202	16.205627	0.598642	16
0	2	2	0.000000	12.892090	2.250916	15.143005	0.591347	16
0	2	2	0.000000	12.950195	2.259399	15.209595	0.591871	16
0	2	2	0.000000	12.949219	2.245117	15.194336	0.590509	16
0	2	2	0.000000	12.949768	2.254211	15.203979	0.593698	16
0	2	2	0.000000	12.651001	2.237732	14.888733	0.595046	16
0	2	2	0.004517	12.500610	2.226868	14.731995	0.594292	16
0	2	2	0.000000	12.668579	2.243042	14.911621	0.594821	16
0	2	2	0.000000	12.884583	2.234863	15.119446	0.593582	16
0	2	2	0.000000	13.958496	2.352295	16.310791	0.601635	16
1	2	2	0.000000	8.503662	0.521423	9.025085	0.168043	16
1	2	2	0.000000	8.493591	0.522522	9.016113	0.168862	16
1	2	2	0.000000	8.533569	0.521301	9.054871	0.168570	16
1	2	2	0.000000	8.507568	0.523315	9.030884	0.168706	16
1	2	2	0.000000	8.522400	0.520264	9.042664	0.167715	16
1	2	2	0.000000	8.533752	0.524475	9.058228	0.168964	16
1	2	2	0.000000	8.515381	0.524841	9.040222	0.168834	16
1	2	2	0.000000	8.584167	0.530090	9.114258	0.169289	16
1	2	2	0.000000	8.538330	0.523865	9.062195	0.167642	16
1	2	2	0.000000	8.513550	0.518555	9.032104	0.167520	16
2	2	2	0.000000	8.681641	0.551636	9.233276	0.180205	16
2	2	2	0.000000	8.637634	0.543274	9.180908	0.178520	16
2	2	2	0.000000	8.654297	0.551208	9.205505	0.182518	16
2	2	2	0.000000	8.676697	0.522095	9.198792	0.174339	16
2	2	2	0.000000	8.631104	0.540039	9.171143	0.179318	16
2	2	2	0.000000	8.656372	0.536987	9.193359	0.178367	16
2	2	2	0.000000	8.750793	0.578735	9.329529	0.186625	16
2	2	2	0.000000	8.617920	0.539368	9.157288	0.178410	16
2	2	2	0.000000	8.722534	0.556030	9.278564	0.179952	16
2	2	2	0.000000	8.731750	0.561584	9.293335	0.183346	16
3	2	2	2.740540	4.608582	0.380676	7.729797	0.127758	16
3	2	2	2.769104	4.692444	0.381165	7.842712	0.128324	16
3	2	2	2.744934	4.674316	0.383911	7.803162	0.128559	16
3	2	2	2.762085	4.701782	0.386841	7.850708	0.127629	16
3	2	2	2.705017	4.629517	0.384827	7.719360	0.127790	16
3	2	2	2.805176	4.686340	0.386597	7.878113	0.127866	16
3	2	2	2.731995	4.596558	0.387390	7.715942	0.129542	16
3	2	2	2.735962	4.568054	0.385498	7.689514	0.128302	16
3	2	2	2.746582	4.678040	0.389221	7.813843	0.129473	16
3	2	2	2.758972	4.717041	0.389221	7.865234	0.128478	16
0	3	2	0.000000	50.886780	8.673340	59.560120	2.284720	16
0	3	2	0.000000	49.652954	8.594360	58.247314	2.283152	16
0	3	2	0.000000	51.437317	8.739380	60.176697	2.288341	16
0	3	2	0.005249	50.032532	8.624939	58.662720	2.284770	16
0	3	2	0.000000	50.292480	8.633057	58.925537	2.283140	16
0	3	2	0.000000	50.466003	8.672302	59.138306	2.286125	16
0	3	2	0.000000	50.561096	8.660645	59.221741	2.284461	16
0	3	2	0.000000	53.042175	8.839783	61.881958	2.283812	16
0	3	2	0.000000	50.187805	8.636719	58.824524	2.284350	16
0	3	2	0.000000	51.437439	8.746704	60.184143	2.287042	16
1	3	2	0.000000	34.475342	2.293396	36.768738	0.639128	16
1	3	2	0.000000	34.409180	2.263916	36.673096	0.635327	16
1	3	2	0.000000	34.421021	2.262695	36.683716	0.633333	16
1	3	2	0.000000	34.356323	2.250427	36.606750	0.631635	16
1	3	2	0.000000	34.427979	2.253418	36.681396	0.632216	16
1	3	2	0.000000	34.424866	2.256348	36.681213	0.631693	16
1	3	2	0.000000	34.465820	2.261169	36.726990	0.633574	16
1	3	2	0.000000	34.431396	2.259277	36.690674	0.632700	16
1	3	2	0.000000	34.593506	2.283386	36.876892	0.636012	16
1	3	2	0.000000	34.484985	2.286743	36.771729	0.636803	16
2	3	2	0.000000	34.794861	2.402832	37.197693	0.682367	16
2	3	2	0.000000	34.724121	2.402588	37.126709	0.683225	16
2	3	2	0.000000	34.839355	2.412292	37.251648	0.687696	16
2	3	2	0.000000	34.698181	2.399841	37.098022	0.682776	16
2	3	2	0.000000	34.841919	2.402649	37.244568	0.683074	16
2	3	2	0.000000	34.879639	2.419006	37.298645	0.685827	16
2	3	2	0.000000	34.869263	2.400940	37.270203	0.682386	16
2	3	2	0.000000	35.141479	2.443787	37.585266	0.693310	16
2	3	2	0.000000	35.095581	2.415161	37.510742	0.684875	16
2	3	2	0.000000	34.974243	2.406494	37.380737	0.682600	16
3	3	2	13.033508	17.308044	2.039429	32.380981	0.596678	16
3	3	2	13.208252	17.202209	2.081055	32.491516	0.607177	16
3	3	2	13.312561	17.080383	2.080627	32.473572	0.607358	16
3	3	2	12.926086	16.955444	2.065796	31.947327	0.604385	16
3	3	2	13.195862	16.983582	2.081238	32.260681	0.606592	16
3	3	2	13.169617	17.102234	2.055908	32.327759	0.600388	16
3	3	2	13.038269	17.125061	2.057861	32.221191	0.603354	16
3	3	2	13.141724	16.995422	2.067627	32.204773	0.603853	16
3	3	2	13.004761	17.330933	2.057983	32.393677	0.599584	16
3	3	2	13.054810	17.362183	2.077332	32.494324	0.608023	16
0	4	2	0.000000	223.727966	37.397949	261.125916	9.730917	16
0	4	2	0.000000	221.965271	37.304138	259.269409	9.731412	16
0	4	2	0.000000	221.233765	37.302917	258.536682	9.750438	16
0	4	2	0.000000	217.558533	36.951538	254.510071	9.727189	16
0	4	2	0.000000	217.533936	37.016418	254.550354	9.747197	16
0	4	2	0.000000	218.687988	37.095825	255.783813	9.745944	16
0	4	2	0.000000	223.573303	37.434631	261.007935	9.743526	16
0	4	2	0.000000	218.137695	37.008423	255.146118	9.726356	16
0	4	2	0.000000	221.393494	37.266602	258.660095	9.735787	16
0	4	2	0.000000	218.784973	37.068298	255.853271	9.728630	16
1	4	2	0.000000	149.965271	10.082397	160.047668	2.679328	16
1	4	2	0.000000	150.114502	10.079651	160.194153	2.679019	16
1	4	2	0.000000	150.555969	10.108582	160.664551	2.683528	16
1	4	2	0.000000	150.826111	10.111084	160.937195	2.683076	16
1	4	2	0.000000	150.592346	10.103943	160.696289	2.684073	16
1	4	2	0.000000	150.866272	10.108582	160.974854	2.682558	16
1	4	2	0.000000	150.947021	10.103943	161.050964	2.681833	16
1	4	2	0.000000	151.570984	10.141663	161.712646	2.684849	16
1	4	2	0.005493	150.985840	10.101929	161.093262	2.681106	16
1	4	2	0.000000	150.427429	10.082275	160.509705	2.679079	16
2	4	2	0.000000	154.159485	10.457336	164.616821	2.925896	16
2	4	2	0.000000	151.978333	10.291321	162.269653	2.878714	16
2	4	2	0.000000	152.544312	10.404175	162.948486	2.907226	16
2	4	2	0.000000	152.218262	10.332092	162.550354	2.888983	16
2	4	2	0.000000	152.304565	10.337646	162.642212	2.888712	16
2	4	2	0.000000	152.712646	10.392578	163.105225	2.902668	16
2	4	2	0.000000	153.400635	10.412415	163.813049	2.910265	16
2	4	2	0.000000	152.307617	10.321411	162.629028	2.884016	16
2	4	2	0.000000	152.200928	10.316833	162.517761	2.882470	16
2	4	2	0.000000	153.112122	10.420593	163.532715	2.914587	16
3	4	2	72.455200	74.040894	10.967590	157.463684	3.018250	16
3	4	2	73.528198	74.175964	10.954895	158.659058	3.003137	16
3	4	2	72.230408	74.080688	10.956909	157.268005	3.020326	16
3	4	2	72.163391	73.874329	10.940369	156.978088	3.013909	16
3	4	2	72.276001	73.870361	10.950623	157.096985	3.017751	16
3	4	2	72.174500	73.866821	10.941040	156.982361	3.012762	16
3	4	2	72.337158	74.175110	10.952759	157.465027	3.014750	16
3	4	2	72.449646	73.900635	10.962830	157.313110	3.017525	16
3	4	2	72.934570	74.033508	10.965210	157.933289	3.019604	16
3	4	2	72.362122	73.903748	10.928955	157.194824	3.002814	16
