1	0.000000	0.063594	1.573120	0.091554	15
1	0.000000	0.065119	1.609375	0.095385	15
1	0.000000	0.063820	1.737793	0.103396	15
1	0.000000	0.064743	2.006409	0.114669	15
1	0.100000	0.063425	2.141418	0.114986	14
1	0.100000	0.063023	1.927124	0.103694	14
1	0.100000	0.063417	2.071533	0.106769	14
1	0.100000	0.062622	1.577637	0.092758	14
1	0.100000	0.062714	1.701782	0.101302	14
1	0.200000	0.062976	1.505554	0.091311	14
1	0.200000	0.062084	1.734863	0.101577	14
1	0.200000	0.062499	1.911072	0.108271	14
1	0.200000	0.061962	1.777649	0.104836	14
1	0.200000	0.062938	1.965637	0.108495	14
1	0.300000	0.063069	1.469055	0.092821	14
1	0.300000	0.062021	1.658264	0.099858	14
1	0.300000	0.062152	1.455566	0.091729	14
1	0.300000	0.062224	2.114624	0.105970	14
1	0.300000	0.060817	1.973816	0.111396	14
1	0.400000	0.061850	1.647400	0.098807	14
1	0.400000	0.060921	1.436035	0.090268	14
1	0.400000	0.061008	1.612061	0.098554	14
1	0.400000	0.062252	1.845764	0.102192	14
1	0.400000	0.061409	1.860657	0.104689	14
1	0.500000	0.061823	1.842957	0.104402	14
1	0.500000	0.062087	1.679016	0.098097	14
1	0.500000	0.062039	1.861267	0.107616	14
1	0.500000	0.061475	1.834473	0.103150	14
1	0.500000	0.060814	1.997253	0.105050	14
1	0.600000	0.060114	1.735840	0.099125	13
1	0.600000	0.060073	1.421204	0.087236	13
1	0.600000	0.060176	1.414001	0.085934	13
1	0.600000	0.060765	1.955444	0.106104	13
1	0.600000	0.067651	2.004211	0.115525	13
1	0.700000	0.059844	1.651367	0.098549	13
1	0.700000	0.059251	1.880188	0.105681	13
1	0.700000	0.060138	1.747314	0.096845	13
1	0.700000	0.060125	1.937317	0.105578	13
1	0.700000	0.060062	1.952515	0.104942	13
1	0.800000	0.059238	1.247070	0.087072	13
1	0.800000	0.058105	1.266541	0.084721	13
1	0.800000	0.059090	1.777405	0.099994	13
1	0.800000	0.059748	1.739624	0.098202	13
1	0.800000	0.059397	1.334717	0.085520	13
1	0.900000	0.058458	1.297729	0.084326	13
1	0.900000	0.059284	1.546204	0.096063	13
1	0.900000	0.059035	1.433044	0.087860	13
1	0.900000	0.059407	1.581665	0.095527	13
1	0.900000	0.059455	1.570435	0.096834	13
1	1.000000	0.051982	1.624817	0.085963	1
1	1.000000	0.052733	1.164856	0.071800	1
1	1.000000	0.052131	1.160217	0.071311	1
1	1.000000	0.051618	1.125732	0.074185	1
1	1.000000	0.051916	1.147034	0.074311	1
2	0.000000	0.066009	1.932739	0.104058	15
2	0.000000	0.066642	2.019836	0.111036	15
2	0.000000	0.067114	1.670715	0.098837	15
2	0.000000	0.067289	2.147888	0.109570	15
2	0.000000	0.067215	2.077148	0.108755	15
2	0.100000	0.066229	1.621765	0.098212	15
2	0.100000	0.065749	1.848572	0.104862	15
2	0.100000	0.065644	1.873413	0.104678	15
2	0.100000	0.065418	1.634460	0.098611	15
2	0.100000	0.067486	2.292847	0.117973	15
2	0.200000	0.064736	1.666748	0.096240	15
2	0.200000	0.065752	1.891968	0.104977	15
2	0.200000	0.064670	1.617676	0.096748	15
2	0.200000	0.066237	1.634644	0.097204	15
2	0.200000	0.065333	1.666260	0.098032	15
2	0.300000	0.063708	2.004883	0.106269	14
2	0.300000	0.063904	1.595642	0.093903	14
2	0.300000	0.066517	2.547119	0.126475	14
2	0.300000	0.063455	1.946960	0.112532	14
2	0.300000	0.064087	2.024414	0.106233	14
2	0.400000	0.063063	1.965088	0.106148	14
2	0.400000	0.064001	1.600952	0.095025	14
2	0.400000	0.064183	2.404114	0.123474	14
2	0.400000	0.063384	1.554382	0.093971	14
2	0.400000	0.063485	1.693726	0.104549	14
2	0.500000	0.062501	1.509583	0.091680	14
2	0.500000	0.062628	1.764221	0.101864	14
2	0.500000	0.061768	1.557068	0.093189	14
2	0.500000	0.062347	1.440369	0.095352	14
2	0.500000	0.063416	1.991211	0.110126	14
2	0.600000	0.062202	1.839539	0.106904	14
2	0.600000	0.060436	1.730286	0.097734	14
2	0.600000	0.061902	2.113770	0.114028	14
2	0.600000	0.062365	2.118774	0.111583	14
2	0.600000	0.062399	1.788269	0.100752	14
2	0.700000	0.059985	1.525879	0.087785	14
2	0.700000	0.061098	1.802124	0.103499	14
2	0.700000	0.060537	1.468689	0.093219	14
2	0.700000	0.059861	1.470642	0.088841	14
2	0.700000	0.061530	1.658386	0.099295	14
2	0.800000	0.059686	1.654724	0.096765	13
2	0.800000	0.059416	1.952637	0.105017	13
2	0.800000	0.059611	1.824341	0.103135	13
2	0.800000	0.059757	1.447693	0.087364	13
2	0.800000	0.063364	1.910645	0.104214	13
2	0.900000	0.058977	1.908325	0.107391	13
2	0.900000	0.059266	1.640625	0.099664	13
2	0.900000	0.059223	1.885071	0.099857	13
2	0.900000	0.059635	1.463318	0.089125	13
2	0.900000	0.059507	1.769836	0.100678	13
2	1.000000	0.051716	1.137512	0.074930	1
2	1.000000	0.052201	1.509521	0.088554	1
2	1.000000	0.052011	1.141052	0.074101	1
2	1.000000	0.052359	1.564941	0.085845	1
2	1.000000	0.051854	1.170959	0.074466	1
3	0.000000	0.093313	2.597900	0.148733	15
3	0.000000	0.072107	2.512878	0.130356	15
3	0.000000	0.071484	2.287231	0.120476	15
3	0.000000	0.070012	2.123779	0.115466	15
3	0.000000	0.070413	1.910339	0.104169	15
3	0.100000	0.069873	2.300415	0.122320	15
3	0.100000	0.072456	2.336365	0.126365	15
3	0.100000	0.068519	1.799011	0.102257	15
3	0.100000	0.069758	2.016235	0.107923	15
3	0.100000	0.083401	2.186768	0.117990	15
3	0.200000	0.069009	2.113953	0.112803	15
3	0.200000	0.069335	2.014099	0.112121	15
3	0.200000	0.070470	2.292542	0.115958	15
3	0.200000	0.068981	2.075867	0.112264	15
3	0.200000	0.069217	2.010437	0.115095	15
3	0.300000	0.067420	1.766418	0.101104	15
3	0.300000	0.067180	1.680176	0.103427	15
3	0.300000	0.066255	1.861633	0.101780	15
3	0.300000	0.067053	2.084412	0.114615	15
3	0.300000	0.065924	2.056335	0.111941	15
3	0.400000	0.066794	1.999390	0.110320	15
3	0.400000	0.066923	1.688293	0.103860	15
3	0.400000	0.066855	2.218994	0.120791	15
3	0.400000	0.075379	2.673462	0.137593	15
3	0.400000	0.066317	2.112305	0.113420	15
3	0.500000	0.064129	1.663879	0.099073	15
3	0.500000	0.064181	1.864075	0.110160	15
3	0.500000	0.064358	1.729065	0.099047	15
3	0.500000	0.064947	1.982178	0.112785	15
3	0.500000	0.063874	1.612244	0.099335	15
3	0.600000	0.064273	1.971497	0.111841	15
3	0.600000	0.062295	1.559937	0.096480	15
3	0.600000	0.064271	2.413025	0.124718	15
3	0.600000	0.064611	1.831909	0.109763	15
3	0.600000	0.064924	2.368835	0.124036	15
3	0.700000	0.063345	1.627502	0.099534	15
3	0.700000	0.062524	1.565552	0.098517	15
3	0.700000	0.062789	1.619080	0.097340	15
3	0.700000	0.062089	1.582703	0.095417	15
3	0.700000	0.063341	1.944702	0.113107	15
3	0.800000	0.060637	1.522705	0.095480	13
3	0.800000	0.060574	1.445190	0.092590	13
3	0.800000	0.060152	1.456604	0.091211	13
3	0.800000	0.060807	1.482483	0.094292	13
3	0.800000	0.061378	1.729248	0.105313	13
3	0.900000	0.060177	1.796143	0.102301	13
3	0.900000	0.060469	1.458313	0.092117	13
3	0.900000	0.060566	1.921753	0.107654	13
3	0.900000	0.059398	1.875488	0.105591	13
3	0.900000	0.060821	1.411804	0.091758	13
3	1.000000	0.052168	1.443359	0.082812	1
3	1.000000	0.051867	1.143250	0.073679	1
3	1.000000	0.052705	1.155884	0.073688	1
3	1.000000	0.051412	1.111328	0.071528	1
3	1.000000	0.051900	1.427917	0.084090	1
4	0.000000	0.084048	2.921570	0.150291	16
4	0.000000	0.078796	2.303162	0.126906	16
4	0.000000	0.079301	2.331665	0.127280	16
4	0.000000	0.089551	2.632202	0.137501	16
4	0.000000	0.090239	2.698914	0.138569	16
4	0.100000	0.077506	2.223145	0.128018	16
4	0.100000	0.078285	2.298889	0.128446	16
4	0.100000	0.077134	2.229675	0.126266	16
4	0.100000	0.078282	2.279724	0.128548	16
4	0.100000	0.079918	2.746826	0.139787	16
4	0.200000	0.078224	2.159790	0.127963	16
4	0.200000	0.074810	2.015381	0.122994	16
4	0.200000	0.075781	2.620361	0.139624	16
4	0.200000	0.075356	2.317993	0.136017	16
4	0.200000	0.075145	2.293884	0.133322	16
4	0.300000	0.075007	2.332092	0.130274	16
4	0.300000	0.074375	2.071350	0.123354	16
4	0.300000	0.073965	2.093323	0.122141	16
4	0.300000	0.074417	2.009094	0.121897	16
4	0.300000	0.074858	2.383118	0.135921	16
4	0.400000	0.070921	1.924927	0.116545	15
4	0.400000	0.071336	1.854370	0.117220	15
4	0.400000	0.072803	2.224060	0.131532	15
4	0.400000	0.071373	2.078247	0.117756	15
4	0.400000	0.071419	2.311768	0.129907	15
4	0.500000	0.068513	1.947021	0.113587	15
4	0.500000	0.068799	1.677185	0.114925	15
4	0.500000	0.069680	2.101013	0.128296	15
4	0.500000	0.069061	2.124512	0.124415	15
4	0.500000	0.069226	1.805969	0.117674	15
4	0.600000	0.078406	2.660889	0.133655	16
4	0.600000	0.077518	2.306885	0.124702	16
4	0.600000	0.081651	2.560608	0.136067	16
4	0.600000	0.079453	2.713623	0.138460	16
4	0.600000	0.079598	2.917114	0.142867	16
4	0.700000	0.065231	1.625122	0.112062	15
4	0.700000	0.065161	1.673828	0.113103	15
4	0.700000	0.065243	1.882629	0.121761	15
4	0.700000	0.064717	1.822388	0.119554	15
4	0.700000	0.066708	2.208313	0.127632	15
4	0.800000	0.062264	1.774658	0.118439	14
4	0.800000	0.071751	1.983521	0.129190	14
4	0.800000	0.061925	1.556091	0.105830	14
4	0.800000	0.062567	1.937378	0.120848	14
4	0.800000	0.063623	1.891724	0.120059	14
4	0.900000	0.061515	1.481445	0.106170	14
4	0.900000	0.062066	1.881348	0.121763	14
4	0.900000	0.061455	1.517456	0.106829	14
4	0.900000	0.061465	1.828186	0.119827	14
4	0.900000	0.061459	2.027039	0.120043	14
4	1.000000	0.052131	1.495239	0.086859	1
4	1.000000	0.051907	1.632080	0.087416	1
4	1.000000	0.051699	1.391541	0.084889	1
4	1.000000	0.051429	1.460510	0.083132	1
4	1.000000	0.051198	1.437439	0.085162	1
5	0.000000	0.093225	3.327148	0.180208	16
5	0.000000	0.088868	2.802551	0.162325	16
5	0.000000	0.089768	3.003296	0.169708	16
5	0.000000	0.090065	2.923218	0.165953	16
5	0.000000	0.091452	3.302063	0.177622	16
5	0.100000	0.095629	2.884155	0.169782	16
5	0.100000	0.086791	2.968933	0.171448	16
5	0.100000	0.099789	2.952759	0.173761	16
5	0.100000	0.087125	3.096863	0.178325	16
5	0.100000	0.085485	2.830688	0.168910	16
5	0.200000	0.085082	2.554810	0.157619	16
5	0.200000	0.085982	2.876282	0.169660	16
5	0.200000	0.082769	2.698303	0.165878	16
5	0.200000	0.089936	2.932312	0.170144	16
5	0.200000	0.082417	2.560547	0.157371	16
5	0.300000	0.082005	3.037354	0.173566	16
5	0.300000	0.080929	2.427551	0.153272	16
5	0.300000	0.081401	2.646057	0.163249	16
5	0.300000	0.081161	2.375000	0.153926	16
5	0.300000	0.081150	2.350586	0.154690	16
5	0.400000	0.081345	2.368774	0.168372	16
5	0.400000	0.078421	2.151367	0.150660	16
5	0.400000	0.078260	2.496460	0.150914	16
5	0.400000	0.079670	2.789978	0.165316	16
5	0.400000	0.078494	2.505737	0.153281	16
5	0.500000	0.076962	2.545776	0.164318	16
5	0.500000	0.075664	2.232361	0.160667	16
5	0.500000	0.076436	1.943298	0.151365	16
5	0.500000	0.075653	2.044556	0.149864	16
5	0.500000	0.075810	2.109924	0.147796	16
5	0.600000	0.071911	1.905029	0.142281	15
5	0.600000	0.071533	1.787292	0.141213	15
5	0.600000	0.072446	2.393311	0.159234	15
5	0.600000	0.072810	2.258545	0.155491	15
5	0.600000	0.072253	2.095032	0.152546	15
5	0.700000	0.069990	1.644775	0.139518	15
5	0.700000	0.069617	1.997009	0.149140	15
5	0.700000	0.068512	1.639099	0.139951	15
5	0.700000	0.070022	2.082214	0.150236	15
5	0.700000	0.068739	1.665283	0.136685	15
5	0.800000	0.067780	1.599487	0.137836	15
5	0.800000	0.066843	2.088989	0.156012	15
5	0.800000	0.068868	2.162354	0.155677	15
5	0.800000	0.066556	2.002441	0.149661	15
5	0.800000	0.066819	1.968506	0.148669	15
5	0.900000	0.063526	2.203003	0.147644	13
5	0.900000	0.061820	1.459839	0.122865	13
5	0.900000	0.062460	2.424072	0.154676	13
5	0.900000	0.061711	1.773682	0.139701	13
5	0.900000	0.071727	1.889099	0.139519	13
5	1.000000	0.051738	1.374756	0.085830	1
5	1.000000	0.051705	1.467285	0.090512	1
5	1.000000	0.051115	1.500061	0.083448	1
5	1.000000	0.051667	1.396973	0.084081	1
5	1.000000	0.051117	1.109802	0.076874	1
6	0.000000	0.104475	3.754822	0.228520	16
6	0.000000	0.104450	3.775146	0.228511	16
6	0.000000	0.106572	4.149536	0.239640	16
6	0.000000	0.108210	4.036499	0.238477	16
6	0.000000	0.111882	4.284973	0.240869	16
6	0.100000	0.101090	3.787781	0.237092	16
6	0.100000	0.100005	3.496094	0.222228	16
6	0.100000	0.099990	3.496948	0.224191	16
6	0.100000	0.107469	3.844971	0.231925	16
6	0.100000	0.105081	3.877502	0.234166	16
6	0.200000	0.095360	3.372131	0.218857	16
6	0.200000	0.094970	3.181030	0.216746	16
6	0.200000	0.095163	3.333069	0.219911	16
6	0.200000	0.094637	3.217346	0.222642	16
6	0.200000	0.098495	3.978882	0.232635	16
6	0.300000	0.094248	3.604797	0.232501	16
6	0.300000	0.092989	3.280518	0.219036	16
6	0.300000	0.110491	3.556702	0.241475	16
6	0.300000	0.092725	2.974670	0.216894	16
6	0.300000	0.097581	3.509583	0.225689	16
6	0.400000	0.085069	2.761169	0.199427	15
6	0.400000	0.085314	2.627747	0.203037	15
6	0.400000	0.089651	2.850220	0.207517	15
6	0.400000	0.090747	3.244324	0.217935	15
6	0.400000	0.085698	2.680908	0.204086	15
6	0.500000	0.091631	3.203918	0.227456	15
6	0.500000	0.082531	2.526001	0.199876	15
6	0.500000	0.081624	2.469055	0.196363	15
6	0.500000	0.083443	2.918701	0.212138	15
6	0.500000	0.090941	2.877563	0.209725	15
6	0.600000	0.077805	2.449402	0.195180	15
6	0.600000	0.077446	2.507324	0.198730	15
6	0.600000	0.077152	2.381592	0.202861	15
6	0.600000	0.090212	2.860535	0.210514	15
6	0.600000	0.076124	2.072815	0.201524	15
6	0.700000	0.078215	2.676270	0.210336	15
6	0.700000	0.074550	2.173950	0.198927	15
6	0.700000	0.075218	2.417603	0.205728	15
6	0.700000	0.074346	2.160950	0.197088	15
6	0.700000	0.083027	2.320984	0.205776	15
6	0.800000	0.067434	1.844604	0.183408	14
6	0.800000	0.068995	2.350647	0.204742	14
6	0.800000	0.068424	1.981445	0.187999	14
6	0.800000	0.070106	2.264404	0.198202	14
6	0.800000	0.067553	1.621155	0.178086	14
6	0.900000	0.065573	1.501831	0.173616	14
6	0.900000	0.072002	1.740662	0.180790	14
6	0.900000	0.075729	1.830933	0.183140	14
6	0.900000	0.064272	1.553833	0.171169	14
6	0.900000	0.065657	2.038696	0.188957	14
6	1.000000	0.051454	1.130249	0.078178	1
6	1.000000	0.051222	1.164124	0.079247	1
6	1.000000	0.051511	1.150574	0.079712	1
6	1.000000	0.051410	1.140137	0.076389	1
6	1.000000	0.051968	1.160950	0.077397	1
7	0.000000	0.150593	6.299194	0.373721	16
7	0.000000	0.150197	6.449585	0.374220	16
7	0.000000	0.155189	6.478577	0.383274	16
7	0.000000	0.155072	6.424805	0.376388	16
7	0.000000	0.143990	6.090759	0.375640	16
7	0.100000	0.130375	5.328247	0.357653	16
7	0.100000	0.132372	5.961243	0.369333	16
7	0.100000	0.130723	5.402954	0.352690	16
7	0.100000	0.145583	5.906677	0.366909	16
7	0.100000	0.142490	5.795288	0.363652	16
7	0.200000	0.122682	4.864258	0.346417	16
7	0.200000	0.122529	4.962341	0.342171	16
7	0.200000	0.121855	4.772705	0.344044	16
7	0.200000	0.123900	5.257324	0.346196	16
7	0.200000	0.121629	4.843506	0.344042	16
7	0.300000	0.118143	4.499207	0.337655	16
7	0.300000	0.114385	4.420959	0.337033	16
7	0.300000	0.116036	4.485596	0.339154	16
7	0.300000	0.117767	4.757263	0.351901	16
7	0.300000	0.115190	4.446045	0.332718	16
7	0.400000	0.106438	3.815979	0.326924	16
7	0.400000	0.109286	3.986389	0.326583	16
7	0.400000	0.108803	4.313599	0.337084	16
7	0.400000	0.114278	4.448486	0.339848	16
7	0.400000	0.110999	4.469543	0.333583	16
7	0.500000	0.096407	3.342346	0.302737	15
7	0.500000	0.097902	3.453247	0.304783	15
7	0.500000	0.100059	3.750549	0.314543	15
7	0.500000	0.095720	3.437805	0.305595	15
7	0.500000	0.100140	3.771606	0.314485	15
7	0.600000	0.090667	2.846863	0.299622	15
7	0.600000	0.095471	3.695068	0.314123	15
7	0.600000	0.095590	3.684204	0.319537	15
7	0.600000	0.092072	2.982666	0.303293	15
7	0.600000	0.091145	3.273743	0.301597	15
7	0.700000	0.085485	2.687866	0.317232	16
7	0.700000	0.085047	2.874207	0.312305	16
7	0.700000	0.084846	2.659912	0.301611	16
7	0.700000	0.086052	2.686157	0.304104	16
7	0.700000	0.089030	2.806396	0.305921	16
7	0.800000	0.071476	2.216431	0.251066	12
7	0.800000	0.073036	2.759033	0.265745	12
7	0.800000	0.070440	1.826843	0.241464	12
7	0.800000	0.075718	2.478210	0.256321	12
7	0.800000	0.071267	2.090210	0.249596	12
7	0.900000	0.069461	2.290833	0.252963	12
7	0.900000	0.065147	1.488403	0.234090	12
7	0.900000	0.065000	1.643127	0.233468	12
7	0.900000	0.067308	2.092896	0.254500	12
7	0.900000	0.066650	1.713379	0.244798	12
7	1.000000	0.051850	1.172485	0.085369	1
7	1.000000	0.051312	1.181274	0.085645	1
7	1.000000	0.051517	1.616089	0.105446	1
7	1.000000	0.051566	1.177368	0.085105	1
7	1.000000	0.050945	1.617615	0.103547	1
8	0.000000	0.277736	12.838928	0.693150	16
8	0.000000	0.274045	12.723816	0.689945	16
8	0.000000	0.278585	12.948364	0.695150	16
8	0.000000	0.283002	13.260864	0.702192	16
8	0.000000	0.283324	13.114990	0.701616	16
8	0.100000	0.251880	11.768616	0.671121	16
8	0.100000	0.241321	11.366089	0.657320	16
8	0.100000	0.256948	12.021912	0.681807	16
8	0.100000	0.251631	11.701721	0.672389	16
8	0.100000	0.258497	11.936890	0.671324	16
8	0.200000	0.208370	9.627136	0.626395	16
8	0.200000	0.218917	10.055237	0.632472	16
8	0.200000	0.221655	9.998230	0.636062	16
8	0.200000	0.215660	9.803650	0.634314	16
8	0.200000	0.219691	9.992859	0.633057	16
8	0.300000	0.268651	14.285034	0.693967	16
8	0.300000	0.270377	14.462219	0.687962	16
8	0.300000	0.269935	14.299744	0.683465	16
8	0.300000	0.270552	14.331909	0.691967	16
8	0.300000	0.287028	14.827576	0.700710	16
8	0.400000	0.210993	10.761230	0.625383	16
8	0.400000	0.209738	10.742371	0.621509	16
8	0.400000	0.211135	10.813416	0.628009	16
8	0.400000	0.204230	10.603088	0.620556	16
8	0.400000	0.216481	10.991821	0.639558	16
8	0.500000	0.140978	6.254028	0.542345	15
8	0.500000	0.132866	5.677734	0.523106	15
8	0.500000	0.134138	5.622437	0.533459	15
8	0.500000	0.131641	5.705383	0.523931	15
8	0.500000	0.130734	5.597107	0.519993	15
8	0.600000	0.112704	4.735291	0.506523	15
8	0.600000	0.111017	4.368652	0.498376	15
8	0.600000	0.113012	4.565247	0.501089	15
8	0.600000	0.127001	5.084351	0.517648	15
8	0.600000	0.119589	4.899963	0.527786	15
8	0.700000	0.147884	6.647949	0.551394	15
8	0.700000	0.154796	7.091919	0.550767	15
8	0.700000	0.144829	6.525024	0.533259	15
8	0.700000	0.163696	7.591370	0.559823	15
8	0.700000	0.143384	6.583618	0.543878	15
8	0.800000	0.093762	3.745728	0.493220	15
8	0.800000	0.092407	3.495972	0.491563	15
8	0.800000	0.090711	3.149719	0.476451	15
8	0.800000	0.090118	3.165527	0.487580	15
8	0.800000	0.102389	3.753784	0.503178	15
8	0.900000	0.119649	4.980408	0.460142	13
8	0.900000	0.121658	5.040039	0.462540	13
8	0.900000	0.119455	4.896790	0.457669	13
8	0.900000	0.119350	4.942627	0.455850	13
8	0.900000	0.120207	4.813721	0.458866	13
8	1.000000	0.051721	1.520752	0.111709	1
8	1.000000	0.051550	1.161377	0.097568	1
8	1.000000	0.051447	1.164185	0.097161	1
8	1.000000	0.051152	1.750366	0.117503	1
8	1.000000	0.051433	1.147766	0.098622	1
9	0.000000	0.515301	24.959290	1.273366	15
9	0.000000	0.502294	24.560059	1.264172	15
9	0.000000	0.501313	24.410339	1.261495	15
9	0.000000	0.506074	24.830811	1.263803	15
9	0.000000	0.501830	24.530701	1.262076	15
9	0.100000	0.454506	22.147156	1.207115	15
9	0.100000	0.453248	22.147461	1.210207	15
9	0.100000	0.469586	22.681946	1.221166	15
9	0.100000	0.457021	22.327332	1.212522	15
9	0.100000	0.456260	22.131592	1.208710	15
9	0.200000	0.406411	19.640015	1.159124	15
9	0.200000	0.406497	19.709045	1.165709	15
9	0.200000	0.405281	19.781067	1.168233	15
9	0.200000	0.408545	19.753479	1.168553	15
9	0.200000	0.411556	19.897095	1.168146	15
9	0.300000	0.360303	18.599487	1.115196	15
9	0.300000	0.372545	19.132141	1.126115	15
9	0.300000	0.356240	18.464600	1.110569	15
9	0.300000	0.362645	18.570740	1.116260	15
9	0.300000	0.364980	18.695679	1.120129	15
9	0.400000	0.320574	15.222778	1.099614	15
9	0.400000	0.328122	15.510376	1.078617	15
9	0.400000	0.324484	15.251099	1.083784	15
9	0.400000	0.310479	14.891357	1.068808	15
9	0.400000	0.320837	15.266418	1.081895	15
9	0.500000	0.266923	12.375916	1.020290	15
9	0.500000	0.281335	13.061951	1.032367	15
9	0.500000	0.293999	13.411682	1.046045	15
9	0.500000	0.278483	12.948486	1.030974	15
9	0.500000	0.267290	12.416687	1.018492	15
9	0.600000	0.222198	11.191956	0.926086	14
9	0.600000	0.208703	10.674744	0.926175	14
9	0.600000	0.214951	10.772156	0.917225	14
9	0.600000	0.208541	10.778320	0.927152	14
9	0.600000	0.221978	11.107544	0.925742	14
9	0.700000	0.155193	6.789612	0.865969	14
9	0.700000	0.175163	7.493958	0.884553	14
9	0.700000	0.166588	7.440063	0.866042	14
9	0.700000	0.164763	7.288818	0.871135	14
9	0.700000	0.163662	7.205750	0.872523	14
9	0.800000	0.096371	3.867249	0.316241	4
9	0.800000	0.102113	3.999084	0.319499	4
9	0.800000	0.105788	4.218750	0.327945	4
9	0.800000	0.101858	4.030334	0.319276	4
9	0.800000	0.094678	3.853394	0.316384	4
9	0.900000	0.067726	2.352844	0.297216	4
9	0.900000	0.067184	2.370728	0.297499	4
9	0.900000	0.076882	2.575439	0.303066	4
9	0.900000	0.063797	1.826721	0.278702	4
9	0.900000	0.070813	2.398193	0.298767	4
9	1.000000	0.051542	1.447632	0.134706	1
9	1.000000	0.051843	1.189697	0.124820	1
9	1.000000	0.052132	1.604919	0.145609	1
9	1.000000	0.051974	1.442810	0.135725	1
9	1.000000	0.051793	1.195862	0.121782	1
10	0.000000	1.102845	55.740479	2.828958	16
10	0.000000	1.098485	55.579834	2.829159	16
10	0.000000	1.098710	55.844177	2.856398	16
10	0.000000	1.103411	56.028992	2.823650	16
10	0.000000	1.106060	56.005066	2.849106	16
10	0.100000	0.995285	50.496887	2.733314	16
10	0.100000	1.009502	51.123657	2.729262	16
10	0.100000	1.001753	50.789124	2.717556	16
10	0.100000	0.997987	50.587769	2.710547	16
10	0.100000	0.990209	50.389465	2.710004	16
10	0.200000	0.893254	45.129883	2.629986	16
10	0.200000	0.882213	44.837646	2.614183	16
10	0.200000	0.900140	45.375305	2.619225	16
10	0.200000	0.896771	45.230469	2.617273	16
10	0.200000	0.891959	45.233887	2.607781	16
10	0.300000	0.788390	39.714539	2.526147	16
10	0.300000	0.782443	39.458313	2.495568	16
10	0.300000	0.784857	39.651001	2.503766	16
10	0.300000	0.782367	39.438843	2.543892	16
10	0.300000	0.786896	39.666809	2.514614	16
10	0.400000	0.684081	34.312805	2.417985	16
10	0.400000	0.683886	34.091980	2.423025	16
10	0.400000	0.687832	34.395203	2.398502	16
10	0.400000	0.676485	33.893433	2.405868	16
10	0.400000	0.676427	33.848328	2.389324	16
10	0.500000	0.542992	26.926453	2.160887	15
10	0.500000	0.541915	26.604248	2.167449	15
10	0.500000	0.542116	26.622681	2.193244	15
10	0.500000	0.541868	26.712341	2.165955	15
10	0.500000	0.553467	27.105591	2.165248	15
10	0.600000	0.440668	21.582520	2.043785	15
10	0.600000	0.444632	21.669678	2.048638	15
10	0.600000	0.445613	21.671021	2.062662	15
10	0.600000	0.440733	21.573364	2.058509	15
10	0.600000	0.440190	21.379150	2.075734	15
10	0.700000	0.357559	16.904358	2.006341	15
10	0.700000	0.350379	16.780640	1.959922	15
10	0.700000	0.341587	16.323425	1.987854	15
10	0.700000	0.337896	16.079590	1.941988	15
10	0.700000	0.353757	16.832703	1.961218	15
10	0.800000	0.212531	9.572205	1.608401	13
10	0.800000	0.215848	9.808777	1.661765	13
10	0.800000	0.212666	9.708191	1.605928	13
10	0.800000	0.214390	9.712830	1.608047	13
10	0.800000	0.214939	9.796997	1.654663	13
10	0.900000	0.132380	5.354614	1.540342	13
10	0.900000	0.141800	5.988159	1.552187	13
10	0.900000	0.132216	5.397400	1.589431	13
10	0.900000	0.134134	5.554688	1.535078	13
10	0.900000	0.139824	5.574097	1.532654	13
10	1.000000	0.051432	1.674561	0.197153	1
10	1.000000	0.052111	1.667053	0.201822	1
10	1.000000	0.052263	1.205811	0.189331	1
10	1.000000	0.051190	1.173157	0.186786	1
10	1.000000	0.051645	1.184387	0.185335	1
11	0.000000	2.016029	103.826416	5.230532	16
11	0.000000	2.020737	104.581665	5.228770	16
11	0.000000	2.022520	104.775452	5.226223	16
11	0.000000	2.010582	104.178101	5.285519	16
11	0.000000	2.023761	104.865479	5.217457	16
11	0.100000	1.816351	93.927673	5.101604	16
11	0.100000	1.820899	94.408997	5.052888	16
11	0.100000	1.827633	94.566040	5.037354	16
11	0.100000	1.814097	93.855652	5.050825	16
11	0.100000	1.818468	94.081238	5.017313	16
11	0.200000	1.622097	83.938049	4.815050	16
11	0.200000	1.623098	83.908691	4.838870	16
11	0.200000	1.628686	84.116089	4.832979	16
11	0.200000	1.616824	83.357178	4.808670	16
11	0.200000	1.626792	83.560242	4.839707	16
11	0.300000	1.433938	73.910706	4.627522	16
11	0.300000	1.420432	73.334839	4.688738	16
11	0.300000	1.437539	73.987732	4.645768	16
11	0.300000	1.435302	73.905762	4.639396	16
11	0.300000	1.429489	73.507812	4.699764	16
11	0.400000	1.221296	62.829163	4.408261	16
11	0.400000	1.229936	63.131104	4.435168	16
11	0.400000	1.236620	63.452026	4.432763	16
11	0.400000	1.231044	63.030579	4.439764	16
11	0.400000	1.232956	63.207458	4.451725	16
11	0.500000	0.966238	49.276245	4.041108	15
11	0.500000	0.983458	49.596008	4.048968	15
11	0.500000	0.966737	49.087769	3.960577	15
11	0.500000	0.970349	49.243408	3.971097	15
11	0.500000	0.967050	49.175354	3.975347	15
11	0.600000	0.795531	40.078918	3.803004	15
11	0.600000	0.781213	39.594849	3.772227	15
11	0.600000	0.789113	39.796570	3.805516	15
11	0.600000	0.787165	39.731873	3.793038	15
11	0.600000	0.787146	39.781494	3.853608	15
11	0.700000	0.599045	29.899475	3.591713	15
