ALG_ID	INPUT_ID	PLATFORM_ID	GPU_RATIO	E_GPU(J)	E_CPU(J)	E_MEM(J)	E_TOT(J)	TIME(s)	NR_ITER	HET_FOR_TIME(s)	HET_FOR_ENERGY(Joule)
5	6	4	1	3	2048	1.0658	4.90009	1.17255	7.13843	0.407787	16	0.297085	4.92279
5	6	4	1	3	2048	1.06921	4.90405	1.16418	7.13745	0.40765	16	0.298637	4.94189
5	6	4	1	3	2048	1.0816	4.89331	1.16223	7.13715	0.409867	16	0.297612	4.94086
5	6	4	1	3	2048	1.06256	4.88153	1.14636	7.09045	0.406158	16	0.298008	4.92352
5	6	4	1	3	2048	1.06201	4.87671	1.18677	7.12549	0.408624	16	0.297256	4.87018
5	6	4	1	3	4096	0.786438	3.98547	0.888184	5.6601	0.306123	16	0.196783	3.44263
5	6	4	1	3	4096	0.919617	4.16449	0.932434	6.01654	0.332006	16	0.210923	3.60968
5	6	4	1	3	4096	0.821533	4.034	0.914307	5.76984	0.318361	16	0.203073	3.4458
5	6	4	1	3	4096	0.85144	4.03961	0.910095	5.80115	0.326322	16	0.20714	3.46381
5	6	4	1	3	4096	0.84436	4.04669	0.893188	5.78424	0.325046	16	0.209335	3.466
5	6	4	1	3	8192	0.720947	3.71936	0.793823	5.23413	0.281467	16	0.17225	3.04266
5	6	4	1	3	8192	0.75592	3.81476	0.797424	5.3681	0.289433	16	0.17496	3.10193
5	6	4	1	3	8192	0.695068	3.66388	0.772827	5.13177	0.273078	16	0.164964	2.96338
5	6	4	1	3	8192	0.763977	3.82617	0.803528	5.39368	0.288643	16	0.176432	3.11774
5	6	4	1	3	8192	0.729431	3.79175	0.777893	5.29907	0.279148	16	0.170437	3.10828
5	6	4	1	3	16384	0.757324	3.7677	0.794739	5.31976	0.281644	16	0.168837	3.07385
5	6	4	1	3	16384	0.791016	3.80902	0.801514	5.40155	0.289647	16	0.173827	3.07434
5	6	4	1	3	16384	0.667786	3.57837	0.736206	4.98236	0.261198	16	0.154252	2.78766
5	6	4	1	3	16384	0.701538	3.65027	0.764465	5.11627	0.269161	16	0.159602	2.97345
5	6	4	1	3	16384	0.677979	3.58295	0.729858	4.99078	0.262082	16	0.154495	2.8512
5	6	4	1	3	32768	0.651306	3.46313	0.699707	4.81415	0.254348	16	0.146621	2.659
5	6	4	1	3	32768	0.71814	3.61511	0.744324	5.07758	0.2652	16	0.152173	2.81726
5	6	4	1	3	32768	0.69342	3.62329	0.768921	5.08563	0.275284	16	0.165804	2.75824
5	6	4	1	3	32768	0.682556	3.55713	0.73468	4.97437	0.261839	16	0.152865	2.76068
5	6	4	1	3	32768	0.716003	3.60742	0.743774	5.0672	0.269896	16	0.159105	2.75311
5	6	4	1	3	65536	0.617432	3.33917	0.668762	4.62537	0.242965	16	0.135069	2.42432
5	6	4	1	3	65536	0.715698	3.54089	0.723694	4.98029	0.263174	16	0.145184	2.75861
5	6	4	1	3	65536	0.64917	3.38031	0.691528	4.72101	0.250099	16	0.141175	2.50079
5	6	4	1	3	65536	0.812988	3.6701	0.78595	5.26904	0.288679	16	0.165886	2.65546
5	6	4	1	3	65536	0.650635	3.41541	0.704651	4.77069	0.247838	16	0.139671	2.55829
5	6	4	1	3	131072	0.625244	3.24811	0.65448	4.52783	0.236437	16	0.127052	2.37628
5	6	4	1	3	131072	0.62561	3.22437	0.638672	4.48865	0.235384	16	0.126263	2.30621
5	6	4	1	3	131072	0.622314	3.20618	0.647339	4.47583	0.235559	16	0.125958	2.27289
5	6	4	1	3	131072	0.629456	3.22028	0.656067	4.5058	0.235134	16	0.125674	2.3067
5	6	4	1	3	131072	0.609985	3.15967	0.659058	4.42871	0.236226	16	0.12756	2.21277
5	6	4	1	3	262144	0.626587	3.1051	0.63739	4.36908	0.228292	16	0.118417	2.11249
5	6	4	1	3	262144	0.60083	3.06262	0.624023	4.28748	0.227755	16	0.118601	2.07806
5	6	4	1	3	262144	0.654114	3.1944	0.643066	4.49158	0.23738	16	0.119199	2.29065
5	6	4	1	3	262144	0.623169	3.10724	0.62384	4.35425	0.227665	16	0.118923	2.13147
5	6	4	1	3	262144	0.608459	3.09857	0.627686	4.33472	0.229597	16	0.118143	2.14233
5	6	4	1	3	524288	0.576111	3.04578	0.580627	4.20251	0.216577	16	0.107314	1.9978
5	6	4	1	3	524288	0.593445	3.03735	0.604553	4.23535	0.219201	16	0.111572	2.02472
5	6	4	1	3	524288	0.582214	3.04999	0.578918	4.21112	0.218675	16	0.108863	2.00781
5	6	4	1	3	524288	0.587219	3.02325	0.596924	4.2074	0.220568	16	0.111663	2.04602
5	6	4	1	3	524288	0.580688	3.04224	0.593628	4.21655	0.217379	16	0.108043	2.01038
5	6	4	1	3	1048576	0.608582	2.91443	0.582336	4.10535	0.214644	16	0.10498	1.8877
5	6	4	1	3	1048576	0.69519	3.12341	0.636719	4.45532	0.23511	16	0.111166	2.15796
5	6	4	1	3	1048576	0.65625	2.96344	0.600586	4.22028	0.218963	16	0.110299	1.92651
5	6	4	1	3	1048576	0.664856	2.96368	0.603149	4.23169	0.220028	16	0.104671	1.9967
5	6	4	1	3	1048576	0.628479	2.92401	0.581543	4.13403	0.215881	16	0.106641	1.93048
5	6	4	1	3	2097152	0.67981	2.8501	0.565857	4.09576	0.210129	16	0.102105	1.91669
5	6	4	1	3	2097152	0.674011	2.90674	0.569397	4.15015	0.213741	16	0.100093	1.86462
5	6	4	1	3	2097152	0.693665	2.85974	0.569702	4.12311	0.214186	16	0.106716	1.91754
5	6	4	1	3	2097152	0.645569	2.83557	0.565552	4.04669	0.20939	16	0.100372	1.84802
5	6	4	1	3	2097152	0.697144	2.8739	0.579224	4.15027	0.212886	16	0.10461	1.91986
5	6	4	1	3	4194304	0.122009	4.63531	0.552246	5.30957	0.214623	16	0.123075	2.69519
5	6	4	1	3	4194304	0.112122	4.51617	0.531372	5.15967	0.202444	16	0.111987	2.62903
5	6	4	1	3	4194304	0.110779	4.492	0.52301	5.12579	0.201561	16	0.111	2.61121
5	6	4	1	3	4194304	0.112915	4.5484	0.534851	5.19617	0.204535	16	0.113682	2.68829
5	6	4	1	3	4194304	0.111755	4.5257	0.525146	5.1626	0.202568	16	0.112108	2.6568
5	6	4	1	3	8388608	0.128296	4.58887	0.601074	5.31824	0.231801	16	0.140684	2.79785
5	6	4	1	3	8388608	0.132507	4.59027	0.597107	5.31989	0.232491	16	0.141708	2.75195
5	6	4	1	3	8388608	0.134216	4.58984	0.593201	5.31726	0.230557	16	0.139526	2.76947
5	6	4	1	3	8388608	0.12854	4.56311	0.59845	5.2901	0.229909	16	0.139234	2.76715
5	6	4	1	3	8388608	0.137512	4.68304	0.607422	5.42798	0.238483	16	0.145021	2.88135
5	7	4	1	3	2048	2.36462	10.4494	2.74005	15.5541	0.910819	16	0.708484	11.3256
5	7	4	1	3	2048	2.30212	10.2786	2.69556	15.2763	0.890055	16	0.692643	11.1392
5	7	4	1	3	2048	2.35223	10.4231	2.72723	15.5026	0.906308	16	0.703819	11.212
5	7	4	1	3	2048	2.3678	10.4337	2.74768	15.5492	0.910425	16	0.708877	11.3173
5	7	4	1	3	2048	2.37323	10.4914	2.7403	15.6049	0.90787	16	0.705214	11.3478
5	7	4	1	3	4096	1.8905	8.75049	2.1474	12.7884	0.702706	16	0.495678	8.37903
5	7	4	1	3	4096	1.79694	8.5481	2.10059	12.4456	0.684263	16	0.482539	8.1615
5	7	4	1	3	4096	1.81439	8.6864	2.09424	12.595	0.684435	16	0.48378	8.31598
5	7	4	1	3	4096	1.8291	8.72864	2.09753	12.6553	0.685122	16	0.485695	8.32819
5	7	4	1	3	4096	1.83838	8.66937	2.10425	12.612	0.689135	16	0.487608	8.35468
5	7	4	1	3	8192	1.5946	8.01453	1.8103	11.4194	0.598016	16	0.400019	7.23254
5	7	4	1	3	8192	1.65576	8.2876	1.88226	11.8256	0.617891	16	0.412356	7.401
5	7	4	1	3	8192	1.66351	8.18835	1.82886	11.6807	0.618446	16	0.411379	7.47375
5	7	4	1	3	8192	1.61847	8.08276	1.84497	11.5462	0.604054	16	0.403239	7.20142
5	7	4	1	3	8192	1.59949	7.97015	1.80231	11.3719	0.602133	16	0.403774	7.14166
5	7	4	1	3	16384	1.64978	8.02942	1.80103	11.4802	0.601302	16	0.3927	7.08875
5	7	4	1	3	16384	1.59991	7.97797	1.77869	11.3566	0.594865	16	0.385894	7.10107
5	7	4	1	3	16384	1.61377	7.95404	1.80835	11.3762	0.596425	16	0.39458	6.89606
5	7	4	1	3	16384	1.56165	7.84222	1.71442	11.1183	0.581711	16	0.380857	6.85632
5	7	4	1	3	16384	1.49005	7.64923	1.70312	10.8424	0.565308	16	0.367642	6.61212
5	7	4	1	3	32768	1.45856	7.6449	1.65399	10.7574	0.549539	16	0.349333	6.48975
5	7	4	1	3	32768	1.41443	7.39423	1.57385	10.3825	0.536358	16	0.336593	6.15747
5	7	4	1	3	32768	1.52411	7.70856	1.67444	10.9071	0.564257	16	0.361755	6.45551
5	7	4	1	3	32768	1.50671	7.60071	1.65656	10.764	0.562348	16	0.358048	6.47656
5	7	4	1	3	32768	1.57507	7.77405	1.65704	11.0062	0.567872	16	0.358492	6.5769
5	7	4	1	3	65536	1.30951	7.08325	1.44843	9.84119	0.498479	16	0.300815	5.6424
5	7	4	1	3	65536	1.42847	7.229	1.58466	10.2421	0.530482	16	0.329594	6.00684
5	7	4	1	3	65536	1.56799	7.46405	1.62769	10.6597	0.556633	16	0.346552	6.10815
5	7	4	1	3	65536	1.37616	7.06982	1.50891	9.9549	0.517413	16	0.316436	5.68732
5	7	4	1	3	65536	1.36884	7.05426	1.50391	9.927	0.514366	16	0.313254	5.65283
5	7	4	1	3	131072	1.28003	6.59088	1.35498	9.22589	0.471298	16	0.273588	5.02692
5	7	4	1	3	131072	1.23175	6.64923	1.33209	9.21307	0.462718	16	0.265248	4.99176
5	7	4	1	3	131072	1.22754	6.61029	1.33856	9.17639	0.462225	16	0.264072	4.95496
5	7	4	1	3	131072	1.3421	6.7901	1.40314	9.53534	0.490196	16	0.285195	5.24579
5	7	4	1	3	131072	1.30743	6.76886	1.3761	9.45239	0.480862	16	0.280246	5.21588
5	7	4	1	3	262144	1.21594	6.32098	1.27905	8.81598	0.45305	16	0.250016	4.50452
5	7	4	1	3	262144	1.22015	6.2771	1.28168	8.77893	0.450452	16	0.249934	4.49884
5	7	4	1	3	262144	1.31189	6.54266	1.31183	9.16638	0.463225	16	0.252758	4.73566
5	7	4	1	3	262144	1.16718	6.185	1.23016	8.58234	0.435185	16	0.236534	4.36615
5	7	4	1	3	262144	1.2218	6.32593	1.28394	8.83167	0.450405	16	0.24964	4.59253
5	7	4	1	3	524288	1.21283	6.17725	1.19989	8.58997	0.4296	16	0.219975	4.18805
5	7	4	1	3	524288	1.12244	6.02075	1.16895	8.31213	0.415678	16	0.215551	4.13031
5	7	4	1	3	524288	1.1283	6.04083	1.18811	8.35724	0.418445	16	0.216876	4.06323
5	7	4	1	3	524288	1.12976	6.01337	1.17316	8.31628	0.416056	16	0.217322	4.12408
5	7	4	1	3	524288	1.2851	6.32166	1.22961	8.83636	0.442791	16	0.227331	4.27014
5	7	4	1	3	1048576	1.16766	5.84052	1.12549	8.13367	0.407906	16	0.197707	3.91785
5	7	4	1	3	1048576	1.19653	5.8269	1.1424	8.16583	0.410463	16	0.201777	3.91241
5	7	4	1	3	1048576	1.26361	6.06873	1.17163	8.50397	0.426649	16	0.20229	3.97107
5	7	4	1	3	1048576	1.1748	5.84943	1.12738	8.15161	0.411475	16	0.199352	3.88782
5	7	4	1	3	1048576	1.11072	5.76447	1.1167	7.99188	0.397886	16	0.195761	3.72577
5	7	4	1	3	2097152	1.2453	5.49908	1.04596	7.79034	0.379879	16	0.180401	3.59406
5	7	4	1	3	2097152	1.2699	5.49713	1.0647	7.83173	0.381498	16	0.182592	3.62091
5	7	4	1	3	2097152	1.26929	5.70807	1.07098	8.04834	0.395075	16	0.181512	3.52136
5	7	4	1	3	2097152	1.33032	5.74615	1.08301	8.15948	0.401126	16	0.183631	3.57971
5	7	4	1	3	2097152	1.15466	5.51605	1.03381	7.70453	0.379132	16	0.177033	3.45514
5	7	4	1	3	4194304	1.05371	5.41187	1.02948	7.49506	0.374644	16	0.172856	3.22626
5	7	4	1	3	4194304	1.05841	5.41901	1.02075	7.49817	0.373898	16	0.172291	3.23779
5	7	4	1	3	4194304	1.09052	5.4693	1.01654	7.57635	0.378764	16	0.172397	3.2439
5	7	4	1	3	4194304	1.09174	5.40717	1.0238	7.52271	0.374598	16	0.174926	3.35645
5	7	4	1	3	4194304	1.12231	5.53137	1.04144	7.69513	0.382665	16	0.174752	3.33002
5	7	4	1	3	8388608	0.215881	8.69592	1.00116	9.91296	0.380431	16	0.208412	4.96924
5	7	4	1	3	8388608	0.215088	8.69366	1.00281	9.91156	0.383128	16	0.211803	4.95551
5	7	4	1	3	8388608	0.214233	8.64618	0.992065	9.85248	0.37782	16	0.204309	4.97302
5	7	4	1	3	8388608	0.209167	8.67682	0.990601	9.87659	0.374637	16	0.203016	4.97845
5	7	4	1	3	8388608	0.210388	8.58002	0.996521	9.78693	0.3734	16	0.202612	4.92596
5	8	4	1	3	2048	5.1554	21.5583	5.93719	32.6509	1.86547	16	1.48038	24.3434
5	8	4	1	3	2048	5.2088	21.6417	5.9895	32.84	1.87966	16	1.50077	24.5626
5	8	4	1	3	2048	5.19818	21.6759	5.96527	32.8394	1.87976	16	1.49274	24.4442
5	8	4	1	3	2048	5.18091	21.5609	5.94385	32.6856	1.87238	16	1.47757	24.3114
5	8	4	1	3	2048	5.31641	21.8143	6.00232	33.1331	1.8959	16	1.49853	24.6888
5	8	4	1	3	4096	4.07703	18.3914	4.41144	26.8798	1.40947	16	1.03077	18.5859
5	8	4	1	3	4096	4.09338	18.4336	4.43585	26.9628	1.41639	16	1.03267	18.6957
5	8	4	1	3	4096	4.10187	18.4634	4.44751	27.0128	1.42117	16	1.03764	18.6875
5	8	4	1	3	4096	4.10211	18.4788	4.43719	27.0181	1.42319	16	1.03224	18.6379
5	8	4	1	3	4096	4.14465	18.615	4.48663	27.2463	1.43585	16	1.04441	18.8638
5	8	4	1	3	8192	3.72327	17.3312	3.97485	25.0294	1.28504	16	0.885617	16.3665
5	8	4	1	3	8192	3.57416	17.0293	3.89832	24.5018	1.25031	16	0.871569	16.2248
5	8	4	1	3	8192	3.50684	16.9404	3.86359	24.3109	1.24028	16	0.862243	16.1002
5	8	4	1	3	8192	3.54736	17.0543	3.88348	24.4851	1.24985	16	0.868632	16.1797
5	8	4	1	3	8192	3.61633	17.2707	3.9516	24.8386	1.27275	16	0.885268	16.4293
5	8	4	1	3	16384	3.49396	16.7703	3.76221	24.0264	1.21985	16	0.827165	15.5417
5	8	4	1	3	16384	3.37469	16.529	3.7088	23.6125	1.19993	16	0.813974	15.212
5	8	4	1	3	16384	3.42694	16.6362	3.7392	23.8024	1.21135	16	0.82112	15.3297
5	8	4	1	3	16384	3.37354	16.5059	3.69464	23.5741	1.19436	16	0.804676	15.2193
5	8	4	1	3	16384	3.32977	16.3815	3.66699	23.3782	1.18306	16	0.803734	15.0232
5	8	4	1	3	32768	3.12939	15.7349	3.45331	22.3176	1.12303	16	0.744461	14.0494
5	8	4	1	3	32768	3.24829	16.1429	3.57947	22.9706	1.15909	16	0.773469	14.5779
5	8	4	1	3	32768	3.15991	15.8104	3.47278	22.4431	1.12946	16	0.742462	14.1865
5	8	4	1	3	32768	3.30896	16.1854	3.61682	23.1112	1.17047	16	0.778736	14.5797
5	8	4	1	3	32768	3.34668	16.2612	3.62494	23.2328	1.17767	16	0.789448	14.6883
5	8	4	1	3	65536	2.99292	15.1698	3.29663	21.4594	1.07523	16	0.695626	13.1507
5	8	4	1	3	65536	3.09216	15.4301	3.38214	21.9044	1.10092	16	0.715478	13.5362
5	8	4	1	3	65536	2.99365	15.1673	3.29364	21.4546	1.07683	16	0.695617	13.1624
5	8	4	1	3	65536	3.09381	15.4838	3.3855	21.9631	1.10344	16	0.717496	13.5196
5	8	4	1	3	65536	3.1441	15.515	3.43036	22.0894	1.11748	16	0.731113	13.687
5	8	4	1	3	131072	2.89856	14.4877	3.06494	20.4512	1.0151	16	0.624438	11.9893
5	8	4	1	3	131072	2.91626	14.6338	3.13885	20.6889	1.03353	16	0.643463	12.1667
5	8	4	1	3	131072	2.77576	14.2741	2.99432	20.0442	0.992783	16	0.608115	11.6624
5	8	4	1	3	131072	2.86377	14.5403	3.10999	20.514	1.02109	16	0.633644	12.0607
5	8	4	1	3	131072	2.92316	14.5518	3.09814	20.5731	1.02348	16	0.634787	12.136
5	8	4	1	3	262144	2.67609	13.6509	2.86438	19.1914	0.954371	16	0.565928	10.7067
5	8	4	1	3	262144	2.57275	13.3755	2.77081	18.7191	0.922501	16	0.54149	10.4149
5	8	4	1	3	262144	2.74823	13.7876	2.89825	19.4341	0.964157	16	0.567969	10.9194
5	8	4	1	3	262144	2.65106	13.6208	2.84393	19.1158	0.947425	16	0.563182	10.7084
5	8	4	1	3	262144	2.6781	13.6769	2.87018	19.2252	0.956001	16	0.564232	10.8614
5	8	4	1	3	524288	2.34741	12.46	2.50623	17.3136	0.844537	16	0.465419	8.99084
5	8	4	1	3	524288	2.42847	12.6133	2.55597	17.5978	0.86517	16	0.479121	9.21387
5	8	4	1	3	524288	2.4931	12.6855	2.5827	17.7613	0.874877	16	0.48	9.38385
5	8	4	1	3	524288	2.32892	12.4058	2.49536	17.2301	0.842572	16	0.463702	8.96863
5	8	4	1	3	524288	2.49573	12.7166	2.60602	17.8183	0.879278	16	0.492033	9.25195
5	8	4	1	3	1048576	2.24158	11.8262	2.31561	16.3834	0.795652	16	0.405192	7.89972
5	8	4	1	3	1048576	2.13824	11.6829	2.28021	16.1013	0.780863	16	0.402307	7.81531
5	8	4	1	3	1048576	2.20459	11.8809	2.31512	16.4006	0.798024	16	0.405056	7.91779
5	8	4	1	3	1048576	2.15021	11.7742	2.28949	16.2139	0.785774	16	0.403278	7.85236
5	8	4	1	3	1048576	2.17609	11.8771	2.302	16.3552	0.794117	16	0.40487	7.9057
5	8	4	1	3	2097152	2.06866	11.2559	2.12115	15.4457	0.737174	16	0.350298	7.11285
5	8	4	1	3	2097152	2.21564	11.5576	2.15723	15.9305	0.757499	16	0.360683	7.3078
5	8	4	1	3	2097152	2.03485	11.2943	2.1098	15.4389	0.735575	16	0.350784	7.03857
5	8	4	1	3	2097152	2.03302	11.1869	2.10962	15.3295	0.733296	16	0.35122	7.01361
5	8	4	1	3	2097152	2.15515	11.4849	2.14227	15.7823	0.751922	16	0.356774	7.16785
5	8	4	1	3	4194304	2.10791	10.8864	2.07068	15.065	0.72323	16	0.340319	6.72009
5	8	4	1	3	4194304	2.1806	11.0058	2.11536	15.3018	0.73799	16	0.334622	6.68811
5	8	4	1	3	4194304	2.0918	10.8328	2.06543	14.99	0.720612	16	0.335377	6.60706
5	8	4	1	3	4194304	2.08868	10.784	2.06079	14.9335	0.719432	16	0.334483	6.52148
5	8	4	1	3	4194304	2.12622	10.8323	2.08081	15.0394	0.72522	16	0.339185	6.68347
5	8	4	1	3	8388608	2.22791	10.7238	1.98761	14.9393	0.705974	16	0.306346	6.26855
5	8	4	1	3	8388608	2.25891	10.6888	1.97101	14.9187	0.703303	16	0.311375	6.39246
5	8	4	1	3	8388608	2.17938	10.6637	1.99133	14.8344	0.702161	16	0.305171	6.19543
5	8	4	1	3	8388608	2.18829	10.694	2.00085	14.8831	0.705408	16	0.30812	6.31476
5	8	4	1	3	8388608	2.24786	10.5724	1.97729	14.7975	0.697706	16	0.318741	6.53479
5	9	4	1	3	2048	10.1757	41.1289	11.3607	62.6653	3.53047	15	2.83346	47.3939
5	9	4	1	3	2048	10.8447	43.9545	12.121	66.9202	3.76479	16	3.00354	50.3795
5	9	4	1	3	2048	10.8914	43.9642	12.1738	67.0294	3.77357	16	3.03176	50.6624
5	9	4	1	3	2048	10.2767	41.4666	11.4503	63.1935	3.55129	15	2.85582	47.8185
5	9	4	1	3	2048	10.4103	41.5815	11.5018	63.4936	3.57667	15	2.86478	47.973
5	9	4	1	3	4096	7.75262	34.67	8.26233	50.685	2.60396	15	1.91092	35.4318
5	9	4	1	3	4096	7.85834	34.9256	8.36664	51.1506	2.63795	15	1.94475	35.7178
5	9	4	1	3	4096	7.96075	35.0595	8.43713	51.4574	2.66104	15	1.96087	36.2076
5	9	4	1	3	4096	7.81799	34.9265	8.34753	51.092	2.63286	15	1.926	35.6274
5	9	4	1	3	4096	8.43561	37.2803	8.8988	54.6147	2.80372	16	2.0646	38.2561
5	9	4	1	3	8192	6.85107	32.232	7.39282	46.4759	2.34599	15	1.65253	31.069
5	9	4	1	3	8192	6.92151	32.5824	7.4494	46.9533	2.37447	15	1.66006	31.4478
5	9	4	1	3	8192	6.84088	32.1833	7.40094	46.4252	2.34664	15	1.6469	31.0858
5	9	4	1	3	8192	7.25983	34.3357	7.83917	49.4347	2.4929	16	1.75118	33.1439
5	9	4	1	3	8192	7.30908	34.5536	7.88989	49.7526	2.50739	16	1.74727	33.1909
5	9	4	1	3	16384	6.5127	31.5792	7.07678	45.1687	2.26263	15	1.53535	29.3279
5	9	4	1	3	16384	6.45233	31.1229	7.00305	44.5783	2.23595	15	1.53214	29.2192
5	9	4	1	3	16384	6.87872	33.1417	7.45599	47.4764	2.37751	16	1.63315	31.0591
5	9	4	1	3	16384	6.48041	31.2692	7.04669	44.7963	2.24484	15	1.5343	29.2076
5	9	4	1	3	16384	6.50824	31.3793	7.07098	44.9585	2.25941	15	1.54457	29.4193
5	9	4	1	3	32768	6.54211	32.2359	7.15363	45.9316	2.28936	16	1.54508	29.5256
5	9	4	1	3	32768	6.33807	30.7278	6.86469	43.9305	2.2008	15	1.49054	28.3718
5	9	4	1	3	32768	6.66559	32.4893	7.24054	46.3954	2.31865	16	1.56372	29.8489
5	9	4	1	3	32768	6.68793	32.5234	7.25128	46.4626	2.32412	16	1.57571	29.9797
5	9	4	1	3	32768	6.40991	30.8589	6.87805	44.1469	2.20487	15	1.49528	28.5134
5	9	4	1	3	65536	6.29736	31.1794	6.87531	44.3521	2.21265	16	1.46827	28.0042
5	9	4	1	3	65536	5.87903	29.1531	6.41571	41.4478	2.0628	15	1.3665	26.1738
5	9	4	1	3	65536	5.8999	29.1339	6.41107	41.4449	2.06457	15	1.36802	26.1795
5	9	4	1	3	65536	6.35645	31.3627	6.9129	44.632	2.22338	16	1.48014	28.2252
5	9	4	1	3	65536	5.9411	29.3195	6.43744	41.698	2.07672	15	1.36363	26.3402
5	9	4	1	3	131072	6.14636	30.3568	6.6073	43.1105	2.13852	16	1.38633	26.5537
5	9	4	1	3	131072	6.14374	30.3403	6.60498	43.089	2.13831	16	1.38373	26.5839
5	9	4	1	3	131072	5.55225	27.9716	6.01587	39.5397	1.95393	15	1.24968	24.2224
5	9	4	1	3	131072	6.15662	30.4091	6.61688	43.1826	2.14474	16	1.39047	26.5895
5	9	4	1	3	131072	5.83075	28.5687	6.21918	40.6186	2.01632	15	1.3098	25.0286
5	9	4	1	3	262144	5.72772	28.7514	6.15228	40.6314	2.00541	16	1.25146	24.0468
5	9	4	1	3	262144	5.60364	28.3495	6.00397	39.9571	1.96414	16	1.22202	23.5905
5	9	4	1	3	262144	5.24994	26.5681	5.62018	37.4382	1.84029	15	1.13844	22.0689
5	9	4	1	3	262144	5.25439	26.5115	5.64423	37.4101	1.84341	15	1.1413	22.0822
5	9	4	1	3	262144	5.66791	28.5209	6.08759	40.2764	1.98836	16	1.23003	23.7796
5	9	4	1	3	524288	4.93701	25.0977	5.24567	35.2803	1.73524	15	1.01832	19.7827
5	9	4	1	3	524288	4.73993	24.7056	5.0874	34.533	1.68576	15	0.987843	19.1818
5	9	4	1	3	524288	4.93317	25.3022	5.24988	35.4853	1.73858	15	1.01804	19.7038
5	9	4	1	3	524288	5.36261	26.8292	5.6239	37.8157	1.86034	16	1.09292	21.1473
5	9	4	1	3	524288	5.3241	26.8717	5.61145	37.8073	1.85674	16	1.08704	21.0452
5	9	4	1	3	1048576	4.76935	24.7094	4.98206	34.4608	1.67104	16	0.916697	17.897
5	9	4	1	3	1048576	4.32721	22.8956	4.56506	31.7879	1.53519	15	0.837799	16.4365
5	9	4	1	3	1048576	4.41705	23.153	4.64362	32.2137	1.5591	15	0.853776	16.6715
5	9	4	1	3	1048576	4.64917	24.3914	4.88416	33.9247	1.63946	16	0.897375	17.5676
5	9	4	1	3	1048576	4.44	23.1414	4.66699	32.2484	1.57005	15	0.862664	16.7301
5	9	4	1	3	2097152	4.00598	21.7015	4.14038	29.8478	1.42313	15	0.708311	14.3239
5	9	4	1	3	2097152	3.99231	21.6956	4.15381	29.8417	1.42356	15	0.7098	14.3049
5	9	4	1	3	2097152	4.065	21.7106	4.17236	29.948	1.42599	15	0.713095	14.4525
5	9	4	1	3	2097152	4.02203	21.5638	4.14502	29.7308	1.42006	15	0.715368	14.2266
5	9	4	1	3	2097152	4.01514	21.5081	4.12555	29.6487	1.40871	15	0.709294	14.2147
5	9	4	1	3	4194304	4.00427	20.664	3.9361	28.6044	1.36113	15	0.656837	13.0113
5	9	4	1	3	4194304	3.61029	20.8432	3.86426	28.3177	1.34192	15	0.641996	12.8824
5	9	4	1	3	4194304	4.01373	22.2187	4.16113	30.3936	1.44104	16	0.688072	13.7913
5	9	4	1	3	4194304	3.87274	20.5337	3.90686	28.3133	1.35089	15	0.643269	12.8617
5	9	4	1	3	4194304	3.5976	20.715	3.8551	28.1677	1.33734	15	0.641977	12.8408
5	9	4	1	3	8388608	4.22089	20.0757	3.77319	28.0698	1.31776	15	0.609847	12.525
5	9	4	1	3	8388608	4.19177	20.001	3.74451	27.9373	1.30521	15	0.602457	12.5454
5	9	4	1	3	8388608	4.32483	19.9665	3.74097	28.0323	1.30368	15	0.607565	12.6008
5	9	4	1	3	8388608	4.34418	20.0506	3.73108	28.1259	1.30538	15	0.604241	12.6185
5	9	4	1	3	8388608	4.15479	20.1045	3.75751	28.0168	1.3171	15	0.613669	12.5021
5	10	4	1	3	2048	24.8832	99.2558	27.2094	151.348	8.30897	16	6.74509	115.393
5	10	4	1	3	2048	26.2375	100.006	27.4548	153.699	8.38239	16	6.80429	118.013
5	10	4	1	3	2048	28.6849	95.0873	27.7936	151.566	8.51913	16	6.83595	116.459
5	10	4	1	3	2048	28.9659	95.4616	27.9963	152.424	8.59203	16	6.89383	117.143
5	10	4	1	3	2048	29.3627	94.5359	27.905	151.804	8.57277	16	6.83367	116.559
5	10	4	1	3	4096	22.3409	78.8076	20.7661	121.915	6.48797	16	4.77202	86.8746
5	10	4	1	3	4096	22.3351	79.5881	20.8812	122.804	6.53327	16	4.81096	87.563
5	10	4	1	3	4096	22.646	79.5	20.9846	123.131	6.56136	16	4.85303	88.2048
5	10	4	1	3	4096	22.3687	79.5361	20.8698	122.775	6.53439	16	4.79052	87.2155
5	10	4	1	3	4096	22.6785	78.91	20.9901	122.579	6.55993	16	4.84467	87.7259
5	10	4	1	3	8192	19.3544	73.6988	18.3992	111.452	5.79617	16	4.11524	76.3735
5	10	4	1	3	8192	19.5372	74.5074	18.5114	112.556	5.82719	16	4.15776	77.2039
5	10	4	1	3	8192	19.3975	74.3664	18.4378	112.202	5.80389	16	4.13565	77.0171
5	10	4	1	3	8192	19.7977	74.0334	18.7057	112.537	5.89543	16	4.17566	77.143
5	10	4	1	3	8192	19.3602	74.2953	18.3987	112.054	5.79098	16	4.1204	76.8618
5	10	4	1	3	16384	18.088	71.9758	17.404	107.468	5.4986	16	3.84359	72.2908
5	10	4	1	3	16384	18.2258	71.8532	17.4728	107.552	5.5267	16	3.8631	72.4142
5	10	4	1	3	16384	18.4114	72.4775	17.5606	108.449	5.5551	16	3.87022	72.8455
5	10	4	1	3	16384	18.2927	72.5062	17.5477	108.347	5.55683	16	3.86618	72.6645
5	10	4	1	3	16384	18.1101	72.0937	17.4344	107.638	5.50946	16	3.84826	72.3458
5	10	4	1	3	32768	17.1016	70.6612	16.6422	104.405	5.27117	16	3.64374	68.9191
5	10	4	1	3	32768	17.3547	70.7519	16.8244	104.931	5.33503	16	3.68754	69.6151
5	10	4	1	3	32768	17.1727	70.9577	16.733	104.863	5.30989	16	3.66127	69.1581
5	10	4	1	3	32768	17.1536	70.5596	16.6686	104.382	5.28611	16	3.65467	69.0328
5	10	4	1	3	32768	17.4845	70.2868	16.8361	104.607	5.34153	16	3.68664	69.4199
5	10	4	1	3	65536	16.6246	69.2061	16.1802	102.011	5.14711	16	3.5138	66.528
5	10	4	1	3	65536	16.3399	69.5648	16.1294	102.034	5.12658	16	3.50269	66.7291
5	10	4	1	3	65536	16.569	69.4455	16.2031	102.218	5.14667	16	3.51981	66.8681
5	10	4	1	3	65536	16.5046	69.7653	16.2251	102.495	5.15251	16	3.53428	67.3157
5	10	4	1	3	65536	16.6071	69.412	16.1854	102.204	5.14251	16	3.51095	66.9072
5	10	4	1	3	131072	15.6271	67.6104	15.3792	98.6166	4.90727	16	3.29696	63.2436
5	10	4	1	3	131072	15.9228	68.6642	15.6747	100.262	4.99985	16	3.36849	64.4074
5	10	4	1	3	131072	16.1655	68.8611	15.8027	100.829	5.04476	16	3.39238	64.764
5	10	4	1	3	131072	15.8233	67.3214	15.4424	98.5871	4.92818	16	3.29182	63.2365
5	10	4	1	3	131072	15.8508	67.794	15.505	99.1498	4.95509	16	3.31027	63.5337
5	10	4	1	3	262144	15.3333	66.1015	14.9185	96.3533	4.78768	16	3.15437	60.4741
5	10	4	1	3	262144	14.8067	65.7999	14.6212	95.2277	4.69021	16	3.087	59.5688
5	10	4	1	3	262144	15.5249	66.3838	15.07	96.9787	4.83415	16	3.18404	61.004
5	10	4	1	3	262144	15.4116	66.3002	15.0223	96.7341	4.82266	16	3.16922	60.7255
5	10	4	1	3	262144	14.799	65.9606	14.6659	95.4255	4.70391	16	3.0939	59.5999
5	10	4	1	3	524288	13.0987	63.0974	13.6198	89.8158	4.40503	16	2.80273	53.7443
5	10	4	1	3	524288	12.7419	62.2788	13.3382	88.3589	4.31267	16	2.73816	52.6484
5	10	4	1	3	524288	14.319	60.3961	13.6218	88.3369	4.41672	16	2.77035	53.0172
5	10	4	1	3	524288	13.4423	63.1346	13.6733	90.2502	4.4205	16	2.81135	54.133
5	10	4	1	3	524288	12.6682	62.3136	13.3642	88.3459	4.32156	16	2.74705	52.7529
5	10	4	1	3	1048576	11.196	57.491	11.9427	80.6296	3.91552	16	2.33721	45.103
5	10	4	1	3	1048576	11.1078	57.3364	11.9222	80.3665	3.90686	16	2.32729	45.029
5	10	4	1	3	1048576	11.1757	57.8049	11.9784	80.959	3.92494	16	2.33585	45.2173
5	10	4	1	3	1048576	11.244	57.5744	11.9722	80.7906	3.92232	16	2.33937	45.3414
5	10	4	1	3	1048576	11.4992	58.4406	12.1981	82.1379	3.99818	16	2.38977	46.1121
5	10	4	1	3	2097152	9.98151	53.119	10.4241	73.5246	3.49093	16	1.89054	37.7742
5	10	4	1	3	2097152	10.2554	53.0856	10.4801	73.8211	3.49793	16	1.91834	38.2458
5	10	4	1	3	2097152	10.3319	53.5302	10.6143	74.4764	3.5432	16	1.93893	38.5183
5	10	4	1	3	2097152	10.0771	52.9597	10.4388	73.4756	3.47941	16	1.90542	37.9379
5	10	4	1	3	2097152	9.99664	53.0248	10.4047	73.4261	3.47316	16	1.90363	37.9225
5	10	4	1	3	4194304	9.44812	49.8045	9.5849	68.8375	3.23632	16	1.66767	33.2402
5	10	4	1	3	4194304	9.47534	49.8936	9.5957	68.9647	3.23822	16	1.66553	33.2344
5	10	4	1	3	4194304	9.35803	49.992	9.66187	69.0119	3.27371	16	1.6735	33.049
5	10	4	1	3	4194304	9.56061	49.8318	9.60968	69.0021	3.24282	16	1.67359	33.4419
5	10	4	1	3	4194304	9.42902	49.8701	9.62994	68.929	3.25927	16	1.67238	33.0687
5	10	4	1	3	8388608	8.25739	47.8447	8.62927	64.7313	2.99023	16	1.41329	29.2509
5	10	4	1	3	8388608	8.27509	47.8995	8.64191	64.8165	2.99445	16	1.4187	29.3519
5	10	4	1	3	8388608	9.01318	48.1295	8.854	65.9966	3.05389	16	1.44936	30.0096
5	10	4	1	3	8388608	8.53931	48.1066	8.74384	65.3897	3.03018	16	1.43536	29.6027
5	10	4	1	3	8388608	8.46985	48.0663	8.74438	65.2805	3.03064	16	1.44714	29.7808
5	11	4	1	3	2048	57.9614	153.408	50.8762	262.245	15.6999	15	12.4139	204.744
5	11	4	1	3	2048	57.5764	152.892	50.7604	261.229	15.619	15	12.3496	203.7
5	11	4	1	3	2048	57.8096	150.508	50.9111	259.229	15.659	15	12.3849	202.001
5	11	4	1	3	2048	59.4116	151.057	51.7045	262.173	15.8905	15	12.58	205.354
5	11	4	1	3	2048	57.8602	150.459	50.9218	259.241	15.6617	15	12.3744	202.214
5	11	4	1	3	4096	43.1191	123.779	38.1877	205.086	11.9816	15	8.68035	148.393
5	11	4	1	3	4096	42.7362	123.471	37.9532	204.16	11.9053	15	8.60731	146.802
5	11	4	1	3	4096	42.5105	123.899	37.9652	204.375	11.8976	15	8.61944	147.305
5	11	4	1	3	4096	44.1258	123.853	38.6268	206.606	12.1339	15	8.73435	149.162
5	11	4	1	3	4096	43.8423	123.743	38.5757	206.161	12.1017	15	8.7805	149.508
5	11	4	1	3	8192	37.6725	115.49	34.063	187.225	10.7826	15	7.49465	129.952
5	11	4	1	3	8192	38.2344	116.494	34.4584	189.187	10.9149	15	7.59222	131.251
5	11	4	1	3	8192	37.5596	115.205	34.0093	186.773	10.7702	15	7.4845	129.124
5	11	4	1	3	8192	38.2016	116.911	34.5103	189.623	10.9275	15	7.59901	131.516
5	11	4	1	3	8192	37.0656	115.138	33.7467	185.951	10.6894	15	7.39903	128.406
5	11	4	1	3	16384	38.2956	117.646	34.6589	190.601	11.0276	16	7.49211	129.33
5	11	4	1	3	16384	35.7799	112.813	32.5573	181.15	10.3662	15	7.04186	122.829
5	11	4	1	3	16384	35.6765	112.339	32.3894	180.405	10.2965	15	7.0167	122.781
5	11	4	1	3	16384	35.8787	112.142	32.5759	180.597	10.3567	15	7.08146	122.883
5	11	4	1	3	16384	38.3822	117.888	34.7147	190.984	11.047	16	7.51738	130.056
5	11	4	1	3	32768	37.7413	117.114	34.1428	188.998	10.9132	16	7.33284	126.704
5	11	4	1	3	32768	36.8275	116.64	33.7198	187.188	10.7647	16	7.25023	126.166
5	11	4	1	3	32768	36.9576	116.99	33.616	187.564	10.7522	16	7.18646	125.289
5	11	4	1	3	32768	38.1282	117.029	34.3052	189.463	10.9604	16	7.34786	127.498
5	11	4	1	3	32768	35.2386	111.259	31.9728	178.471	10.21	15	6.8597	120.321
5	11	4	1	3	65536	36.6862	115.253	33.3239	185.263	10.6777	16	7.10322	124.091
5	11	4	1	3	65536	37.1186	115.344	33.5466	186.009	10.7395	16	7.16304	123.741
5	11	4	1	3	65536	36.425	115.073	33.0596	184.558	10.5688	16	7.06584	123.394
5	11	4	1	3	65536	35.8444	113.634	32.7264	182.205	10.4836	16	6.96035	121.552
5	11	4	1	3	65536	34.0563	109.354	30.7859	174.196	9.86438	15	6.55284	115.67
5	11	4	1	3	131072	36.3855	113.744	32.5745	182.704	10.4674	16	6.89209	119.566
5	11	4	1	3	131072	35.2118	111.877	31.7308	178.82	10.1969	16	6.69374	116.372
5	11	4	1	3	131072	35.7723	112.552	32.1804	180.505	10.3402	16	6.80237	118.168
5	11	4	1	3	131072	35.0382	111.341	31.663	178.042	10.1794	16	6.66804	116.24
5	11	4	1	3	131072	35.2748	111.414	31.7941	178.483	10.2278	16	6.70779	116.526
5	11	4	1	3	262144	33.9857	109.316	30.6385	173.94	9.89034	16	6.39383	111.48
5	11	4	1	3	262144	34.5479	110.279	31.2413	176.068	10.0864	16	6.52736	112.818
5	11	4	1	3	262144	30.9184	104.043	28.4092	163.371	9.16718	15	5.9347	105.081
5	11	4	1	3	262144	34.7647	111.101	31.2448	177.11	10.0819	16	6.53902	113.596
5	11	4	1	3	262144	33.9772	109.785	30.6365	174.399	9.88701	16	6.39665	111.743
5	11	4	1	3	524288	31.9211	106.434	29.2178	167.573	9.49097	16	5.96902	103.989
5	11	4	1	3	524288	32.2697	106.904	29.2684	168.442	9.50007	16	5.97065	104.237
5	11	4	1	3	524288	32.6253	106.488	29.3946	168.508	9.5512	16	6.00722	105.153
5	11	4	1	3	524288	32.3741	106.059	29.093	167.526	9.45688	16	5.9432	103.728
5	11	4	1	3	524288	31.4546	104.665	28.634	164.754	9.29794	16	5.84023	101.709
5	11	4	1	3	1048576	28.6318	99.3626	26.1605	154.155	8.58887	16	5.12866	90.9776
5	11	4	1	3	1048576	29.8954	101.151	26.8491	157.896	8.81941	16	5.30255	94.5494
5	11	4	1	3	1048576	29.654	100.85	26.8132	157.317	8.8077	16	5.29484	94.1641
5	11	4	1	3	1048576	28.9401	99.8911	26.2604	155.092	8.6136	16	5.15416	91.78
5	11	4	1	3	1048576	28.9642	99.6815	26.2937	154.939	8.62866	16	5.18833	91.4672
5	11	4	1	3	2097152	25.5693	92.4006	23.023	140.993	7.68539	16	4.25036	77.8671
5	11	4	1	3	2097152	25.7446	93.5037	23.2947	142.543	7.78199	16	4.3077	78.9328
5	11	4	1	3	2097152	25.6722	92.2303	23.0672	140.97	7.70739	16	4.24882	77.5989
5	11	4	1	3	2097152	25.6352	94.0733	23.3279	143.036	7.78259	16	4.33166	79.2425
5	11	4	1	3	2097152	25.1686	93.207	22.8994	141.275	7.63904	16	4.22357	77.8868
5	11	4	1	3	4194304	22.5372	86.6861	20.6698	129.893	6.99499	16	3.60624	66.323
5	11	4	1	3	4194304	21.8315	88.0208	20.4866	130.339	6.9232	16	3.59796	67.2458
5	11	4	1	3	4194304	22.4498	88.3112	20.532	131.293	6.9408	16	3.61491	67.6583
5	11	4	1	3	4194304	22.6592	87.7596	20.5739	130.993	6.95608	16	3.60843	66.7376
5	11	4	1	3	4194304	22.8735	88.5946	20.8109	132.279	7.04609	16	3.64246	67.4863
5	11	4	1	3	8388608	20.6505	82.4928	18.368	121.511	6.3257	16	2.99613	57.3972
5	11	4	1	3	8388608	20.5717	82.7833	18.3588	121.714	6.31999	16	3.01007	57.6915
5	11	4	1	3	8388608	20.6234	83.0399	18.4273	122.091	6.34481	16	3.00765	57.5494
5	11	4	1	3	8388608	20.905	83.0271	18.6154	122.548	6.43282	16	3.0231	57.589
5	11	4	1	3	8388608	20.76	82.4301	18.4097	121.6	6.34284	16	2.99988	57.524
