INPUT_ID    HETER_TIME(S)   HETER_ENERGY(JOULE) TOTAL_TIME(S)   NR_ITER
2	0.000000	0.093394	1.393616	0.141652	15
2	0.000000	0.092984	1.266052	0.129657	15
2	0.000000	0.094117	1.224792	0.128592	15
2	0.000000	0.094163	1.522461	0.150428	15
2	0.000000	0.106422	1.605042	0.151406	15
2	0.100000	0.182033	2.417236	0.217680	15
2	0.100000	0.170156	2.247986	0.204410	15
2	0.100000	0.170087	2.367920	0.217846	15
2	0.100000	0.171403	2.435547	0.218939	15
2	0.100000	0.169964	2.432617	0.219143	15
2	0.200000	0.171373	2.495117	0.226241	15
2	0.200000	0.169409	2.334717	0.216403	15
2	0.200000	0.169471	2.352844	0.219215	15
2	0.200000	0.167437	2.277588	0.208469	15
2	0.200000	0.169358	2.203125	0.202447	15
2	0.300000	0.169671	2.356323	0.217051	15
2	0.300000	0.173674	2.285522	0.207357	15
2	0.300000	0.170275	2.403320	0.215363	15
2	0.300000	0.170884	2.384644	0.217845	15
2	0.300000	0.168501	2.300720	0.211847	15
2	0.400000	0.172836	2.529175	0.229746	15
2	0.400000	0.172021	2.226501	0.205714	15
2	0.400000	0.175668	2.439514	0.232574	15
2	0.400000	0.174935	2.487976	0.223695	15
2	0.400000	0.173738	2.412537	0.218124	15
2	0.500000	0.169460	2.175476	0.203545	15
2	0.500000	0.170994	2.472473	0.223783	15
2	0.500000	0.179014	2.585266	0.232973	15
2	0.500000	0.169266	2.208923	0.203443	15
2	0.500000	0.170148	2.402283	0.220081	15
2	0.600000	0.171736	2.416016	0.225211	15
2	0.600000	0.171198	2.318604	0.217650	15
2	0.600000	0.170631	2.317871	0.215493	15
2	0.600000	0.172857	2.333313	0.218299	15
2	0.600000	0.178722	2.335205	0.228781	15
2	0.700000	0.177078	2.425354	0.234168	15
2	0.700000	0.176432	2.400391	0.227543	15
2	0.700000	0.174321	2.329834	0.222501	15
2	0.700000	0.177106	2.503662	0.232416	15
2	0.700000	0.175155	2.407593	0.228214	15
2	0.800000	0.173324	2.224121	0.213345	15
2	0.800000	0.173600	2.399658	0.225676	15
2	0.800000	0.173578	2.397034	0.222656	15
2	0.800000	0.175705	2.406189	0.230122	15
2	0.800000	0.175053	2.339844	0.223902	15
2	0.900000	0.174001	2.320557	0.219812	15
2	0.900000	0.174821	2.232483	0.214614	15
2	0.900000	0.174300	2.234070	0.216158	15
2	0.900000	0.185718	2.367065	0.236484	15
2	0.900000	0.175921	2.430481	0.229552	15
2	1.000000	0.100199	1.251709	0.135790	15
2	1.000000	0.099025	1.233704	0.132782	15
2	1.000000	0.099900	1.287170	0.133687	15
2	1.000000	0.100731	1.300598	0.134687	15
2	1.000000	0.099779	1.278503	0.134793	15
4	0.000000	0.111827	1.642090	0.158601	16
4	0.000000	0.112842	1.755920	0.171233	16
4	0.000000	0.112714	1.918640	0.182012	16
4	0.000000	0.114239	2.035034	0.183590	16
4	0.000000	0.110465	1.609985	0.159562	16
4	0.100000	0.185177	2.635071	0.236777	16
4	0.100000	0.187149	2.647156	0.239017	16
4	0.100000	0.185521	2.552734	0.230773	16
4	0.100000	0.197604	2.675598	0.249344	16
4	0.100000	0.186058	2.695679	0.241472	16
4	0.200000	0.184719	2.639893	0.241389	16
4	0.200000	0.187936	2.773132	0.244595	16
4	0.200000	0.184494	2.657227	0.237888	16
4	0.200000	0.183493	2.574097	0.230480	16
4	0.200000	0.183424	2.697449	0.238214	16
4	0.300000	0.231855	2.992798	0.293255	16
4	0.300000	0.232400	3.066772	0.291425	16
4	0.300000	0.236295	3.170471	0.297200	16
4	0.300000	0.232678	3.194458	0.302089	16
4	0.300000	0.233828	3.062500	0.292024	16
4	0.400000	0.185511	2.537781	0.228790	16
4	0.400000	0.188715	2.627930	0.244895	16
4	0.400000	0.186281	2.506714	0.230030	16
4	0.400000	0.187385	2.636963	0.238394	16
4	0.400000	0.189514	2.727295	0.238994	16
4	0.500000	0.197631	2.615295	0.247110	16
4	0.500000	0.194015	2.810730	0.257264	16
4	0.500000	0.195200	2.646912	0.245387	16
4	0.500000	0.195306	2.985962	0.269774	16
4	0.500000	0.196019	2.741150	0.255847	16
4	0.600000	0.201764	2.746155	0.246211	16
4	0.600000	0.201906	2.892700	0.255008	16
4	0.600000	0.201809	2.799438	0.247411	16
4	0.600000	0.200752	2.820557	0.255188	16
4	0.600000	0.209893	2.957520	0.270358	16
4	0.700000	0.203251	2.784241	0.273530	16
4	0.700000	0.203961	2.926147	0.283849	16
4	0.700000	0.217567	3.252197	0.304795	16
4	0.700000	0.204191	2.860718	0.275682	16
4	0.700000	0.204579	2.781006	0.271261	16
4	0.800000	0.209291	2.663574	0.266832	16
4	0.800000	0.210287	2.845032	0.277181	16
4	0.800000	0.207833	2.637756	0.268707	16
4	0.800000	0.211310	2.728394	0.272312	16
4	0.800000	0.209864	2.955811	0.289297	16
4	0.900000	0.211162	2.855652	0.276124	16
4	0.900000	0.211574	2.970093	0.295725	16
4	0.900000	0.211653	2.751770	0.271426	16
4	0.900000	0.210253	2.617188	0.268653	16
4	0.900000	0.211073	2.807007	0.279684	16
4	1.000000	0.135992	1.700317	0.178008	16
4	1.000000	0.137746	1.715027	0.179319	16
4	1.000000	0.136337	1.712891	0.179813	16
4	1.000000	0.136346	1.740967	0.177960	16
4	1.000000	0.136920	1.750732	0.180164	16
6	0.000000	0.159253	2.293335	0.230133	16
6	0.000000	0.160122	2.405212	0.239279	16
6	0.000000	0.161641	2.497925	0.249317	16
6	0.000000	0.159055	2.268555	0.232748	16
6	0.000000	0.160947	2.400940	0.239087	16
6	0.100000	0.239568	3.386292	0.314518	16
6	0.100000	0.251058	3.491516	0.321081	16
6	0.100000	0.239159	3.312073	0.305815	16
6	0.100000	0.237314	3.260193	0.305054	16
6	0.100000	0.235971	3.278137	0.301779	16
6	0.200000	0.238283	3.393433	0.314480	16
6	0.200000	0.235974	3.335388	0.309816	16
6	0.200000	0.245746	3.429443	0.312877	16
6	0.200000	0.238540	3.338928	0.312045	16
6	0.200000	0.238347	3.380005	0.313451	16
6	0.300000	0.238833	3.234253	0.304751	16
6	0.300000	0.244071	3.351746	0.313630	16
6	0.300000	0.240410	3.260498	0.306266	16
6	0.300000	0.251507	3.501465	0.322164	16
6	0.300000	0.241211	3.334473	0.312986	16
6	0.400000	0.266879	3.475342	0.330163	16
6	0.400000	0.277914	3.733948	0.363152	16
6	0.400000	0.265814	3.449463	0.330578	16
6	0.400000	0.295329	3.891174	0.388524	16
6	0.400000	0.283657	3.641113	0.363570	16
6	0.500000	0.279237	3.807434	0.367846	16
6	0.500000	0.288545	3.885559	0.383411	16
6	0.500000	0.284198	3.677002	0.364040	16
6	0.500000	0.281165	3.767151	0.375082	16
6	0.500000	0.279964	3.745911	0.365260	16
6	0.600000	0.294175	3.855042	0.374728	16
6	0.600000	0.294577	3.742126	0.379851	16
6	0.600000	0.295666	3.819092	0.375961	16
6	0.600000	0.296061	3.763367	0.384236	16
6	0.600000	0.327173	4.337463	0.419492	16
6	0.700000	0.304459	3.692749	0.390601	16
6	0.700000	0.308917	3.833435	0.402222	16
6	0.700000	0.309814	3.936157	0.398724	16
6	0.700000	0.310619	3.927246	0.401888	16
6	0.700000	0.298913	3.644409	0.382428	16
6	0.800000	0.306576	3.666687	0.392078	16
6	0.800000	0.302306	3.646240	0.389047	16
6	0.800000	0.303804	3.628723	0.388480	16
6	0.800000	0.247698	3.290588	0.332225	16
6	0.800000	0.303220	3.660828	0.386684	16
6	0.900000	0.311451	3.724976	0.405399	16
6	0.900000	0.334111	3.969666	0.422399	16
6	0.900000	0.305488	3.633606	0.393942	16
6	0.900000	0.307572	3.460266	0.396266	16
6	0.900000	0.333012	4.141785	0.435846	16
6	1.000000	0.183699	2.380859	0.251021	16
6	1.000000	0.237031	2.707092	0.299670	16
6	1.000000	0.228445	2.609680	0.290375	16
6	1.000000	0.272041	3.014160	0.335144	16
6	1.000000	0.190234	2.389160	0.255443	16
7	0.000000	0.216924	3.117493	0.319558	16
7	0.000000	0.219430	3.198547	0.321987	16
7	0.000000	0.216251	3.127747	0.316876	16
7	0.000000	0.216254	3.141174	0.319479	16
7	0.000000	0.216984	3.143616	0.319403	16
7	0.100000	0.303350	4.150269	0.401125	16
7	0.100000	0.310006	4.251099	0.411078	16
7	0.100000	0.302753	4.152222	0.401718	16
7	0.100000	0.304713	4.222168	0.410892	16
7	0.100000	0.319210	4.197815	0.416312	16
7	0.200000	0.334389	4.523865	0.439900	16
7	0.200000	0.317090	4.435303	0.425347	16
7	0.200000	0.335384	4.384399	0.431233	16
7	0.200000	0.304774	4.159241	0.406727	16
7	0.200000	0.329951	4.398132	0.426695	16
7	0.300000	0.332045	4.382935	0.433134	16
7	0.300000	0.335838	4.364075	0.434393	16
7	0.300000	0.344992	4.481812	0.440444	16
7	0.300000	0.332244	4.051147	0.442765	16
7	0.300000	0.333212	4.117004	0.441963	16
7	0.400000	0.363565	4.397461	0.469310	16
7	0.400000	0.375283	4.870728	0.477768	16
7	0.400000	0.307699	4.145996	0.408235	16
7	0.400000	0.380494	4.853210	0.487385	16
7	0.400000	0.373274	4.842468	0.475273	16
7	0.500000	0.364425	4.609619	0.467734	16
7	0.500000	0.387833	4.911438	0.485696	16
7	0.500000	0.388512	4.952515	0.496061	16
7	0.500000	0.402069	5.019470	0.500581	16
7	0.500000	0.384273	4.850098	0.486284	16
7	0.600000	0.397187	5.011658	0.512459	16
7	0.600000	0.402992	4.979980	0.507534	16
7	0.600000	0.401095	5.015991	0.504090	16
7	0.600000	0.392173	4.958679	0.496454	16
7	0.600000	0.413623	5.064819	0.516611	16
7	0.700000	0.433103	5.301880	0.548711	16
7	0.700000	0.352933	4.570496	0.462552	16
7	0.700000	0.355875	4.578857	0.459321	16
7	0.700000	0.425049	4.698608	0.541108	16
7	0.700000	0.372647	4.727478	0.480733	16
7	0.800000	0.367513	4.596497	0.488731	16
7	0.800000	0.400530	4.959473	0.522652	16
7	0.800000	0.348223	4.521851	0.455937	16
7	0.800000	0.365249	4.722229	0.471547	16
7	0.800000	0.351951	4.451599	0.458250	16
7	0.900000	0.354163	4.621216	0.467838	16
7	0.900000	0.337014	4.298645	0.445415	16
7	0.900000	0.336036	4.351562	0.454736	16
7	0.900000	0.343417	4.386841	0.459246	16
7	0.900000	0.351981	4.565369	0.465890	16
7	1.000000	0.264310	3.403687	0.364455	16
7	1.000000	0.337972	4.019897	0.436981	16
7	1.000000	0.270828	3.447144	0.370308	16
7	1.000000	0.293422	3.232178	0.398739	16
7	1.000000	0.276078	3.485291	0.370361	16
8	0.000000	0.346626	5.171570	0.515297	16
8	0.000000	0.343242	5.076660	0.508879	16
8	0.000000	0.336925	4.997925	0.506667	16
8	0.000000	0.336290	4.976318	0.504378	16
8	0.000000	0.342063	5.076477	0.508482	16
8	0.100000	0.516202	7.166809	0.685458	16
8	0.100000	0.515034	7.074951	0.685733	16
8	0.100000	0.515283	6.941711	0.683323	16
8	0.100000	0.492972	6.797241	0.661596	16
8	0.100000	0.497344	6.816772	0.669076	16
8	0.200000	0.515479	6.997742	0.686673	16
8	0.200000	0.501600	6.832153	0.671567	16
8	0.200000	0.515063	6.953735	0.684291	16
8	0.200000	0.493040	6.755371	0.661869	16
8	0.200000	0.505681	6.825928	0.675742	16
8	0.300000	0.630544	8.881104	0.791117	16
8	0.300000	0.623340	8.744934	0.783123	16
8	0.300000	0.634991	8.891968	0.807614	16
8	0.300000	0.636309	9.126038	0.806956	16
8	0.300000	0.638234	8.958191	0.812629	16
8	0.400000	0.547511	7.638550	0.718863	16
8	0.400000	0.571361	7.907898	0.742940	16
8	0.400000	0.541174	7.474426	0.712898	16
8	0.400000	0.536963	7.559204	0.710595	16
8	0.400000	0.532582	7.395813	0.705290	16
8	0.500000	0.443829	6.084412	0.616309	16
8	0.500000	0.447608	6.125183	0.616256	16
8	0.500000	0.540382	6.436157	0.727761	16
8	0.500000	0.497458	5.655640	0.681464	16
8	0.500000	0.449095	6.109619	0.614807	16
8	0.600000	0.462166	6.266785	0.633412	16
8	0.600000	0.510876	6.629761	0.671397	16
8	0.600000	0.517505	6.696655	0.675176	16
8	0.600000	0.459968	6.268066	0.631360	16
8	0.600000	0.460014	6.381775	0.630323	16
8	0.700000	0.760983	10.476379	0.933417	16
8	0.700000	0.769771	10.533813	0.944139	16
8	0.700000	0.758389	10.399963	0.929524	16
8	0.700000	0.785369	10.563110	0.958212	16
8	0.700000	0.755120	10.574402	0.926846	16
8	0.800000	0.472872	6.414734	0.641544	16
8	0.800000	0.481129	6.499634	0.651742	16
8	0.800000	0.476284	6.499695	0.645146	16
8	0.800000	0.475738	6.374512	0.648890	16
8	0.800000	0.474757	6.494446	0.646572	16
8	0.900000	0.648183	8.886780	0.821985	16
8	0.900000	0.656141	8.851562	0.829863	16
8	0.900000	0.645021	8.811462	0.815515	16
8	0.900000	0.649824	8.957886	0.822426	16
8	0.900000	0.643292	8.927551	0.815281	16
8	1.000000	0.395777	5.246033	0.565440	16
8	1.000000	0.396346	5.304260	0.564612	16
8	1.000000	0.397080	5.345520	0.565829	16
8	1.000000	0.395101	5.261353	0.562429	16
8	1.000000	0.383727	5.194397	0.555353	16
9	0.000000	0.548270	8.182556	0.827534	15
9	0.000000	0.546316	8.157715	0.828434	15
9	0.000000	0.555403	8.292114	0.837424	15
9	0.000000	0.553937	8.242493	0.837749	15
9	0.000000	0.546902	8.137085	0.828755	15
9	0.100000	0.783568	10.975281	1.084351	15
9	0.100000	0.771418	10.849304	1.068127	15
9	0.100000	0.779047	10.934021	1.078284	15
9	0.100000	0.757458	10.790833	1.055564	15
9	0.100000	0.758248	10.767944	1.052646	15
9	0.200000	0.770776	10.742493	1.073720	15
9	0.200000	0.763209	10.655334	1.061230	15
9	0.200000	0.757883	10.594238	1.060318	15
9	0.200000	0.752394	10.487183	1.052867	15
9	0.200000	0.768957	10.706421	1.068087	15
9	0.300000	0.768265	10.848450	1.070825	15
9	0.300000	0.755805	10.693787	1.054622	15
9	0.300000	0.826799	11.278503	1.112326	15
9	0.300000	0.773019	10.930359	1.073786	15
9	0.300000	0.766716	10.780701	1.066259	15
9	0.400000	1.908050	25.783203	2.205257	15
9	0.400000	1.909727	25.997559	2.207139	15
9	0.400000	1.900358	25.766663	2.192323	15
9	0.400000	1.891640	25.607910	2.190722	15
9	0.400000	1.919392	25.713989	2.209812	15
9	0.500000	0.688633	9.636658	0.966673	15
9	0.500000	0.676024	9.698120	0.973388	15
9	0.500000	0.668295	9.572571	0.975006	15
9	0.500000	0.676452	9.628357	0.960919	15
9	0.500000	0.685579	9.585693	0.981659	15
9	0.600000	0.757344	10.653625	1.052481	15
9	0.600000	0.773071	10.777283	1.076651	15
9	0.600000	0.770724	10.612061	1.072789	15
9	0.600000	0.764043	10.693970	1.069779	15
9	0.600000	0.765995	10.843384	1.067316	15
9	0.700000	1.659343	22.871216	1.946276	15
9	0.700000	1.663395	22.934937	1.958710	15
9	0.700000	1.672603	22.678101	1.962453	15
9	0.700000	1.653466	22.929016	1.947315	15
9	0.700000	1.660239	22.935059	1.952008	15
9	0.800000	1.903047	26.423584	2.195778	15
9	0.800000	1.884042	25.966248	2.180924	15
9	0.800000	1.874764	25.928223	2.167264	15
9	0.800000	1.873173	25.805847	2.165052	15
9	0.800000	1.882445	25.965515	2.175637	15
9	0.900000	0.753923	10.411255	1.052875	15
9	0.900000	0.744765	10.337219	1.041574	15
9	0.900000	0.748321	10.328247	1.044757	15
9	0.900000	0.746244	10.333191	1.046025	15
9	0.900000	0.746228	10.351807	1.047276	15
9	1.000000	0.622366	8.546997	0.912895	15
9	1.000000	0.618842	8.501282	0.908082	15
9	1.000000	0.620217	8.506409	0.908232	15
9	1.000000	0.623338	8.552002	0.911986	15
9	1.000000	0.621203	8.513062	0.908551	15
10	0.000000	1.123421	16.783936	1.730794	16
10	0.000000	1.130890	16.933289	1.727630	16
10	0.000000	1.133370	16.900146	1.733166	16
10	0.000000	1.131975	16.933289	1.732347	16
10	0.000000	1.126416	16.874023	1.725673	16
10	0.100000	1.242152	18.378967	1.836783	16
10	0.100000	1.239322	18.316284	1.832397	16
10	0.100000	1.248915	18.434021	1.845525	16
10	0.100000	1.260390	18.658630	1.855326	16
10	0.100000	1.243480	18.374695	1.839099	16
10	0.200000	1.266022	18.705811	1.845759	16
10	0.200000	1.259419	18.615784	1.846398	16
10	0.200000	1.261007	18.642395	1.842121	16
10	0.200000	1.257774	18.596375	1.846313	16
10	0.200000	1.259124	18.670227	1.835233	16
10	0.300000	1.273640	18.714478	1.905973	16
10	0.300000	1.283664	18.879883	1.911468	16
10	0.300000	1.276820	18.766846	1.906913	16
10	0.300000	1.282667	18.889221	1.912818	16
10	0.300000	1.270137	18.697937	1.900551	16
10	0.400000	1.289610	18.943054	1.921345	16
10	0.400000	1.298124	19.100159	1.931471	16
10	0.400000	1.295049	19.033630	1.929644	16
10	0.400000	1.297974	19.056824	1.933632	16
10	0.400000	1.290422	18.951599	1.921269	16
10	0.500000	1.294815	18.921509	1.923160	16
10	0.500000	1.305440	19.147156	1.936416	16
10	0.500000	1.298299	18.888550	1.929413	16
10	0.500000	1.299355	19.049438	1.926597	16
10	0.500000	1.307015	19.148743	1.938718	16
10	0.600000	1.311111	19.154297	1.941860	16
10	0.600000	1.305945	18.997559	1.934929	16
10	0.600000	1.304003	19.000061	1.935817	16
10	0.600000	1.302855	19.001221	1.934427	16
10	0.600000	1.300420	18.912903	1.927386	16
10	0.700000	1.312784	19.078674	1.942393	16
10	0.700000	1.321476	19.227356	1.954109	16
10	0.700000	1.312753	19.086975	1.941989	16
10	0.700000	1.321134	19.025757	1.952742	16
10	0.700000	1.319251	19.119934	1.949498	16
10	0.800000	1.326691	19.119446	1.955518	16
10	0.800000	1.336801	19.205750	1.969112	16
10	0.800000	1.330851	19.322205	1.958605	16
10	0.800000	1.331697	19.269043	1.964112	16
10	0.800000	1.330186	19.286804	1.960577	16
10	0.900000	1.344993	19.279541	1.972745	16
10	0.900000	1.346207	19.264465	1.974241	16
10	0.900000	1.352659	19.322876	1.981690	16
10	0.900000	1.350476	19.510071	1.981648	16
10	0.900000	1.349016	19.435364	1.976435	16
10	1.000000	1.288083	18.496155	1.914642	16
10	1.000000	1.289028	18.478394	1.913875	16
10	1.000000	1.287543	18.529846	1.914606	16
10	1.000000	1.284976	18.462158	1.912142	16
10	1.000000	1.289043	18.501892	1.915905	16
11	0.000000	2.063227	30.303894	3.144677	16
11	0.000000	2.023567	30.260559	3.102790	16
11	0.000000	2.017236	30.193054	3.098833	16
11	0.000000	2.028025	30.331299	3.109773	16
11	0.000000	2.016048	30.160400	3.095951	16
11	0.100000	2.165013	32.161316	3.243115	16
11	0.100000	2.171071	32.247620	3.248306	16
11	0.100000	2.165321	32.161194	3.242479	16
11	0.100000	2.165143	32.174988	3.241230	16
11	0.100000	2.161794	32.117004	3.239547	16
11	0.200000	2.218325	32.973999	3.358030	16
11	0.200000	2.218847	33.000122	3.362560	16
11	0.200000	2.214422	32.930298	3.357373	16
11	0.200000	2.228281	33.153687	3.365898	16
11	0.200000	2.243562	33.356628	3.374207	16
11	0.300000	2.228767	33.081177	3.377069	16
11	0.300000	2.227708	33.056519	3.372892	16
11	0.300000	2.233827	33.113159	3.381540	16
11	0.300000	2.233322	33.146606	3.379317	16
11	0.300000	2.231844	33.154419	3.378686	16
11	0.400000	2.264051	33.547668	3.411231	16
11	0.400000	2.256012	33.445190	3.405805	16
11	0.400000	2.255962	33.426086	3.403417	16
11	0.400000	2.260022	33.520142	3.407366	16
11	0.400000	2.264612	33.528259	3.412571	16
11	0.500000	2.261414	33.447388	3.404361	16
11	0.500000	2.267835	33.540527	3.413141	16
11	0.500000	2.264088	33.495850	3.411061	16
11	0.500000	2.268985	33.582520	3.411880	16
11	0.500000	2.276489	33.680237	3.421197	16
11	0.600000	2.279646	33.731445	3.423627	16
11	0.600000	2.272834	33.630066	3.418889	16
11	0.600000	2.266790	33.552795	3.411229	16
11	0.600000	2.276401	33.665771	3.419072	16
11	0.600000	2.282115	33.776001	3.427944	16
11	0.700000	2.286214	33.832214	3.430124	16
11	0.700000	2.286162	33.830505	3.433234	16
11	0.700000	2.279190	33.678284	3.424048	16
11	0.700000	2.288338	33.872253	3.434505	16
11	0.700000	2.282269	33.760864	3.426696	16
11	0.800000	2.287332	33.802551	3.432468	16
11	0.800000	2.294492	33.807434	3.438931	16
11	0.800000	2.297354	33.758301	3.445423	16
11	0.800000	2.291158	33.767029	3.435619	16
11	0.800000	2.295441	33.839111	3.441357	16
11	0.900000	2.321579	33.854614	3.468585	16
11	0.900000	2.323329	33.938538	3.471948	16
11	0.900000	2.324869	33.973755	3.472664	16
11	0.900000	2.322871	33.885681	3.469866	16
11	0.000000	2.736957	33.595215	3.852302	16
11	0.000000	1.994948	29.923157	3.089001	16
11	0.000000	2.004289	30.076721	3.099063	16
11	0.000000	1.998818	29.946411	3.099566	16
11	0.000000	2.027838	30.446960	3.120675	16
11	0.100000	2.257044	32.674011	3.351414	16
11	0.100000	2.197476	32.853699	3.319284	16
11	0.100000	2.142779	31.987854	3.236965	16
11	0.100000	2.155943	32.224609	3.247511	16
11	0.100000	2.152551	32.112732	3.245808	16
11	0.200000	2.203788	32.919495	3.364945	16
11	0.200000	2.219310	33.113647	3.378877	16
11	0.200000	2.202558	32.868225	3.361828	16
11	0.200000	2.223468	33.191101	3.382956	16
11	0.200000	2.216503	33.076965	3.378219	16
11	0.300000	2.224008	33.101685	3.387115	16
11	0.300000	2.210965	32.922241	3.377393	16
11	0.300000	2.216922	33.023926	3.390669	16
11	0.300000	2.199395	32.756836	3.366360	16
11	0.300000	2.202564	32.802551	3.370741	16
11	0.400000	2.215222	32.971680	3.380551	16
11	0.400000	2.211958	32.893616	3.380946	16
11	0.400000	2.226276	33.137268	3.395513	16
11	0.400000	2.216664	32.977051	3.381920	16
11	0.400000	2.224411	33.062805	3.389433	16
11	0.500000	2.227059	33.077209	3.391867	16
11	0.500000	2.245949	33.378113	3.414682	16
11	0.500000	2.260225	33.512817	3.423479	16
11	0.500000	2.229392	33.101746	3.396902	16
11	0.500000	2.237688	33.179138	3.403267	16
11	0.600000	2.266021	33.628784	3.432393	16
11	0.600000	2.249268	33.387695	3.415821	16
11	0.600000	2.259001	33.518860	3.426771	16
11	0.600000	2.260145	33.562256	3.426612	16
11	0.600000	2.248817	33.394897	3.412616	16
11	0.700000	2.263424	33.602600	3.431896	16
11	0.700000	2.274067	33.753418	3.441332	16
11	0.700000	2.281706	33.890625	3.448583	16
11	0.700000	2.269798	33.666687	3.438026	16
11	0.700000	2.263315	33.582153	3.428289	16
11	0.800000	2.314276	34.292725	3.482723	16
11	0.800000	2.301299	34.174011	3.469602	16
11	0.800000	2.302641	33.998352	3.470111	16
11	0.800000	2.295403	33.915527	3.463368	16
11	0.800000	2.294841	34.076050	3.464332	16
11	0.900000	2.335298	34.377380	3.503852	16
11	0.900000	2.351066	34.285889	3.520862	16
11	0.900000	2.331753	34.361877	3.502259	16
11	0.900000	2.335671	34.310547	3.505858	16
11	0.900000	2.326303	34.359741	3.495986	16
11	1.000000	2.294867	33.700562	3.460979	16
11	1.000000	2.298509	33.700989	3.466023	16
11	1.000000	2.304076	33.829224	3.468198	16
11	1.000000	2.298158	33.763428	3.462582	16
11	1.000000	2.282642	33.479675	3.449612	16
