6	0.500000	1.660055	6.880676	1.772101	16
6	0.500000	0.264496	3.369446	0.362419	16
6	0.500000	0.283075	3.393860	0.359646	16
6	0.500000	0.282130	3.221008	0.340812	16
6	0.500000	0.284173	3.432922	0.355776	16
6	0.500000	0.287317	3.553162	0.358771	16
6	0.500000	0.288369	3.440552	0.357964	16
6	0.500000	0.274431	3.589844	0.359857	16
6	0.500000	0.371585	3.622803	0.432817	16
6	0.500000	0.277971	3.443787	0.348328	16
6	0.500000	0.293052	3.626770	0.363302	16
6	0.500000	0.281567	3.334839	0.356818	16
6	0.500000	0.282841	3.447083	0.356234	16
6	0.500000	0.281259	3.269775	0.340396	16
6	0.500000	0.278492	3.341248	0.346388	16
6	0.500000	0.297647	3.463501	0.358796	16
6	0.500000	0.279970	3.485535	0.360924	16
6	0.500000	0.280453	3.538513	0.362520	16
6	0.500000	0.297349	3.703613	0.373486	16
6	0.500000	0.387167	4.619629	0.513554	16
8	0.500000	0.786223	8.890686	1.099485	16
10	0.500000	2.722723	22.962341	3.430060	16
10	0.500000	2.470115	22.474792	3.158791	16
10	0.500000	3.724967	25.220154	4.438423	16
10	0.500000	2.700306	22.735107	3.451563	16
10	0.500000	3.061649	23.689880	3.761548	16
10	0.500000	2.647210	22.443176	3.361593	16
10	0.500000	2.748733	23.805969	3.547661	16
10	0.500000	2.466466	21.835083	3.179561	16
10	0.500000	2.467798	21.979614	3.172851	16
10	0.500000	3.588677	26.146301	4.266811	16
10	0.500000	2.510226	22.295044	3.300048	16
10	0.500000	2.683001	23.198730	3.483869	16
10	0.500000	2.556989	23.250305	3.429310	16
10	0.500000	2.363330	22.545898	3.095977	16
10	0.500000	3.083730	23.548645	3.898617	16
10	0.500000	3.775851	29.479919	4.642322	16
10	0.500000	6.427717	32.707031	7.272704	16
10	0.500000	4.023271	26.643311	4.767064	16
10	0.500000	2.895787	24.235107	3.587923	16
10	0.500000	2.796760	22.725830	3.497484	16
10	0.500000	2.595080	22.141968	3.305579	16
10	0.500000	3.433710	40.060242	4.363453	16
10	0.500000	2.318115	29.799988	3.313332	16
10	0.500000	2.542497	22.251770	3.272624	16
10	0.500000	2.548076	22.362183	3.329002	16
10	0.500000	2.983772	23.715759	3.717318	16
10	0.500000	2.688768	22.585449	3.480294	16
8	0.500000	1.155984	9.250000	1.332709	16
10	0.000000	2.783569	33.675476	3.464906	16
8	0.500000	0.553081	7.395325	1.147709	16
10	0.000000	3.147585	32.288635	5.692185	16
10	0.000000	3.202934	27.222046	5.790264	16
10	1.000000	2.373077	27.455383	5.242084	16
10	0.500000	4.128013	31.781738	6.889385	16
10	0.500000	2.351099	21.730896	4.761406	16
10	0.000000	1.178317	17.286255	3.546124	16
10	1.000000	1.355557	19.284851	3.733187	16
10	0.700000	1.287856	18.683777	3.690028	16
10	0.600000	1.309652	18.890320	3.742838	16
10	0.000000	1.199944	17.691101	3.649357	16
10	1.000000	2.960193	27.335876	5.447479	16
10	0.500000	2.483437	24.554199	5.007025	16
6	0.500000	3.400780	30.354797	3.490515	16
6	0.500000	1.094269	13.564819	1.189142	15
6	0.500000	0.595513	8.517151	0.899612	15
6	0.500000	0.198795	2.720764	0.265132	15
6	0.500000	2.535494	20.576233	2.712597	16
6	0.500000	0.504523	8.251648	0.941892	16
6	0.500000	3.016795	16.489502	3.190914	16
6	0.500000	1.190988	11.718140	1.403051	16
6	0.500000	0.750998	10.797119	0.907004	16
