ALG_ID	INPUT_ID/2-1	N.CPUs	N.GPUs	PLATFORM_ID	GPU_RATIO	E_GPU(J)	E_CPU(J)	E_MEM(J)	E_TOT(J)	TIME(s)	NR_ITER	HET_FOR_TIME(s)	HET_FOR_ENERGY(Joule)	
9	2	4	1	3	0	1.60608	38.8807	7.25397	47.7407	3.20592	16	3.03973	45.4412	
9	2	4	1	3	0	1.60651	39.0748	7.25311	47.9344	3.20224	16	3.05853	45.7355	
9	2	4	1	3	0	1.61096	39.1074	7.25726	47.9756	3.20475	16	3.06104	45.8182	
9	2	4	1	3	0	1.60486	39.0347	7.23907	47.8787	3.19907	16	3.05495	45.6947	
9	2	4	1	3	0	1.59503	38.7863	7.19403	47.5754	3.17864	16	3.03609	45.4486	
9	2	4	1	3	0	3.23022	78.8662	14.6256	96.722	6.46355	16	6.18535	92.5282	
9	2	4	1	3	0	3.22595	78.8624	14.6313	96.7196	6.46344	16	6.18538	92.53	
9	2	4	1	3	0	3.21387	78.6005	14.5694	96.3837	6.44158	16	6.16187	92.2444	
9	2	4	1	3	0	3.20264	78.3094	14.5223	96.0344	6.41775	16	6.14326	91.8951	
9	2	4	1	3	0	3.21271	78.5546	14.5679	96.3353	6.43809	16	6.16342	92.2015	
9	3	4	1	3	0	6.56793	160.63	29.7749	196.973	13.1646	16	12.6272	188.999	
9	3	4	1	3	0	6.45856	157.921	29.2708	193.651	12.9422	16	12.4028	185.625	
9	3	4	1	3	0	6.47327	158.258	29.3417	194.073	12.9706	16	12.4285	186.026	
9	3	4	1	3	0	6.45654	157.904	29.2653	193.626	12.9414	16	12.4043	185.672	
9	3	4	1	3	0	6.48688	158.626	29.4127	194.526	13.0013	16	12.4528	186.403	
9	3	4	1	3	0	12.1502	297.087	55.0662	364.304	24.3495	15	23.3516	349.481	
9	3	4	1	3	0	12.2734	299.962	55.606	367.841	24.5867	15	23.5896	353.039	
9	3	4	1	3	0	12.1715	297.481	55.1479	364.801	24.3829	15	23.3848	350.019	
9	3	4	1	3	0	12.1634	297.181	55.0906	364.435	24.3585	15	23.3654	349.698	
9	3	4	1	3	0	12.3191	301.002	55.7955	369.116	24.6711	15	23.6571	354.058	
9	4	4	1	3	0	28.0134	683.66	126.866	838.539	56.0611	16	53.7655	804.62	
9	4	4	1	3	0	27.8625	686.357	127.277	841.496	56.2581	16	53.9719	807.628	
9	4	4	1	3	0	28.2167	688.592	127.749	844.558	56.4645	16	54.1699	810.597	
9	4	4	1	3	0	28.0486	684.521	126.988	839.558	56.1296	16	53.8368	805.63	
9	4	4	1	3	0	28.1116	685.172	127.108	840.392	56.1863	16	53.8932	806.472	
9	2	4	1	3	0	1.60797	38.8498	7.2218	47.6796	3.18528	16	3.0413	45.4819	
9	2	4	1	3	0	1.6123	38.9439	7.24005	47.7963	3.19337	16	3.0499	45.5934	
9	2	4	1	3	0	1.62231	39.0602	7.27789	47.9604	3.20404	16	3.06091	45.8012	
9	2	4	1	3	0	1.60333	38.7272	7.21399	47.5445	3.17648	16	3.03349	45.3802	
9	2	4	1	3	0	1.60834	38.8577	7.22791	47.6939	3.18704	16	3.03822	45.3831	
9	2	4	1	3	0	3.25134	78.6594	14.619	96.5297	6.45047	16	6.175	92.3449	
9	2	4	1	3	0	3.23492	78.2694	14.515	96.0193	6.4171	16	6.14121	91.881	
9	2	4	1	3	0	3.25543	78.8492	14.6146	96.7192	6.46311	16	6.18977	92.6183	
9	2	4	1	3	0	3.25232	78.713	14.6047	96.5699	6.45321	16	6.17892	92.4518	
9	2	4	1	3	0	3.25476	78.6801	14.6038	96.5386	6.45101	16	6.17616	92.4097	
9	3	4	1	3	0	6.50073	157.725	29.2587	193.484	12.931	16	12.395	185.513	
9	3	4	1	3	0	6.49365	157.954	29.2948	193.743	12.9487	16	12.4021	185.64	
9	3	4	1	3	0	6.4762	157.666	29.2335	193.375	12.9247	16	12.3881	185.462	
9	3	4	1	3	0	6.49933	158.456	29.3842	194.34	12.9883	16	12.4514	186.362	
9	3	4	1	3	0	6.46667	157.769	29.2574	193.493	12.9319	16	12.3936	185.523	
9	3	4	1	3	0	12.2735	299.554	55.5546	367.382	24.5538	15	23.5415	352.317	
9	3	4	1	3	0	12.2252	298.371	55.3181	365.914	24.4573	15	23.4531	351.038	
9	3	4	1	3	0	12.2722	299.692	55.5404	367.505	24.5635	15	23.567	352.719	
9	3	4	1	3	0	12.2224	298.368	55.2863	365.877	24.4546	15	23.4563	351.077	
9	3	4	1	3	0	12.2855	299.938	55.5573	367.781	24.5825	15	23.5869	352.972	
9	4	4	1	3	0	28.3212	690.735	128.069	847.125	56.6348	16	54.3361	813.066	
9	4	4	1	3	0	28.1172	686.418	127.237	841.772	56.2758	16	53.9793	807.796	
9	4	4	1	3	0	28.0655	684.758	126.92	839.743	56.1422	16	53.8461	805.746	
9	4	4	1	3	0	28.1662	687.332	127.411	842.91	56.3526	16	54.0627	809.004	
9	4	4	1	3	0	28.1281	686.506	127.24	841.874	56.2845	16	53.9905	807.937
