1	69120000	355237	0.0206951	0.0279089	0.0521072
2	69120000	689949	0.0166373	0.0439359	0.0643871
3	69120000	638714	0.0166359	0.0441311	0.0645707
4	69120000	648430	0.016515	0.0442367	0.0645892
5	69120000	649216	0.0166469	0.0444612	0.0649599
6	69120000	652780	0.0167717	0.0444672	0.065072
7	69120000	661022	0.0167646	0.0444893	0.0650952
8	69120000	643931	0.0167064	0.0443318	0.0648536
9	69120000	656340	0.0168197	0.0446999	0.0653696
10	69120000	651407	0.0169705	0.0446866	0.0655139
11	69120000	656776	0.0167125	0.0445428	0.0650929
12	69120000	652446	0.0167608	0.0446167	0.0652122
13	69120000	653530	0.0168977	0.0446066	0.065328
14	69120000	657728	0.0170307	0.0448182	0.0656856
15	69120000	662368	0.0169642	0.0445038	0.0653172
16	69120000	651280	0.016805	0.044522	0.0651549
17	69120000	651592	0.016755	0.04456	0.0651481
18	69120000	653458	0.0168485	0.0447696	0.0654686
19	69120000	651710	0.0169376	0.0448674	0.0656589
20	69120000	647160	0.0167924	0.0446221	0.0652525
