ALG_ID	INPUT_ID/2-1	N.CPUs	N.GPUs	PLATFORM_ID	GPU_RATIO	E_GPU(J)	E_CPU(J)	E_MEM(J)	E_TOT(J)	TIME(s)	NR_ITER	HET_FOR_TIME(s)	HET_FOR_ENERGY(Joule)	
6	0	4	1	2	0.422321	0.226318	0.385071	0.0305176	0.641907	0.00980655	14	0.0060939	0.362427	
6	1	4	1	2	0.55461	0.70343	1.58527	0.105286	2.39398	0.0336927	16	0.0159198	1.13458	
6	2	4	1	2	0.558602	1.69415	6.25104	0.422485	8.36768	0.132617	16	0.0590882	3.8573	
6	3	4	1	2	0.733342	10.9583	21.6583	2.00671	34.6233	0.563064	16	0.268054	17.1133	
6	4	4	1	2	0.466419	32.6686	117.967	9.66418	160.3	2.55904	16	1.30682	85.4018	
6	0	4	1	2	0.438061	0.239441	0.397461	0.0297852	0.666687	0.00967506	14	0.00583543	0.314026	
6	1	4	1	2	0.57536	0.76355	1.57178	0.10498	2.44031	0.0345867	16	0.0166128	1.1712	
6	2	4	1	2	0.550891	1.7124	6.15845	0.405151	8.276	0.127467	16	0.0529449	3.81055	
6	3	4	1	2	0.718965	10.8058	22.149	2.03583	34.9907	0.571003	16	0.277302	17.3275	
6	4	4	1	2	0.466697	32.1973	118.804	9.70081	160.702	2.56069	16	1.30661	85.2808	
6	0	4	1	2	0.400757	0.220703	0.366455	0.0266724	0.613831	0.00973768	14	0.00591328	0.46759	
6	1	4	1	2	0.590551	0.733032	1.56818	0.104614	2.40582	0.0340088	16	0.0160285	1.1698	
6	2	4	1	2	0.613272	1.86017	5.99371	0.40271	8.25659	0.129566	16	0.0551486	3.6012	
6	3	4	1	2	0.699304	10.4803	22.604	2.04706	35.1314	0.571587	16	0.278223	17.363	
6	4	4	1	2	0.483672	34.5267	118.656	9.8847	163.068	2.60984	16	1.35615	87.2866	
6	0	4	1	2	0.327948	0.232971	0.411499	0.0303345	0.674805	0.0104544	14	0.00663622	0.389343	
6	1	4	1	2	0.564698	0.712769	1.56403	0.102356	2.37915	0.0332912	16	0.015511	1.11115	
6	2	4	1	2	0.619613	1.92865	5.97235	0.408569	8.30957	0.129642	16	0.0551772	3.77423	
6	3	4	1	2	0.722457	10.7512	22.4283	2.04816	35.2276	0.570853	16	0.276975	17.3267	
6	4	4	1	2	0.672622	48.4673	103.377	10.0551	161.899	2.69653	16	1.44189	85.8989	
6	0	4	1	2	0.331969	0.25238	0.426636	0.0332642	0.71228	0.0106255	14	0.00661009	0.39447	
6	1	4	1	2	0.573535	0.724548	1.59845	0.105652	2.42865	0.0340145	16	0.0161217	1.19336	
6	2	4	1	2	0.554725	1.70154	6.23102	0.403503	8.33606	0.127957	16	0.0534344	3.74774	
6	3	4	1	2	0.69718	10.6631	22.8077	2.04779	35.5187	0.567446	16	0.27345	17.5809	
6	4	4	1	2	0.476419	33.6074	119.665	9.89832	163.17	2.609	16	1.35452	86.9614	
6	0	4	1	2	0.369685	0.244446	0.427551	0.0342407	0.706238	0.0106604	14	0.00671491	0.396606	
6	1	4	1	2	0.607109	0.798401	1.61432	0.114807	2.52753	0.0368884	16	0.0179917	1.3042	
6	2	4	1	2	0.637112	1.99152	5.95923	0.40979	8.36053	0.130397	16	0.0560978	3.724	
6	3	4	1	2	0.326286	6.53656	28.0942	2.16925	36.8	0.587866	16	0.294914	18.9163	
6	4	4	1	2	0.542638	40.8537	114.276	10.0004	165.13	2.6517	16	1.39817	88.9532	
6	0	4	1	2	0.379882	0.234314	0.395264	0.0305176	0.660095	0.00980109	14	0.00598877	0.29834	
6	1	4	1	2	0.636019	0.806702	1.5614	0.108032	2.47614	0.0354678	16	0.0169172	1.09888	
6	2	4	1	2	0.648311	1.93793	5.9115	0.397766	8.24719	0.126705	16	0.0527377	3.62219	
6	3	4	1	2	0.649227	9.8313	23.6603	2.06482	35.5565	0.573525	16	0.273177	17.4088	
6	4	4	1	2	0.373483	27.0474	124.21	9.76678	161.024	2.55263	16	1.29877	84.822	
6	0	4	1	2	0.36204	0.239441	0.410522	0.0304565	0.68042	0.0101707	14	0.00639745	0.384949	
6	1	4	1	2	0.689234	0.888367	1.55865	0.113831	2.56085	0.0374285	16	0.0182443	1.26483	
6	2	4	1	2	0.595343	1.80865	6.14362	0.41748	8.36975	0.130977	16	0.0563972	3.64508	
6	3	4	1	2	0.727559	10.3835	22.402	2.07672	34.8622	0.576558	16	0.282853	17.0013	
6	4	4	1	2	0.355287	26.2104	124.581	9.74866	160.541	2.54549	16	1.29197	84.3651	
6	0	4	1	2	0.372796	0.247253	0.408691	0.0300903	0.686035	0.00999303	14	0.00626594	0.465881	
6	1	4	1	2	0.69568	0.864807	1.57617	0.114746	2.55573	0.0375075	16	0.018608	1.0907	
6	2	4	1	2	0.54677	1.69702	6.34918	0.413879	8.46008	0.130022	16	0.0555958	3.73773	
6	3	4	1	2	0.62336	9.84705	24.2004	2.0639	36.1114	0.568877	16	0.275646	18.0789	
6	4	4	1	2	0.533717	36.9703	116.217	9.88416	163.071	2.60764	16	1.35487	86.6525	
6	0	4	1	2	0.359204	0.247498	0.406311	0.0299072	0.683716	0.0100892	14	0.00630719	0.396301	
6	1	4	1	2	0.555561	0.700989	1.60583	0.106506	2.41333	0.0340299	16	0.0162293	1.03168	
6	2	4	1	2	0.609512	1.89178	6.12878	0.40979	8.43036	0.129185	16	0.0548444	3.74463	
6	3	4	1	2	0.56038	8.78204	25.2933	2.08734	36.1627	0.571992	16	0.278394	18.1861	
6	4	4	1	2	0.486723	33.8063	119.524	9.86987	163.2	2.59688	16	1.3417	86.814	
6	0	4	1	2	0.349655	0.235474	0.397339	0.0303345	0.663147	0.0102352	14	0.00641858	0.308655	
6	1	4	1	2	0.566247	0.743408	1.64032	0.108154	2.49188	0.0349263	16	0.0167649	1.263	
6	2	4	1	2	0.625044	1.90436	6.05518	0.413025	8.37256	0.129498	16	0.054978	3.56097	
6	3	4	1	2	0.650104	10.1157	23.8059	2.05255	35.9741	0.567419	16	0.272329	17.8758	
6	4	4	1	2	0.662402	47.9674	104.582	10.0557	162.606	2.68984	16	1.43474	86.2494	
6	0	4	1	2	0.351147	0.226257	0.405945	0.0301514	0.662354	0.0102938	14	0.00639221	0.243347	
6	1	4	1	2	0.668029	0.827515	1.50134	0.105225	2.43408	0.0338014	16	0.0155347	1.21661	
6	2	4	1	2	0.625556	1.92627	6.02521	0.406921	8.3584	0.129337	16	0.0546521	3.65826	
6	3	4	1	2	0.327468	6.10535	28.7021	2.16815	36.9756	0.586956	16	0.294198	19.0905	
6	4	4	1	2	0.477502	32.9633	120.203	9.86145	163.028	2.59429	16	1.3418	86.5134	
6	0	4	1	2	0.412369	0.237854	0.408569	0.0302734	0.676697	0.00961914	14	0.00590424	0.309082	
6	1	4	1	2	0.723397	0.85614	1.54688	0.109375	2.51239	0.0351136	16	0.0170032	1.07507	
6	2	4	1	2	0.651295	2.01428	5.95728	0.412781	8.38434	0.131388	16	0.0564223	3.75085	
6	3	4	1	2	0.71283	10.6426	22.5569	2.03601	35.2356	0.566452	16	0.270997	17.124	
6	4	4	1	2	0.375091	26.6284	124.074	9.74554	160.448	2.54489	16	1.2919	84.1245	
6	0	4	1	2	0.339182	0.220764	0.409729	0.0308228	0.661316	0.00976456	14	0.00602798	0.410278	
6	1	4	1	2	0.630847	0.8078	1.58234	0.108276	2.49841	0.0351274	16	0.0167711	1.45612	
6	2	4	1	2	0.686791	2.04303	5.89331	0.424622	8.36096	0.134235	16	0.0593825	3.95386	
6	3	4	1	2	0.247833	5.65112	29.5657	2.2149	37.4318	0.596925	16	0.304869	19.7713	
6	4	4	1	2	0.616622	45.2488	108.384	10.0463	163.679	2.67844	16	1.4238	87.263	
6	0	4	1	2	0.453959	0.268311	0.431335	0.0339966	0.733643	0.0101259	14	0.00627467	0.4375	
6	1	4	1	2	0.672493	0.796204	1.60596	0.112915	2.51508	0.0354798	16	0.0172825	1.00293	
6	2	4	1	2	0.572138	1.76947	6.15723	0.409302	8.336	0.128904	16	0.0547116	3.84882	
6	3	4	1	2	0.645115	9.8457	23.4722	2.03778	35.3557	0.564425	16	0.271093	17.3018	
6	4	4	1	2	0.421049	30.7032	120.667	9.85394	161.224	2.58919	16	1.33559	84.8899	
6	0	4	1	2	0.382745	0.221863	0.372131	0.0269165	0.620911	0.00981477	14	0.00609075	0.405518	
6	1	4	1	2	0.650113	0.86438	1.65393	0.123596	2.64191	0.0385885	16	0.0205052	1.55463	
6	2	4	1	2	0.602956	1.87482	6.06445	0.412842	8.35211	0.130384	16	0.0557997	3.9101	
6	3	4	1	2	0.652433	10.1484	23.579	2.07117	35.7985	0.572178	16	0.278766	17.8439	
6	4	4	1	2	0.625794	45.4983	107.717	10.0255	163.241	2.6721	16	1.41461	86.6801	
6	0	4	1	2	0.3848	0.236145	0.408264	0.0308838	0.675293	0.00999113	14	0.00619896	0.3125	
6	1	4	1	2	0.609445	0.750977	1.59271	0.106384	2.45007	0.0337781	16	0.0154803	1.11414	
6	2	4	1	2	0.588818	1.87311	6.16901	0.41156	8.45367	0.130195	16	0.0549797	3.82556	
6	3	4	1	2	0.632686	9.78247	24.0577	2.06415	35.9044	0.570167	16	0.277075	17.8516	
6	4	4	1	2	0.665885	48.0436	103.764	10.0617	161.869	2.6938	16	1.43968	85.7673	
6	0	4	1	2	0.400238	0.230957	0.402344	0.0306396	0.66394	0.00984765	14	0.0059615	0.377563	
6	1	4	1	2	0.65399	0.82666	1.59833	0.112793	2.53778	0.0351348	16	0.0170229	1.29028	
6	2	4	1	2	0.622234	1.88977	6.04443	0.416809	8.35101	0.13097	16	0.0565322	3.59534	
6	3	4	1	2	0.691684	10.4514	23.1209	2.0719	35.6442	0.572031	16	0.277977	17.6422	
6	4	4	1	2	0.438748	29.4919	122.377	9.7605	161.629	2.55497	16	1.30185	85.0366	
6	0	4	1	2	0.410516	0.254761	0.401489	0.0298462	0.686096	0.0101006	14	0.00628838	0.392456	
6	1	4	1	2	0.545111	0.732788	1.61505	0.105286	2.45312	0.0341313	16	0.0163222	1.15466	
6	2	4	1	2	0.690364	2.11749	5.83551	0.406372	8.35938	0.129375	16	0.0546772	3.68396	
6	3	4	1	2	0.659069	10.0899	23.5291	2.05841	35.6774	0.570296	16	0.276748	17.5964	
6	4	4	1	2	0.662557	47.9702	104.758	10.0896	162.817	2.70335	16	1.44814	86.7758	
6	0	4	1	2	0.333657	0.256775	0.620667	0.0473633	0.924805	0.0144259	14	0.0106526	0.633911	
6	1	4	1	2	0.549888	0.720032	1.61578	0.106323	2.44214	0.0345529	16	0.0166189	1.13037	
6	2	4	1	2	0.636735	1.9444	6.00958	0.409851	8.36383	0.129629	16	0.0551904	3.59576	
6	3	4	1	2	0.327232	6.14551	28.5796	2.16949	36.8946	0.58361	16	0.291052	19.1765	
6	4	4	1	2	0.388282	27.3338	123.986	9.7674	161.087	2.55184	16	1.29827	84.8962	
