ALG_ID	INPUT_ID/2-1	PLATFORM_ID	GPU_RATIO	E_GPU(J)	E_CPU(J)	E_MEM(J)	E_TOT(J)	TIME(s)	NR_ITER	HET_FOR_TIME(s)	HET_FOR_ENERGY(Joule)
4	0	2	0.5	0.192932	0.370117	0.0276489	0.590698	0.00903025	14	0.00502182	0.272888	
4	1	2	0.5	0.64856	1.66028	0.110107	2.41895	0.0354384	16	0.0174526	1.19629	
4	2	2	0.5	1.51501	6.3515	0.436523	8.30304	0.142385	16	0.0664069	4.13019	
4	3	2	0.5	8.9671	25.228	2.15399	36.3491	0.593574	16	0.300809	19.2967	
4	4	2	0.5	40.7814	117.125	10.3776	168.284	2.79292	16	1.53601	94.656	
4	0	2	0	0	0.473755	0.0349731	0.508728	0.0107539	14	0.0070751	0.225037	
4	0	2	0.1	0.188721	0.46875	0.0346069	0.692078	0.0112619	14	0.00735432	0.429993	
4	0	2	0.2	0.213074	0.417969	0.0303345	0.661377	0.0100643	14	0.00631713	0.455322	
4	0	2	0.3	0.203857	0.41864	0.0314331	0.653931	0.0106317	14	0.006792	0.39093	
4	0	2	0.4	0.186096	0.42041	0.0318604	0.638367	0.00942605	14	0.00569502	0.367798	
4	0	2	0.5	0.187317	0.366943	0.0284424	0.582703	0.00867273	14	0.00488023	0.237488	
4	0	2	0.6	0.19397	0.342224	0.0288086	0.565002	0.00869282	14	0.00496502	0.277039	
4	0	2	0.7	0.231445	0.302612	0.0279541	0.562012	0.00921969	14	0.00528414	0.229004	
4	0	2	0.8	0.271912	0.309143	0.0306396	0.611694	0.00968789	14	0.00540273	0.292358	
4	0	2	0.9	0.250549	0.29541	0.0280151	0.573975	0.00928602	14	0.00544962	0.261414	
4	0	2	1	0.286316	0.278259	0.0309448	0.59552	0.00972117	14	0.00540914	0.284607	
4	1	2	0	0.0142212	2.14642	0.135071	2.29572	0.0421846	16	0.0239016	1.42926	
4	1	2	0.1	0.450134	2.21869	0.144958	2.81378	0.0456154	16	0.0272424	1.8681	
4	1	2	0.2	0.481262	2.03064	0.128479	2.64038	0.040154	16	0.0218129	1.42474	
4	1	2	0.3	0.601379	2.08057	0.145508	2.82745	0.0444396	16	0.0257219	1.79553	
4	1	2	0.4	0.59082	1.84589	0.12439	2.5611	0.0391553	16	0.0211345	1.37067	
4	1	2	0.5	0.655762	1.69794	0.11322	2.46692	0.0358111	16	0.0176897	1.26764	
4	1	2	0.6	0.691711	1.51184	0.10199	2.30554	0.0324349	16	0.0140358	1.06073	
4	1	2	0.7	0.860779	1.44482	0.109253	2.41486	0.036015	16	0.0161747	1.23016	
4	1	2	0.8	0.900818	1.31628	0.107483	2.32458	0.034676	16	0.0152334	1.10175	
4	1	2	0.9	0.928955	1.31763	0.112061	2.35864	0.0356423	16	0.0164121	1.16553	
4	1	2	1	0.977478	1.25854	0.114563	2.35059	0.0376998	16	0.0174398	1.05121	
4	2	2	0	0	7.5788	0.450439	8.02924	0.144459	16	0.0703013	3.97015	
4	2	2	0.1	0.668518	8.10547	0.557922	9.33191	0.175546	16	0.100851	5.1333	
4	2	2	0.2	0.915649	7.50287	0.514038	8.93256	0.164233	16	0.0892709	4.76703	
4	2	2	0.3	1.05017	7.10529	0.476746	8.6322	0.153346	16	0.0790702	4.5368	
4	2	2	0.4	1.31561	6.68036	0.451538	8.44751	0.144834	16	0.0705912	4.33038	
4	2	2	0.5	1.52289	6.29199	0.425964	8.24084	0.138069	16	0.0624595	4.15002	
4	2	2	0.6	1.83313	5.80365	0.383423	8.0202	0.125047	16	0.0510574	3.64703	
4	2	2	0.7	2.04779	5.46643	0.37262	7.88684	0.122174	16	0.0475333	3.02264	
4	2	2	0.8	2.30487	5.27106	0.389221	7.96515	0.126644	16	0.0524257	3.34998	
4	0	2	0	0	0.460938	0.0321045	0.493042	0.0106283	14	0.0069125	0.249084	
4	0	2	0.1	0.183533	0.469299	0.0319824	0.684814	0.0105152	14	0.00679819	0.396484	
4	0	2	0.2	0.205688	0.460754	0.0317383	0.698181	0.0101542	14	0.00622583	0.412415	
4	0	2	0.3	0.221008	0.468811	0.0356445	0.725464	0.0104466	14	0.00673579	0.518372	
4	0	2	0.4	0.19574	0.395691	0.0289307	0.620361	0.0097027	14	0.00596551	0.334045	
4	0	2	0.5	0.193176	0.338745	0.0247192	0.556641	0.00873489	14	0.00477906	0.411865	
4	0	2	0.6	0.223877	0.358887	0.0290527	0.611816	0.00869776	14	0.00498283	0.251099	
4	0	2	0.7	0.232178	0.328247	0.0286865	0.589111	0.00892833	14	0.00518328	0.447815	
4	0	2	0.8	0.2547	0.317749	0.0287476	0.601196	0.00871312	14	0.00499944	0.321228	
4	0	2	0.9	0.262878	0.328674	0.0323486	0.623901	0.00967165	14	0.0056023	0.351746	
4	0	2	1	0.337341	0.265198	0.0328979	0.635437	0.0115339	14	0.00603566	0.327881	
4	1	2	0	0	2.12225	0.129456	2.25171	0.0415464	16	0.0233904	1.19385	
4	1	2	0.1	0.504517	2.33789	0.233765	3.07617	0.0478823	16	0.0293027	1.70514	
4	1	2	0.2	0.572021	2.18646	0.143616	2.9021	0.0440024	16	0.0251676	1.71252	
4	1	2	0.3	0.607056	2.05865	0.13739	2.8031	0.0420829	16	0.0237957	1.63849	
4	1	2	0.4	0.67041	1.96594	0.133545	2.7699	0.0402326	16	0.0219468	1.65985	
4	1	2	0.5	0.6745	1.69208	0.113281	2.47986	0.0357814	16	0.0174089	1.32117	
4	1	2	0.6	0.708008	1.5036	0.0994263	2.31104	0.0319073	16	0.0136566	1.15033	
4	1	2	0.7	0.764709	1.4541	0.104614	2.32343	0.0328299	16	0.0146376	1.12134	
4	1	2	0.8	0.908203	1.35437	0.107605	2.37018	0.0354293	16	0.0159402	1.03088	
4	1	2	0.9	0.910706	1.29572	0.103882	2.3103	0.0332928	16	0.0152133	1.19122	
4	1	2	1	1.00507	1.24298	0.115723	2.36377	0.0381533	16	0.0176197	1.06311	
4	2	2	0	0	7.84784	0.46759	8.31543	0.149139	16	0.0746986	4.08112	
4	2	2	0.1	0.688965	8.12738	0.535889	9.35223	0.168141	16	0.0926325	5.08759	
4	2	2	0.2	0.980896	7.60138	0.509521	9.0918	0.161008	16	0.0863455	4.88812	
4	2	2	0.3	1.11713	7.18903	0.48114	8.78729	0.153447	16	0.0792081	4.59943	
4	2	2	0.4	1.41278	7.31091	0.520325	9.24402	0.161661	16	0.0874565	5.14972	
4	2	2	0.5	1.56683	6.37012	0.429321	8.36627	0.137365	16	0.062973	4.05725	
4	2	2	0.6	1.84235	5.93652	0.393616	8.17249	0.125813	16	0.0520062	3.53571	
4	2	2	0.7	1.99823	5.56726	0.378113	7.9436	0.122948	16	0.0485709	3.27106	
4	2	2	0.8	2.30957	5.28394	0.38208	7.97559	0.123315	16	0.0490238	3.35956	
4	2	2	0.9	2.57935	5.17798	0.40155	8.15887	0.129872	16	0.0551612	3.38885	
4	2	2	1	2.78821	4.75208	0.387878	7.92816	0.126826	16	0.0515346	3.13416	
4	3	2	0	0	30.6293	2.10345	32.7328	0.560167	16	0.265703	15.2222	
4	3	2	0.1	2.81769	30.4135	2.24603	35.4772	0.603123	16	0.310825	17.9701	
4	3	2	0.2	4.573	28.6204	2.10992	35.3033	0.568926	16	0.277273	17.8794	
4	3	2	0.3	6.01776	27.9828	2.16913	36.1697	0.585532	16	0.293658	18.6752	
4	3	2	0.4	7.34595	26.9823	2.14532	36.4736	0.58693	16	0.29495	18.9822	
4	3	2	0.5	8.35956	25.8214	2.08093	36.2619	0.568644	16	0.276259	18.5703	
4	3	2	0.6	9.10931	24.1012	2.02673	35.2372	0.557729	16	0.265536	17.2623	
4	3	2	0.7	10.8607	22.269	2.03241	35.1621	0.563073	16	0.270138	17.1879	
4	3	2	0.8	11.4373	20.6353	1.98376	34.0563	0.554374	16	0.260974	16.1212	
4	3	2	0.9	11.6588	18.9023	1.95233	32.5134	0.55064	16	0.257159	14.7766	
4	3	2	1	11.6913	19.1405	2.09662	32.9284	0.597628	16	0.292073	14.9528	
4	4	2	0	0	134.426	9.8786	144.305	2.53123	16	1.26109	69.0217	
4	4	2	0.1	11.4481	131.514	9.73138	152.694	2.51612	16	1.26251	76.9743	
4	4	2	0.2	18.3005	128.477	9.87317	156.651	2.56561	16	1.31225	81.0566	
4	4	2	0.3	25.145	125.095	10.007	160.247	2.61617	16	1.36395	84.6238	
4	4	2	0.4	31.6016	121.866	10.09	163.558	2.64667	16	1.39218	87.8624	
4	4	2	0.5	38.3158	122.987	10.6196	171.922	2.82396	16	1.56926	96.0603	
4	4	2	0.6	44.5936	109.512	10.0694	164.175	2.67293	16	1.41931	88.0057	
4	4	2	0.7	50.8297	200.769	26.4555	278.054	7.47964	16	6.22509	202.021	
4	4	2	0.8	57.743	337.708	54.1293	449.58	15.3731	16	14.1196	373.663	
4	4	2	0.9	63.7226	957.882	160.799	1182.4	46.3082	16	45.0523	1106.55	
4	4	2	1	66.6353	1547.03	280.707	1894.38	79.603	16	78.344	1818.94	
4	0	2	0	0	0.480713	0.0348511	0.515564	0.0108326	14	0.00702722	0.327942	
4	0	2	0.1	0.197693	0.472412	0.0353394	0.705444	0.0109564	14	0.00712104	0.504272	
4	0	2	0.2	0.211304	0.432434	0.0308228	0.674561	0.0102618	14	0.006333	0.391235	
4	0	2	0.3	0.205566	0.471008	0.0357666	0.712341	0.0102826	14	0.00658896	0.441956	
4	0	2	0.4	0.198547	0.42511	0.0318604	0.655518	0.00947189	14	0.00574879	0.372925	
4	0	2	0.5	0.192017	0.377747	0.0291748	0.598938	0.00878058	14	0.0049017	0.307068	
4	0	2	0.6	0.220337	0.355347	0.0282593	0.603943	0.00855537	14	0.0047392	0.389526	
4	0	2	0.7	0.261414	0.333191	0.0314331	0.626038	0.00957137	14	0.00534464	0.300232	
4	0	2	0.8	0.246582	0.299744	0.0283813	0.574707	0.00907809	14	0.00522608	0.230347	
4	0	2	0.9	0.270203	0.3172	0.031189	0.618591	0.00964596	14	0.00548376	0.352356	
4	0	2	1	0.298889	0.255493	0.0305786	0.584961	0.0105415	14	0.00562893	0.409424	
4	1	2	0	0	2.09851	0.128845	2.22736	0.0413351	16	0.0232979	1.23938	
4	1	2	0.1	0.502075	2.27026	0.150574	2.92291	0.0463117	16	0.0278618	1.72028	
4	1	2	0.2	0.551575	2.18884	0.143616	2.88403	0.0438973	16	0.0255075	1.74146	
4	1	2	0.3	0.645142	1.98126	0.131836	2.75824	0.040634	16	0.0224681	1.58136	
4	1	2	0.4	0.648132	1.94165	0.128418	2.7182	0.0396571	16	0.0214881	1.63123	
4	1	2	0.5	0.651917	1.72272	0.110779	2.48541	0.0346495	16	0.0167808	1.2121	
4	1	2	0.6	0.699829	1.50037	0.100586	2.30078	0.0320717	16	0.014227	1.13702	
4	1	2	0.7	0.776794	1.40955	0.098938	2.28528	0.0324845	16	0.0140403	0.938293	
4	1	2	0.8	0.928467	1.34924	0.109192	2.3869	0.0347515	16	0.015683	1.27209	
4	1	2	0.9	0.976501	1.34717	0.11322	2.43689	0.0370868	16	0.0171549	1.33118	
4	1	2	1	1.00464	1.30914	0.119385	2.43317	0.0387087	16	0.0179149	1.00488	
4	2	2	0	0	7.7738	0.471741	8.24554	0.148535	16	0.0742371	4.07477	
4	2	2	0.1	0.687073	8.09631	0.537415	9.3208	0.168161	16	0.0941384	5.17303	
4	2	2	0.2	0.958923	7.64014	0.519897	9.11896	0.162848	16	0.0884717	4.93347	
4	2	2	0.3	1.10382	7.28973	0.483887	8.87744	0.153284	16	0.0788691	4.68073	
4	2	2	0.4	1.32288	6.74701	0.456116	8.526	0.145269	16	0.0710754	4.24847	
4	2	2	0.5	1.54004	6.39917	0.436829	8.37604	0.140051	16	0.0650347	4.16577	
4	2	2	0.6	1.79431	5.86011	0.387329	8.04175	0.126451	16	0.0522713	3.56494	
4	2	2	0.7	1.97729	5.5553	0.377869	7.91046	0.12166	16	0.0478851	3.1369	
4	2	2	0.8	2.28363	5.40869	0.395508	8.08783	0.128113	16	0.0535851	3.25952	
4	2	2	0.9	2.58929	5.0575	0.389099	8.03589	0.125576	16	0.050896	3.2674	
4	2	2	1	2.80609	4.74457	0.395569	7.94623	0.127971	16	0.0527759	3.31946	
4	3	2	0	0	30.0768	2.04877	32.1255	0.551851	16	0.257273	14.863	
4	3	2	0.1	2.77924	30.1287	2.21423	35.1222	0.594325	16	0.302383	17.7219	
4	3	2	0.2	4.62061	29.0291	2.24011	35.8898	0.605559	16	0.312446	18.6196	
4	3	2	0.3	5.90308	27.7615	2.17059	35.8352	0.590386	16	0.298474	18.5214	
4	3	2	0.4	7.39087	26.7441	2.12567	36.2607	0.58032	16	0.287868	18.89	
4	3	2	0.5	8.41394	25.6064	2.08063	36.101	0.569766	16	0.277503	18.4485	
4	3	2	0.6	9.15253	23.8487	2.0014	35.0026	0.551474	16	0.258557	17.2121	
4	3	2	0.7	11.0367	21.7763	2.01129	34.8243	0.558861	16	0.26562	17.077	
4	3	2	0.8	11.4662	20.6849	2.00836	34.1595	0.563438	16	0.27016	16.4368	
4	3	2	0.9	11.7428	19.1818	1.97961	32.9042	0.558477	16	0.264224	15.0325	
4	3	2	1	11.7814	18.7212	2.04358	32.5462	0.579323	16	0.282476	14.7007	
4	4	2	0	0	132.627	9.39307	142.021	2.40361	16	1.13657	66.2623	
4	4	2	0.1	11.388	131.252	9.67365	152.314	2.50937	16	1.25566	76.6363	
4	4	2	0.2	18.4041	127.849	9.83966	156.093	2.55926	16	1.30388	80.5737	
4	4	2	0.3	24.8641	125.36	9.96478	160.189	2.60269	16	1.34908	84.467	
4	4	2	0.4	31.5585	121.737	10.0493	163.345	2.63935	16	1.38567	87.6539	
4	4	2	0.5	38.4645	123.069	10.6522	172.186	2.83911	16	1.58578	96.3956	
4	4	2	0.6	44.6835	119.184	10.9127	174.78	2.95873	16	1.70456	98.6531	
4	4	2	0.7	50.9615	246	34.6869	331.648	9.86361	16	8.60945	255.847	
4	4	2	0.8	58.3815	980.736	172.974	1212.09	49.272	16	48.0166	1136.59	
4	4	2	0.9	63.6478	1251.35	224.008	1539.01	63.9427	16	62.6874	1463.63	
4	4	2	1	66.1913	80.5084	10.658	157.358	2.93528	16	1.67048	82.0221	
4	0	2	0	0	0.484192	0.0350342	0.519226	0.0109476	14	0.00713555	0.326355	
4	0	2	0.1	0.210083	0.481995	0.034729	0.726807	0.0109926	14	0.00714864	0.592712	
4	0	2	0.2	0.210205	0.485107	0.0353394	0.730652	0.0104045	14	0.0066071	0.45105	
4	0	2	0.3	0.202759	0.43219	0.0313721	0.666321	0.0101993	14	0.00640492	0.387207	
4	0	2	0.4	0.191589	0.394958	0.0282593	0.614807	0.00932883	14	0.00552127	0.399353	
4	0	2	0.5	0.204407	0.371277	0.0281982	0.603882	0.00899076	14	0.00505064	0.460205	
4	0	2	0.6	0.205688	0.333435	0.0250244	0.564148	0.00842244	14	0.00467588	0.359558	
4	0	2	0.7	0.227661	0.318481	0.0296021	0.575745	0.00884003	14	0.00501843	0.22406	
4	0	2	0.8	0.247925	0.307617	0.0289917	0.584534	0.00910867	14	0.00534753	0.31311	
4	0	2	0.9	0.267395	0.314087	0.0321655	0.613647	0.00967254	14	0.00558378	0.361206	
4	0	2	1	0.334473	0.285278	0.0338745	0.653625	0.0107405	14	0.00593392	0.416443	
4	1	2	0	0	2.09808	0.128357	2.22644	0.0416989	16	0.0234453	1.36737	
4	1	2	0.1	0.48938	2.31451	0.15332	2.95721	0.047286	16	0.0287761	1.6189	
4	1	2	0.2	0.538391	2.19366	0.144897	2.87695	0.043371	16	0.0253487	1.64392	
4	1	2	0.3	0.597961	2.08167	0.139282	2.81891	0.0429071	16	0.024362	1.77716	
4	1	2	0.4	0.671692	1.97125	0.132202	2.77515	0.0405929	16	0.022091	1.63275	
4	1	2	0.5	0.650574	1.72144	0.11084	2.48285	0.0347608	16	0.016905	1.32251	
4	1	2	0.6	0.688049	1.52435	0.0997925	2.31219	0.0321011	16	0.0138795	1.04132	
4	1	2	0.7	0.771362	1.42053	0.0996094	2.2915	0.0317808	16	0.0136519	1.01038	
4	1	2	0.8	0.967773	1.60175	0.135254	2.70477	0.0413297	16	0.0219372	1.42285	
4	1	2	0.9	0.951477	1.31085	0.108887	2.37122	0.0348676	16	0.0157886	1.16675	
4	1	2	1	0.979675	1.31281	0.122009	2.41449	0.039271	16	0.0190907	1.10809	
4	2	2	0	0	7.69202	0.454468	8.14648	0.144148	16	0.0699834	3.83771	
4	2	2	0.1	0.724976	8.15204	0.55188	9.42889	0.172946	16	0.0982215	5.21741	
4	2	2	0.2	0.965881	7.72852	0.524597	9.21899	0.165469	16	0.0911939	5.00739	
4	2	2	0.3	1.10272	7.19922	0.476196	8.77814	0.151613	16	0.0762249	4.58698	
4	2	2	0.4	1.34601	6.80444	0.467529	8.61798	0.147729	16	0.0734154	4.39917	
4	2	2	0.5	1.54254	6.38165	0.429138	8.35333	0.137754	16	0.0634796	4.09192	
4	2	2	0.6	1.81738	5.89154	0.385864	8.09479	0.125468	16	0.0510993	3.50116	
4	2	2	0.7	1.99799	5.50854	0.375	7.88153	0.121489	16	0.047302	3.1731	
4	2	2	0.8	2.29932	5.25555	0.378967	7.93384	0.123841	16	0.0492684	3.3363	
4	2	2	0.9	2.57904	5.03583	0.385681	8.00055	0.12437	16	0.0496569	3.24347	
4	2	2	1	2.77881	4.75153	0.395325	7.92566	0.127851	16	0.0525174	3.22217	
4	3	2	0	0	30.2526	2.0603	32.3129	0.552731	16	0.258238	14.8798	
4	3	2	0.1	2.73883	30.0554	2.21179	35.006	0.59329	16	0.301437	17.7725	
4	3	2	0.2	4.49225	28.6799	2.15588	35.328	0.581382	16	0.288826	18.0138	
4	3	2	0.3	5.8064	27.554	2.13269	35.4931	0.577977	16	0.285238	18.0825	
4	3	2	0.4	7.01495	26.4789	2.07001	35.5639	0.564375	16	0.272369	18.1041	
4	3	2	0.5	8.39606	26.0446	2.12878	36.5695	0.585474	16	0.293112	18.9699	
4	3	2	0.6	9.43756	24.0377	2.04956	35.5248	0.56567	16	0.272869	17.8002	
4	3	2	0.7	10.6928	22.1172	2.00226	34.8123	0.556824	16	0.263442	17.1774	
4	3	2	0.8	11.4104	20.3611	1.98785	33.7593	0.555209	16	0.261488	15.9623	
4	3	2	0.9	11.7679	19.7025	2.04163	33.512	0.574856	16	0.281327	15.863	
4	3	2	1	11.8107	17.9488	2.00519	31.7646	0.56983	16	0.264206	13.8265	
4	4	2	0	0	132.315	9.35547	141.671	2.40182	16	1.13618	66.0996	
4	4	2	0.1	11.3009	130.782	9.7124	151.795	2.51662	16	1.26149	76.4099	
4	4	2	0.2	18.3524	128.287	9.84351	156.483	2.55987	16	1.30585	80.8976	
4	4	2	0.3	24.7096	125.59	9.99652	160.296	2.60853	16	1.35592	84.4175	
4	4	2	0.4	31.209	126.214	10.4049	167.828	2.75323	16	1.49983	92.0035	
4	4	2	0.5	38.0942	118.492	10.1555	166.741	2.67478	16	1.42162	91.0117	
4	4	2	0.6	44.5768	123.002	11.2398	178.819	3.07487	16	1.82138	102.595	
4	4	2	0.7	51.5439	513.975	83.651	649.17	23.8168	16	22.5622	573.531	
4	4	2	0.8	57.7428	94.4667	10.3344	162.544	2.80449	16	1.55077	86.7698	
4	4	2	0.9	63.6295	319.329	50.114	433.072	14.2858	16	13.0328	357.553	
4	4	2	1	67.7587	328.695	50.9613	447.415	14.7349	16	13.4806	371.664	
4	0	2	0	0	0.47876	0.0353394	0.514099	0.0110621	14	0.00717631	0.322693	
4	0	2	0.1	0.189758	0.491455	0.0353394	0.716553	0.0107775	14	0.00691273	0.44574	
4	0	2	0.2	0.198547	0.420532	0.0316772	0.650757	0.010309	14	0.00652505	0.37793	
4	0	2	0.3	0.194641	0.425537	0.0322876	0.652466	0.010452	14	0.00662244	0.450195	
4	0	2	0.4	0.187744	0.398743	0.0287476	0.615234	0.00934279	14	0.00565335	0.40863	
4	0	2	0.5	0.18927	0.349548	0.0247192	0.563538	0.0083141	14	0.00448932	0.363098	
4	0	2	0.6	0.213989	0.357483	0.0281982	0.59967	0.00858189	14	0.00480886	0.314331	
4	0	2	0.7	0.246033	0.302612	0.0279541	0.576599	0.00938505	14	0.00531181	0.312256	
4	0	2	0.8	0.26947	0.280029	0.0276489	0.577148	0.0097952	14	0.00551245	0.250488	
4	0	2	0.9	0.264221	0.291443	0.02771	0.583374	0.00930875	14	0.00525403	0.387085	
4	0	2	1	0.344421	0.303894	0.0374756	0.685791	0.0111636	14	0.00568269	0.360413	
4	1	2	0	0	2.14056	0.136414	2.27698	0.0428759	16	0.0245997	1.25641	
4	1	2	0.1	0.517151	2.32385	0.153564	2.99457	0.0468421	16	0.0283868	2.01251	
4	1	2	0.2	0.557556	2.1189	0.139709	2.81616	0.0430017	16	0.0248322	1.74469	
4	1	2	0.3	0.703979	2.15656	0.146851	3.00739	0.0453886	16	0.0239826	1.83533	
4	1	2	0.4	0.685181	1.95776	0.132324	2.77527	0.0407425	16	0.0220715	1.63434	
4	1	2	0.5	0.675293	1.71094	0.110107	2.49634	0.0351659	16	0.0173129	1.27704	
4	1	2	0.6	0.710388	1.51001	0.0994873	2.31989	0.0319576	16	0.0139864	1.0896	
4	1	2	0.7	0.810425	1.40326	0.104004	2.31769	0.0327863	16	0.0143777	1.0791	
4	1	2	0.8	0.902405	1.3681	0.107727	2.37823	0.0347832	16	0.01549	1.11603	
4	1	2	0.9	0.979492	1.3548	0.115112	2.4494	0.0366829	16	0.0167061	1.19214	
4	1	2	1	0.966431	1.25763	0.115295	2.33936	0.0384215	16	0.0175779	1.03802	
4	2	2	0	0	7.75006	0.452148	8.20221	0.144105	16	0.0700909	4.00598	
4	2	2	0.1	0.780579	8.14441	0.540222	9.46521	0.169182	16	0.0951341	5.20215	
4	2	2	0.2	0.934692	7.68402	0.526855	9.14557	0.167426	16	0.0931517	4.90771	
4	2	2	0.3	1.10303	7.46289	0.51532	9.08124	0.16298	16	0.0885412	4.81024	
4	2	2	0.4	1.34058	6.80115	0.453186	8.59491	0.145121	16	0.0709998	4.40295	
4	2	2	0.5	1.65485	6.41156	0.435547	8.50195	0.139073	16	0.0647802	4.17108	
4	2	2	0.6	1.81982	5.9162	0.391235	8.12726	0.12604	16	0.0519283	3.44189	
4	2	2	0.7	2.01672	5.52515	0.377808	7.91968	0.12183	16	0.0473888	3.17145	
4	2	2	0.8	2.29279	5.29785	0.383362	7.974	0.124375	16	0.0497612	3.37573	
4	2	2	0.9	2.52594	5.04114	0.387207	7.95428	0.124866	16	0.0504937	3.16455	
4	2	2	1	2.79083	4.78552	0.395386	7.97174	0.127576	16	0.0523531	3.15515	
4	3	2	0	0	30.4315	2.07684	32.5084	0.553867	16	0.258741	14.9035	
4	3	2	0.1	2.78955	30.0979	2.18732	35.0748	0.587402	16	0.294958	17.741	
4	3	2	0.2	4.53943	28.6436	2.11237	35.2954	0.572281	16	0.279949	17.9232	
4	3	2	0.3	5.72345	27.5419	2.11877	35.3841	0.573063	16	0.281502	17.9119	
4	3	2	0.4	7.38403	26.8519	2.13336	36.3693	0.583174	16	0.290684	18.9034	
4	3	2	0.5	8.47693	25.4737	2.073	36.0236	0.568106	16	0.275732	18.5035	
4	3	2	0.6	9.76282	23.7095	2.03815	35.5104	0.561461	16	0.269114	17.7888	
4	3	2	0.7	10.7324	22.0957	2.0033	34.8314	0.556856	16	0.263534	17.0041	
4	3	2	0.8	11.6956	20.5282	1.99329	34.2171	0.560977	16	0.268088	16.4531	
4	3	2	0.9	11.5604	19.2914	1.96381	32.8156	0.555596	16	0.261886	14.9663	
4	3	2	1	11.8447	17.8258	1.98071	31.6512	0.563235	16	0.263607	13.8691	
4	4	2	0	0	132.58	9.38647	141.967	2.40536	16	1.1396	66.2156	
4	4	2	0.1	11.188	131.35	9.69672	152.235	2.5072	16	1.25411	76.5416	
4	4	2	0.2	18.2535	128.701	9.87305	156.827	2.5672	16	1.314	81.1546	
4	4	2	0.3	24.8209	125.13	9.94336	159.894	2.59109	16	1.33797	84.0297	
4	4	2	0.4	31.578	121.939	10.1309	163.648	2.65713	16	1.40381	87.9395	
4	4	2	0.5	38.0873	130.673	11.2663	180.026	3.05024	16	1.79605	104.17	
4	4	2	0.6	44.5677	124.783	11.4273	180.778	3.12846	16	1.87457	104.466	
4	4	2	0.7	51.3279	101.815	10.2028	163.346	2.73603	16	1.48069	87.2303	
4	4	2	0.8	58.3655	416.981	67.2295	542.576	19.1476	16	17.8939	466.948	
4	4	2	0.9	63.4264	354.733	59.4803	477.64	16.8884	16	15.6341	402.284	
4	4	2	1	66.6815	294.185	44.1451	405.012	12.7789	16	11.5096	329.224	
4	0	2	0	0	0.478088	0.0358276	0.513916	0.0109644	14	0.00718974	0.323914	
4	0	2	0.1	0.204407	0.520142	0.0389404	0.763489	0.0110713	14	0.00731065	0.528625	
4	0	2	0.2	0.208008	0.436157	0.0315552	0.67572	0.010073	14	0.00623146	0.385925	
4	0	2	0.3	0.188477	0.442627	0.0316162	0.66272	0.0100669	14	0.00632385	0.383972	
4	0	2	0.4	0.2005	0.437378	0.0322266	0.670105	0.00935166	14	0.00563676	0.457092	
4	0	2	0.5	0.181458	0.343567	0.0245361	0.549561	0.00838155	14	0.0046683	0.330444	
4	0	2	0.6	0.194336	0.320862	0.0252686	0.540466	0.00812177	14	0.00442213	0.325989	
4	0	2	0.7	0.235291	0.319946	0.0285034	0.58374	0.009233	14	0.00525784	0.238586	
4	0	2	0.8	0.258972	0.2901	0.0275879	0.57666	0.00944816	14	0.00538388	0.239868	
4	0	2	0.9	0.273682	0.322083	0.0322876	0.628052	0.00954034	14	0.00530333	0.233215	
4	0	2	1	0.321045	0.285339	0.0346069	0.640991	0.0103353	14	0.00543153	0.35022	
4	1	2	0	0	2.13965	0.131287	2.27094	0.0417752	16	0.0235833	1.28656	
4	1	2	0.1	0.511414	2.32123	0.153137	2.98578	0.0471913	16	0.0284995	1.97748	
4	1	2	0.2	0.582825	2.14001	0.138306	2.86115	0.0427565	16	0.024424	1.81281	
4	1	2	0.3	0.602539	2.07031	0.140076	2.81293	0.0426742	16	0.0243899	1.52887	
4	1	2	0.4	0.643066	1.95898	0.12915	2.7312	0.0395792	16	0.0214241	1.57532	
4	1	2	0.5	0.683044	1.68732	0.111267	2.48163	0.0348426	16	0.0168616	1.3111	
4	1	2	0.6	0.661438	1.48291	0.0973511	2.2417	0.0312966	16	0.0135389	0.842712	
4	1	2	0.7	0.814087	1.43616	0.102478	2.35272	0.0329624	16	0.0141357	1.23566	
4	1	2	0.8	0.941956	1.38	0.108765	2.43073	0.0345036	16	0.0154743	1.20984	
4	1	2	0.9	0.944763	1.31653	0.110107	2.3714	0.0361236	16	0.0162533	1.271	
4	1	2	1	0.987183	1.2572	0.116882	2.36127	0.0383285	16	0.0178044	1.13892	
4	2	2	0	0	7.80829	0.460205	8.26849	0.147015	16	0.0731084	4.01636	
4	2	2	0.1	0.67804	7.98743	0.523193	9.18866	0.165133	16	0.090846	4.87384	
4	2	2	0.2	0.972046	7.67926	0.518921	9.17023	0.164505	16	0.0902604	5.02283	
4	2	2	0.3	1.08423	7.03412	0.458801	8.57715	0.147743	16	0.0733998	4.38782	
4	2	2	0.4	1.34821	6.93469	0.477539	8.76044	0.150074	16	0.0761224	4.61298	
4	2	2	0.5	1.63568	6.32532	0.42981	8.39081	0.138361	16	0.0639755	4.16577	
4	2	2	0.6	1.81976	5.89203	0.387756	8.09955	0.124235	16	0.0503288	3.6062	
4	2	2	0.7	1.97931	5.80841	0.399902	8.18762	0.128651	16	0.0542676	3.42786	
4	2	2	0.8	2.31586	5.23737	0.384399	7.93762	0.124785	16	0.0500051	3.2981	
4	2	2	0.9	2.57422	5.07343	0.389709	8.03735	0.125727	16	0.0507348	3.24615	
4	2	2	1	2.8197	4.74573	0.394226	7.95966	0.126993	16	0.0519178	3.21582	
4	3	2	0	0	30.1713	2.05292	32.2242	0.551973	16	0.257385	14.9476	
4	3	2	0.1	2.76288	30.47	2.26318	35.496	0.611267	16	0.319162	18.1617	
4	3	2	0.2	4.52417	28.6593	2.18219	35.3657	0.58894	16	0.296763	18.0486	
4	3	2	0.3	5.92499	27.5661	2.15826	35.6494	0.585488	16	0.292768	18.2535	
4	3	2	0.4	7.41809	26.736	2.15057	36.3046	0.586531	16	0.294117	18.8719	
4	3	2	0.5	8.51831	25.5517	2.08783	36.1578	0.572176	16	0.279152	18.5286	
4	3	2	0.6	9.66449	23.8787	2.04022	35.5834	0.563277	16	0.270546	17.6658	
4	3	2	0.7	10.466	22.0029	1.97852	34.4474	0.550326	16	0.257704	16.6038	
4	3	2	0.8	11.4895	20.5026	1.98035	33.9724	0.555576	16	0.262534	16.117	
4	3	2	0.9	11.3197	19.2026	1.95227	32.4746	0.551956	16	0.258344	14.6523	
4	3	2	1	11.9966	18.0344	2.02466	32.0557	0.574321	16	0.26874	14.1243	
4	4	2	0	0	132.363	9.39374	141.757	2.40581	16	1.13998	66.0778	
4	4	2	0.1	11.3826	131.449	9.72107	152.553	2.51388	16	1.26088	76.8612	
4	4	2	0.2	18.3171	128.232	9.85236	156.401	2.56181	16	1.3081	80.8649	
4	4	2	0.3	24.7555	125.233	9.98181	159.97	2.60376	16	1.35001	84.2617	
4	4	2	0.4	31.3624	122.055	10.0658	163.483	2.64169	16	1.38728	87.6747	
4	4	2	0.5	38.3069	457.273	72.8067	568.387	20.513	16	19.2583	492.724	
4	4	2	0.6	45.0759	576.837	95.0722	716.985	27.0565	16	25.8026	641.21	
4	4	2	0.7	51.3307	700.889	118.793	871.013	33.9142	16	32.6602	795.776	
4	4	2	0.8	58.0378	832.395	143.637	1034.07	41.2202	16	39.9656	958.789	
4	4	2	0.9	62.9879	88.3929	10.5834	161.964	2.90289	16	1.64859	86.5313	
4	4	2	1	66.7704	760.809	129.749	957.328	37.3348	16	36.0465	881.245	
4	0	2	0	0	0.476318	0.0354614	0.51178	0.0112537	14	0.00735362	0.368164	
4	0	2	0.1	0.209351	0.49176	0.034729	0.73584	0.0105132	14	0.00671805	0.45752	
4	0	2	0.2	0.202576	0.422302	0.0311279	0.656006	0.0104187	14	0.00657156	0.449158	
4	0	2	0.3	0.216248	0.466248	0.0350952	0.71759	0.0105989	14	0.00672988	0.374451	
4	0	2	0.4	0.182922	0.419495	0.0325928	0.63501	0.00953941	14	0.00573461	0.329163	
4	0	2	0.5	0.184998	0.342651	0.0249634	0.552612	0.00835518	14	0.00463423	0.187683	
4	0	2	0.6	0.202759	0.347534	0.0290527	0.579346	0.00854129	14	0.00488267	0.205078	
4	0	2	0.7	0.236572	0.320496	0.0279541	0.585022	0.00892586	14	0.0051021	0.236938	
4	0	2	0.8	0.274902	0.316101	0.0316162	0.62262	0.00952221	14	0.00541632	0.301392	
4	0	2	0.9	0.263733	0.300842	0.0316772	0.596252	0.00986864	14	0.00565648	0.369751	
4	0	2	1	0.32135	0.285156	0.034729	0.641235	0.010881	14	0.00613014	0.403076	
4	1	2	0	0	2.11011	0.129395	2.2395	0.0414779	16	0.023456	1.34985	
4	1	2	0.1	0.49292	2.36658	0.159546	3.01904	0.0474773	16	0.0291944	2.01331	
4	1	2	0.2	0.548096	2.06555	0.132996	2.74664	0.0417913	16	0.0237043	1.60883	
4	1	2	0.3	0.633179	2.01355	0.134583	2.78131	0.0421576	16	0.0236447	1.55939	
4	1	2	0.4	0.633179	1.92889	0.13324	2.69531	0.0407996	16	0.0225715	1.58954	
4	1	2	0.5	0.644653	1.73157	0.110352	2.48657	0.0346945	16	0.0168684	1.12878	
4	1	2	0.6	0.674744	1.46814	0.0964966	2.23938	0.0316432	16	0.0136532	0.925171	
4	1	2	0.7	0.810303	1.38947	0.101868	2.30164	0.0331406	16	0.0140977	1.06323	
4	1	2	0.8	0.857727	1.37775	0.106689	2.34216	0.0340518	16	0.0154544	1.21515	
4	1	2	0.9	0.944519	1.33936	0.111694	2.39557	0.035401	16	0.0160665	1.13672	
4	1	2	1	1.00562	1.33899	0.122864	2.46747	0.0379553	16	0.0175885	1.12866	
4	2	2	0	0	7.69727	0.506226	8.20349	0.144149	16	0.0699813	3.90253	
4	2	2	0.1	0.685242	8.14771	0.542664	9.37561	0.171	16	0.0967627	5.1059	
4	2	2	0.2	0.956787	7.75415	0.530334	9.24127	0.166099	16	0.0919238	4.93359	
4	2	2	0.3	1.11731	7.12067	0.475037	8.71301	0.151666	16	0.0772586	4.37518	
4	2	2	0.4	1.31049	6.85193	0.465759	8.62817	0.147243	16	0.0730316	4.42438	
4	2	2	0.5	1.5459	6.35437	0.427612	8.32788	0.136592	16	0.0621206	4.04449	
4	2	2	0.6	1.79584	5.85779	0.382935	8.03656	0.124295	16	0.0502514	3.52576	
4	2	2	0.7	2.05322	5.49811	0.37854	7.92987	0.123001	16	0.0484363	3.17133	
4	2	2	0.8	2.29828	5.27441	0.383301	7.95599	0.124257	16	0.0495129	3.21527	
4	2	2	0.9	2.5954	5.08862	0.39209	8.07611	0.125572	16	0.0510814	3.33044	
4	2	2	1	2.75824	4.71912	0.394287	7.87164	0.128333	16	0.0529013	3.18146	
4	3	2	0	0	30.1517	2.0639	32.2156	0.552037	16	0.257402	14.7594	
4	3	2	0.1	2.82935	30.6664	2.33856	35.8344	0.630517	16	0.337615	18.5371	
4	3	2	0.2	4.49939	29.1721	2.22223	35.8937	0.6012	16	0.309144	18.6915	
4	3	2	0.3	5.94861	27.4631	2.08618	35.4979	0.567199	16	0.275315	18.1871	
4	3	2	0.4	7.40497	26.9467	2.17493	36.5266	0.592585	16	0.299724	19.1376	
4	3	2	0.5	8.77417	25.5568	2.11609	36.447	0.580493	16	0.287948	19.0022	
4	3	2	0.6	9.21484	24.101	2.0473	35.3632	0.564905	16	0.271909	17.4814	
4	3	2	0.7	11.0547	21.7139	2.0014	34.77	0.556691	16	0.264234	17.029	
4	3	2	0.8	11.6711	20.1929	1.98242	33.8464	0.555721	16	0.262554	16.1403	
4	3	2	0.9	11.5891	19.2849	1.97528	32.8492	0.559071	16	0.265798	15.0492	
4	3	2	1	11.9324	18.3218	2.0155	32.2697	0.569908	16	0.276455	14.5322	
4	4	2	0	0	132.174	9.38391	141.558	2.40303	16	1.13627	65.9882	
4	4	2	0.1	11.4116	130.816	9.68347	151.911	2.5052	16	1.25207	76.3767	
4	4	2	0.2	18.2914	128.222	9.84802	156.362	2.55601	16	1.30326	80.7133	
4	4	2	0.3	25.2021	124.733	9.92444	159.86	2.59284	16	1.33894	84.1399	
4	4	2	0.4	31.2049	121.816	10.0397	163.06	2.63381	16	1.37969	87.2302	
4	4	2	0.5	38.1551	127.852	11.0035	177.011	2.96443	16	1.71199	101.34	
4	4	2	0.6	44.9591	661.2	110.677	816.836	31.5477	16	30.2945	740.79	
4	4	2	0.7	50.1694	134.078	11.9378	196.185	3.20986	16	1.56591	97.5679	
4	4	2	0.8	58.265	243.15	35.3078	336.722	9.98751	16	8.73391	260.922	
4	4	2	0.9	63.3599	86.5268	10.3772	160.264	2.82759	16	1.57425	84.3732	
4	4	2	1	67.2687	204.432	27.1676	298.869	7.89954	16	6.64354	223.111	
4	0	2	0	0	0.490051	0.0359497	0.526001	0.0107114	14	0.00705661	0.382874	
4	0	2	0.1	0.184753	0.48468	0.0357666	0.7052	0.0107915	14	0.0070006	0.394165	
4	0	2	0.2	0.220764	0.434082	0.03125	0.686096	0.0106933	14	0.00680467	0.337097	
4	0	2	0.3	0.203186	0.467896	0.0355835	0.706665	0.010311	14	0.00654341	0.535522	
4	0	2	0.4	0.208191	0.418396	0.0313721	0.657959	0.00978078	14	0.00590349	0.387878	
4	0	2	0.5	0.186218	0.355286	0.0247803	0.566284	0.0082762	14	0.00447806	0.365845	
4	0	2	0.6	0.209229	0.357849	0.0288086	0.595886	0.0085923	14	0.00480094	0.321655	
4	0	2	0.7	0.242554	0.332336	0.0285034	0.603394	0.008857	14	0.00512106	0.323669	
4	0	2	0.8	0.245911	0.308228	0.0286865	0.582825	0.0091839	14	0.00528969	0.373047	
4	0	2	0.9	0.304504	0.324158	0.0346069	0.663269	0.0101498	14	0.00578088	0.24292	
4	0	2	1	0.315857	0.276672	0.0343018	0.626831	0.0108523	14	0.00553595	0.279663	
4	1	2	0	0	2.15582	0.131958	2.28778	0.041576	16	0.0235411	1.2973	
4	1	2	0.1	0.507874	2.29291	0.150024	2.95081	0.0464844	16	0.0278921	1.65265	
4	1	2	0.2	0.612427	2.08563	0.138489	2.83655	0.0426707	16	0.0243494	1.61169	
4	1	2	0.3	0.661743	2.00659	0.134155	2.80249	0.0421718	16	0.0236262	1.57562	
4	1	2	0.4	0.679138	1.94501	0.13501	2.75916	0.0411669	16	0.0227482	1.57471	
4	1	2	0.5	0.700439	1.73199	0.118103	2.55054	0.0370484	16	0.0184829	1.25446	
4	1	2	0.6	0.748962	1.50787	0.102417	2.35925	0.0329493	16	0.014637	1.23907	
4	1	2	0.7	0.809326	1.43701	0.103027	2.34937	0.0332648	16	0.0149348	1.05774	
4	1	2	0.8	0.861633	1.33527	0.102783	2.29968	0.0327829	16	0.0145797	1.20502	
4	1	2	0.9	0.951477	1.34369	0.11145	2.40662	0.0364103	16	0.0168317	1.21442	
4	1	2	1	0.968872	1.2699	0.115784	2.35455	0.0381717	16	0.0173741	1.20709	
4	2	2	0	0	7.69922	0.451538	8.15076	0.143974	16	0.0700064	3.89972	
4	2	2	0.1	0.695374	8.17609	0.550598	9.42206	0.172697	16	0.0981139	5.15125	
4	2	2	0.2	0.94989	7.5625	0.514221	9.02661	0.162361	16	0.0882967	4.71741	
4	2	2	0.3	1.16956	7.13293	0.468323	8.77081	0.149004	16	0.0750144	4.59174	
4	2	2	0.4	1.33136	6.87732	0.462219	8.6709	0.146358	16	0.0725244	4.47491	
4	2	2	0.5	1.68506	6.41724	0.437012	8.53931	0.13949	16	0.0651188	4.24146	
4	2	2	0.6	1.74982	5.91656	0.386414	8.0528	0.124811	16	0.0506964	3.48584	
4	2	2	0.7	2.01074	5.60278	0.380371	7.9939	0.122152	16	0.0477205	3.21625	
4	2	2	0.8	2.3208	5.27374	0.380249	7.97479	0.123886	16	0.0489517	3.18213	
4	2	2	0.9	2.58569	5.08014	0.389099	8.05493	0.124959	16	0.0504831	3.28198	
4	2	2	1	2.79755	4.76776	0.391785	7.95709	0.126056	16	0.0511697	3.16437	
4	3	2	0	0	30.3062	2.07391	32.3801	0.55391	16	0.259079	14.9282	
4	3	2	0.1	2.85449	30.2104	2.18634	35.2512	0.588039	16	0.295848	17.6948	
4	3	2	0.2	4.4884	28.9131	2.18573	35.5873	0.587798	16	0.295341	18.1827	
4	3	2	0.3	5.79425	27.5707	2.11328	35.4783	0.571795	16	0.279876	18.1245	
4	3	2	0.4	6.94366	26.6752	2.07739	35.6963	0.565651	16	0.272719	18.2382	
4	3	2	0.5	8.35785	25.4542	2.0708	35.8828	0.566435	16	0.273945	18.2288	
4	3	2	0.6	9.24792	23.8067	2.00983	35.0645	0.553972	16	0.260982	17.2514	
4	3	2	0.7	10.7039	22.1199	1.99573	34.8195	0.555519	16	0.262623	16.9297	
4	3	2	0.8	11.4659	20.2864	1.98035	33.7327	0.553965	16	0.260844	15.9008	
4	3	2	0.9	11.8333	19.4547	2.01398	33.302	0.56745	16	0.274255	15.3923	
4	3	2	1	12.0328	17.9149	2.01575	31.9634	0.570732	16	0.26992	14.0162	
4	4	2	0	0	132.566	9.3811	141.948	2.40063	16	1.13405	66.1862	
4	4	2	0.1	11.4524	130.824	9.7439	152.021	2.52527	16	1.27145	76.7211	
4	4	2	0.2	18.4407	128.273	9.86896	156.583	2.56507	16	1.31155	80.902	
4	4	2	0.3	24.9865	125.023	9.95282	159.963	2.59738	16	1.34323	84.3663	
4	4	2	0.4	31.3424	121.548	10.002	162.893	2.621	16	1.36675	87.0708	
4	4	2	0.5	38.1742	118.71	10.1941	167.078	2.69048	16	1.43678	91.3236	
4	4	2	0.6	45.0031	913.783	159.625	1118.41	45.5187	16	44.2637	1042.79	
4	4	2	0.7	51.1343	560.289	95.2871	706.711	27.1423	16	25.8874	631.263	
4	4	2	0.8	57.675	1404.94	252.819	1715.43	72.2322	16	70.9781	1640.12	
4	4	2	0.9	63.5836	210.109	27.9865	301.68	8.11462	16	6.86158	226.311	
4	4	2	1	65.7635	1572.46	284.857	1923.08	80.806	16	79.5458	1847.85	
4	0	2	0	0	0.446411	0.0324097	0.478821	0.0105456	14	0.00680815	0.330872	
4	0	2	0.1	0.200623	0.556396	0.038208	0.795227	0.012189	14	0.00842772	0.526001	
4	0	2	0.2	0.178162	0.410461	0.0280151	0.616638	0.00980342	14	0.00605182	0.616638	
4	0	2	0.3	0.207153	0.466492	0.0360107	0.709656	0.0106006	14	0.0067924	0.376404	
4	0	2	0.4	0.192993	0.424927	0.0322266	0.650146	0.00936069	14	0.00562899	0.370667	
4	0	2	0.5	0.211487	0.378479	0.0279541	0.61792	0.00898515	14	0.00516754	0.258057	
4	0	2	0.6	0.207031	0.337341	0.0288086	0.573181	0.00878239	14	0.00487498	0.207825	
4	0	2	0.7	0.243042	0.323792	0.0279541	0.594788	0.00874933	14	0.00494432	0.388733	
4	0	2	0.8	0.242126	0.302185	0.0283203	0.572632	0.00926507	14	0.00545414	0.307495	
4	0	2	0.9	0.2771	0.316772	0.0315552	0.625427	0.00946308	14	0.00523588	0.229614	
4	0	2	1	0.331848	0.263855	0.0336304	0.629333	0.0113309	14	0.00615277	0.334473	
4	1	2	0	0	2.12848	0.132812	2.26129	0.0417485	16	0.0235344	1.3327	
4	1	2	0.1	0.496094	2.34332	0.158447	2.99786	0.0478092	16	0.0293912	2.01031	
4	1	2	0.2	0.574036	2.164	0.143677	2.88171	0.0437609	16	0.0255041	1.78088	
4	1	2	0.3	0.593933	1.91461	0.125549	2.63409	0.0389438	16	0.0210784	1.50153	
4	1	2	0.4	0.665833	1.89038	0.128723	2.68494	0.0406847	16	0.0223124	1.52972	
4	1	2	0.5	0.703247	1.90369	0.136353	2.74329	0.0425407	16	0.0243796	1.51648	
4	1	2	0.6	0.717773	1.55444	0.108154	2.38037	0.0335421	16	0.0154831	1.11615	
4	1	2	0.7	0.77301	1.4209	0.0991821	2.29309	0.0324935	16	0.0141513	0.767456	
4	1	2	0.8	0.946045	1.38428	0.111511	2.44183	0.0357214	16	0.0161335	1.23853	
4	1	2	0.9	0.936279	1.29675	0.10791	2.34094	0.0350671	16	0.0156712	1.14886	
4	1	2	1	0.999451	1.26709	0.120605	2.38715	0.0388812	16	0.0181225	1.16766	
4	2	2	0	0	7.74683	0.452759	8.19958	0.144299	16	0.0700528	3.85437	
4	2	2	0.1	0.682068	8.09448	0.533203	9.30975	0.168293	16	0.0940587	5.19189	
4	2	2	0.2	0.944092	7.65021	0.517029	9.11133	0.163933	16	0.0896429	4.77557	
4	2	2	0.3	1.13641	7.2525	0.500183	8.8891	0.157899	16	0.0834055	4.64642	
4	2	2	0.4	1.37256	6.8316	0.458801	8.66296	0.146094	16	0.0718889	4.42804	
4	2	2	0.5	1.58148	6.39258	0.428772	8.40283	0.137413	16	0.063307	4.07574	
4	2	2	0.6	1.81732	5.90625	0.390015	8.11359	0.125099	16	0.051704	3.59961	
4	2	2	0.7	2.02765	5.51428	0.371948	7.91388	0.121598	16	0.0472295	3.16089	
4	2	2	0.8	2.34052	5.28729	0.382446	8.01025	0.124917	16	0.0501898	3.22028	
4	2	2	0.9	2.55725	5.05127	0.383545	7.99207	0.124675	16	0.0499923	3.12872	
4	2	2	1	2.79913	4.79596	0.394836	7.98993	0.125392	16	0.0510367	3.17242	
4	3	2	0	0	30.1027	2.0567	32.1594	0.551375	16	0.25658	14.7341	
4	3	2	0.1	2.89453	30.1111	2.19202	35.1977	0.591245	16	0.298974	17.8184	
4	3	2	0.2	4.55493	28.7939	2.15173	35.5006	0.580175	16	0.287864	18.1819	
4	3	2	0.3	5.94824	27.5706	2.17651	35.6954	0.58973	16	0.297119	18.2903	
4	3	2	0.4	7.26617	26.4227	2.07959	35.7684	0.566996	16	0.27482	18.3971	
4	3	2	0.5	8.59216	25.5073	2.0896	36.1891	0.572422	16	0.279805	18.4276	
4	3	2	0.6	9.51184	24.2451	2.07074	35.8276	0.570453	16	0.271786	17.7194	
4	3	2	0.7	10.6874	22.2275	2.00775	34.9227	0.559124	16	0.26594	17.1008	
4	3	2	0.8	11.6026	20.787	2.01709	34.4067	0.565703	16	0.268697	16.6919	
4	3	2	0.9	11.7763	18.8481	1.96283	32.5872	0.554466	16	0.261151	14.8221	
4	3	2	1	11.8852	17.7925	1.96289	31.6406	0.558512	16	0.265044	13.8583	
4	4	2	0	0	132.537	9.38818	141.925	2.40337	16	1.13629	66.0728	
4	4	2	0.1	11.3099	131.022	9.75342	152.085	2.52511	16	1.27107	76.5216	
4	4	2	0.2	18.302	129.717	10.0817	158.1	2.63221	16	1.3787	82.5743	
4	4	2	0.3	24.9506	125.047	9.96442	159.962	2.59907	16	1.34621	84.286	
4	4	2	0.4	31.3019	121.699	10.0344	163.035	2.63271	16	1.37943	87.2574	
4	4	2	0.5	38.5605	340.584	51.0025	430.147	14.3757	16	13.1222	354.674	
4	4	2	0.6	44.7282	686.499	116.623	847.851	33.2164	16	31.9644	772.007	
4	4	2	0.7	51.1888	115.994	11.4756	178.658	3.17202	16	1.91748	102.714	
4	4	2	0.8	57.8276	931.028	164.355	1153.21	46.9567	16	45.7022	1077.68	
4	4	2	0.9	63.0309	3138.32	579.633	3780.98	165.19	16	163.937	3705.81	
4	4	2	1	66.0624	1286.68	230.825	1583.57	65.2044	16	63.9404	1508.46	
4	0	2	0	0	0.483521	0.0349121	0.518433	0.0109571	14	0.00706378	0.245667	
4	0	2	0.1	0.203369	0.486572	0.0345459	0.724487	0.0108165	14	0.00695062	0.449463	
4	0	2	0.2	0.227722	0.431702	0.0308228	0.690247	0.0101018	14	0.00627672	0.349792	
4	0	2	0.3	0.198792	0.430359	0.0321045	0.661255	0.0106424	14	0.00690753	0.332642	
4	0	2	0.4	0.182129	0.39386	0.0285645	0.604553	0.00930848	14	0.00559592	0.318115	
4	0	2	0.5	0.1875	0.368958	0.0296631	0.586121	0.00873199	14	0.00486122	0.281616	
4	0	2	0.6	0.18927	0.317017	0.0252075	0.531494	0.00824694	14	0.00455747	0.319397	
4	0	2	0.7	0.246948	0.342712	0.0322876	0.621948	0.00946166	14	0.00527998	0.297607	
4	0	2	0.8	0.259399	0.291809	0.0279541	0.579163	0.0096664	14	0.00555014	0.238892	
4	0	2	0.9	0.260315	0.29895	0.0281982	0.587463	0.00963375	14	0.00561227	0.252808	
4	0	2	1	0.315369	0.296936	0.0350952	0.6474	0.0103386	14	0.0055991	0.347107	
4	1	2	0	0	2.13708	0.132507	2.26959	0.0416773	16	0.023548	1.39996	
4	1	2	0.1	0.497803	2.36212	0.157532	3.01746	0.0476627	16	0.0291689	2.06732	
4	1	2	0.2	0.526123	2.20502	0.144226	2.87537	0.0439718	16	0.0257023	1.7691	
4	1	2	0.3	0.631042	2.07495	0.138733	2.84473	0.0423886	16	0.0237087	1.64087	
4	1	2	0.4	0.662842	1.94525	0.132568	2.74066	0.0406272	16	0.0221973	1.45404	
4	1	2	0.5	0.653503	1.66809	0.107239	2.42883	0.0348557	16	0.016944	1.32861	
4	1	2	0.6	0.68866	1.48865	0.100891	2.2782	0.0318449	16	0.0138449	0.985352	
4	1	2	0.7	0.860474	1.41119	0.103882	2.37555	0.0340577	16	0.0147947	1.22467	
4	1	2	0.8	0.943787	1.36993	0.108521	2.42224	0.035048	16	0.0155918	1.0705	
4	1	2	0.9	0.925903	1.3125	0.108398	2.3468	0.035376	16	0.016236	1.27417	
4	1	2	1	1.00452	1.28229	0.117554	2.40436	0.0380797	16	0.0175838	1.04272	
4	2	2	0	0	7.68597	0.44989	8.13586	0.143877	16	0.0699399	3.96735	
4	2	2	0.1	0.688354	8.09662	0.553955	9.33893	0.172953	16	0.0989287	5.00317	
4	2	2	0.2	0.960999	7.56824	0.500244	9.02948	0.159187	16	0.0849716	4.80286	
4	2	2	0.3	1.06763	7.12158	0.477295	8.6665	0.15081	16	0.076638	4.52039	
4	2	2	0.4	1.31476	6.83569	0.460144	8.6106	0.146863	16	0.0727169	4.44281	
4	2	2	0.5	1.5553	6.36737	0.425354	8.34802	0.135498	16	0.0619305	3.92529	
4	2	2	0.6	1.81201	5.88147	0.388062	8.08154	0.125707	16	0.0515839	3.56885	
4	2	2	0.7	1.99701	5.49304	0.374512	7.86456	0.122044	16	0.0473115	3.19885	
4	2	2	0.8	2.29944	5.27332	0.380859	7.95361	0.124588	16	0.0498186	3.25519	
4	2	2	0.9	2.56116	5.05713	0.388794	8.00708	0.126251	16	0.0512687	3.30029	
4	2	2	1	2.80444	4.75073	0.393311	7.94849	0.127133	16	0.0520355	3.19794	
4	3	2	0	0	30.3674	2.12988	32.4973	0.570561	16	0.275805	15.0736	
4	3	2	0.1	2.84497	30.0308	2.17267	35.0484	0.584477	16	0.291855	17.6146	
4	3	2	0.2	4.57434	29.0643	2.26038	35.899	0.607403	16	0.315152	18.4802	
4	3	2	0.3	5.74628	27.7074	2.12817	35.5818	0.577854	16	0.286045	18.1722	
4	3	2	0.4	7.31281	26.8063	2.16663	36.2857	0.590992	16	0.298214	18.9679	
4	3	2	0.5	8.56036	25.7719	2.10834	36.4406	0.580365	16	0.287974	18.909	
4	3	2	0.6	9.21356	23.6387	1.99475	34.847	0.551396	16	0.25913	17.1004	
4	3	2	0.7	10.7496	22.0613	1.995	34.8058	0.554698	16	0.261881	16.9214	
4	3	2	0.8	11.3928	20.5099	1.97797	33.8807	0.555176	16	0.261466	16.1434	
4	3	2	0.9	11.8371	19.6206	2.00732	33.465	0.567472	16	0.274577	15.6592	
4	3	2	1	11.8531	18.0663	1.99774	31.9172	0.568902	16	0.265889	13.8229	
4	4	2	0	0	132.4	9.38336	141.783	2.40425	16	1.13735	66.2341	
4	4	2	0.1	11.4318	131.003	9.70874	152.144	2.51266	16	1.26003	76.7311	
4	4	2	0.2	18.4177	128.314	9.88037	156.612	2.56969	16	1.31656	80.9951	
4	4	2	0.3	25.0873	124.85	9.97876	159.916	2.60689	16	1.35219	84.2657	
4	4	2	0.4	31.6113	122.127	10.0821	163.82	2.64677	16	1.39389	88.2077	
4	4	2	0.5	38.0306	117.77	10.0974	165.898	2.65755	16	1.40367	89.9173	
4	4	2	0.6	44.8668	109.803	10.0716	164.741	2.67708	16	1.42362	88.585	
4	4	2	0.7	50.9816	117.197	11.5518	179.731	3.20209	16	1.94991	103.999	
4	4	2	0.8	58.6675	472.429	75.3377	606.434	21.5217	16	20.2671	530.823	
4	4	2	0.9	63.9024	917.119	167.271	1148.29	47.5835	16	46.3293	1073.27	
4	4	2	1	66.723	630.987	108.235	805.945	30.9301	16	29.6604	730.25	
4	0	2	0	0	0.493408	0.0358276	0.529236	0.0107474	14	0.00700035	0.333496	
4	0	2	0.1	0.183838	0.487854	0.0355835	0.707275	0.0110289	14	0.00722854	0.442322	
4	0	2	0.2	0.215271	0.465515	0.03479	0.715576	0.0100467	14	0.0062466	0.447327	
4	0	2	0.3	0.209229	0.462219	0.0355835	0.707031	0.0106052	14	0.00668126	0.370605	
4	0	2	0.4	0.199097	0.408325	0.0324097	0.639832	0.0100224	14	0.00611776	0.298035	
4	0	2	0.5	0.184082	0.342163	0.0245361	0.550781	0.00843224	14	0.00465872	0.20752	
4	0	2	0.6	0.193481	0.31134	0.026123	0.530945	0.00849144	14	0.004711	0.31842	
4	0	2	0.7	0.246826	0.322998	0.0284424	0.598267	0.00912929	14	0.005137	0.396484	
4	0	2	0.8	0.263489	0.328125	0.0324707	0.624084	0.00916002	14	0.00531203	0.298035	
4	0	2	0.9	0.258911	0.283081	0.027832	0.569824	0.00979515	14	0.00557019	0.309204	
4	0	2	1	0.293335	0.266846	0.031311	0.591492	0.00998187	14	0.00544833	0.281921	
4	1	2	0	0	2.14569	0.135498	2.28119	0.0428332	16	0.0246562	1.315	
4	1	2	0.1	0.478638	2.28241	0.149597	2.91064	0.0463058	16	0.028015	1.70953	
4	1	2	0.2	0.559509	2.11975	0.138977	2.81824	0.0435682	16	0.0251643	1.6795	
4	1	2	0.3	0.633484	1.97046	0.131714	2.73566	0.0411561	16	0.022826	1.48712	
4	1	2	0.4	0.662964	1.92969	0.12854	2.72119	0.0399823	16	0.0218024	1.34064	
4	1	2	0.5	0.660522	1.7113	0.110535	2.48236	0.0349174	16	0.0170643	1.10486	
4	1	2	0.6	0.694641	1.45459	0.0964355	2.24567	0.0315877	16	0.0136017	0.98291	
4	1	2	0.7	0.770264	1.40698	0.100159	2.2774	0.0319204	16	0.013918	1.05914	
4	1	2	0.8	0.918152	1.39532	0.107971	2.42145	0.0349996	16	0.0156426	1.05121	
4	1	2	0.9	0.954041	1.33099	0.11084	2.39587	0.036032	16	0.016444	1.04663	
4	1	2	1	0.990479	1.2868	0.121338	2.39862	0.038985	16	0.0181451	1.10992	
4	2	2	0	0	7.68475	0.449768	8.13452	0.143532	16	0.069756	3.89307	
4	2	2	0.1	0.678223	8.0752	0.534607	9.28802	0.168177	16	0.0938279	5.00085	
4	2	2	0.2	1.01709	7.4519	0.488159	8.95715	0.154449	16	0.0802767	4.77087	
4	2	2	0.3	1.15332	7.13336	0.47937	8.76605	0.152143	16	0.0782069	4.49683	
4	2	2	0.4	1.39331	7.25946	0.509949	9.16272	0.16114	16	0.0871496	4.99957	
4	2	2	0.5	1.69006	6.42377	0.432922	8.54675	0.137756	16	0.0635661	4.22552	
4	2	2	0.6	1.85675	5.90796	0.392395	8.1571	0.127166	16	0.052804	3.67383	
4	2	2	0.7	2.04987	5.53906	0.377136	7.96606	0.122935	16	0.0483903	3.06531	
4	2	2	0.8	2.28595	5.24182	0.380005	7.90778	0.12403	16	0.0492522	3.26312	
4	2	2	0.9	2.54651	5.05463	0.386841	7.98798	0.125111	16	0.050674	3.16187	
4	2	2	1	2.81824	4.77948	0.395569	7.99329	0.127029	16	0.0521395	3.27527	
4	3	2	0	0	30.2215	2.06281	32.2843	0.552637	16	0.257793	14.8362	
4	3	2	0.1	2.85706	29.8098	2.14044	34.8073	0.575719	16	0.284655	17.4686	
4	3	2	0.2	4.48334	28.4952	2.10736	35.0859	0.568778	16	0.276473	17.7729	
4	3	2	0.3	5.81122	27.5932	2.10669	35.5111	0.573251	16	0.281467	17.9992	
4	3	2	0.4	7.37421	26.6292	2.11066	36.114	0.578269	16	0.286248	18.7145	
4	3	2	0.5	8.45764	25.5179	2.07465	36.0502	0.5681	16	0.275469	18.5945	
4	3	2	0.6	9.36316	23.8097	2.00958	35.1824	0.553935	16	0.261728	17.3274	
4	3	2	0.7	10.7131	21.7512	1.97662	34.441	0.550593	16	0.257621	16.7122	
4	3	2	0.8	11.5709	20.3439	1.97198	33.8868	0.55343	16	0.259958	16.1786	
4	3	2	0.9	11.5709	19.7504	2.01721	33.3384	0.57052	16	0.277256	15.61	
4	3	2	1	11.9814	18.1915	2.00122	32.1741	0.568864	16	0.272851	14.4106	
4	4	2	0	0	132.59	9.37738	141.968	2.40297	16	1.13655	66.2131	
4	4	2	0.1	11.4028	131.128	9.71991	152.251	2.51524	16	1.26106	76.7301	
4	4	2	0.2	18.3053	128.126	9.85919	156.291	2.56164	16	1.30848	80.7176	
4	4	2	0.3	25.1113	124.593	9.94867	159.653	2.59757	16	1.34507	84.1437	
4	4	2	0.4	31.5115	125.617	10.4072	167.536	2.75493	16	1.49973	91.7031	
4	4	2	0.5	38.2462	118.757	10.2399	167.243	2.69925	16	1.4474	91.412	
4	4	2	0.6	44.5911	501.808	80.8218	627.221	22.9522	16	21.6975	551.236	
4	4	2	0.7	50.9353	988.813	173.286	1213.03	49.2814	16	48.0277	1137.66	
4	4	2	0.8	57.685	93.2	10.2357	161.121	2.77761	16	1.52193	85.5412	
4	4	2	0.9	63.9742	99.5118	11.6818	175.168	3.2616	16	2.00748	99.4106	
4	4	2	1	66.3492	976.621	169.524	1212.49	48.0455	16	46.7858	1137.14	
4	0	2	0	0	0.485413	0.0354614	0.520874	0.0109862	14	0.00717401	0.273621	
4	0	2	0.1	0.197083	0.504822	0.0349731	0.736877	0.0109334	14	0.00717017	0.38855	
4	0	2	0.2	0.211304	0.422363	0.0310059	0.664673	0.0103461	14	0.00650357	0.377197	
4	0	2	0.3	0.202087	0.430054	0.0316162	0.663757	0.0104309	14	0.00667559	0.388367	
4	0	2	0.4	0.206299	0.42749	0.0319214	0.66571	0.00958508	14	0.00589553	0.392456	
4	0	2	0.5	0.194336	0.371704	0.0280151	0.594055	0.00881264	14	0.00483055	0.380615	
4	0	2	0.6	0.212708	0.349487	0.0283203	0.590515	0.00875754	14	0.00494999	0.30249	
4	0	2	0.7	0.247375	0.321289	0.0281372	0.596802	0.00904296	14	0.00509886	0.325195	
4	0	2	0.8	0.264343	0.321777	0.0324097	0.61853	0.00961699	14	0.00549667	0.364441	
4	0	2	0.9	0.257263	0.324951	0.0321045	0.614319	0.00943137	14	0.0054739	0.267273	
4	0	2	1	0.297668	0.274658	0.0315552	0.603882	0.00995371	14	0.00531874	0.348389	
4	1	2	0	0	2.0929	0.128296	2.22119	0.0416659	16	0.0234931	1.35828	
4	1	2	0.1	0.515808	2.30463	0.151001	2.97144	0.0454717	16	0.0272651	1.95831	
4	1	2	0.2	0.555664	2.19806	0.143738	2.89746	0.0443881	16	0.0257455	1.88977	
4	1	2	0.3	0.573853	2.04535	0.135986	2.75519	0.0421737	16	0.0240255	1.48114	
4	1	2	0.4	0.665222	1.98572	0.136169	2.78711	0.0409734	16	0.0224295	1.54095	
4	1	2	0.5	0.684448	1.72925	0.114563	2.52826	0.035256	16	0.0171063	1.33246	
4	1	2	0.6	0.698303	1.53894	0.103455	2.3407	0.0329572	16	0.0151918	1.10187	
4	1	2	0.7	0.779663	1.40112	0.0994873	2.28027	0.0324206	16	0.0140779	1.07935	
4	1	2	0.8	0.943359	1.3631	0.111267	2.41772	0.0357088	16	0.0162164	1.19788	
4	1	2	0.9	0.913208	1.26093	0.1026	2.27673	0.033417	16	0.0152063	1.15686	
4	1	2	1	1.0116	1.26123	0.117554	2.39038	0.0383996	16	0.0179857	1.07172	
4	2	2	0	0	7.73352	0.453918	8.18744	0.144345	16	0.0701455	3.88947	
4	2	2	0.1	0.695801	7.98907	0.516418	9.20129	0.162696	16	0.0885423	4.85223	
4	2	2	0.2	1.03741	7.42017	0.500549	8.95813	0.158665	16	0.0842867	4.7937	
4	2	2	0.3	1.09686	7.18909	0.482239	8.76819	0.153493	16	0.0780194	4.62183	
4	2	2	0.4	1.34363	6.84399	0.46051	8.64813	0.146596	16	0.0723375	4.52972	
4	2	2	0.5	1.58716	6.34686	0.427917	8.36194	0.137229	16	0.0633572	4.17957	
4	2	2	0.6	1.79065	5.84515	0.387817	8.02362	0.125113	16	0.0512491	3.44995	
4	2	2	0.7	2.05847	5.50977	0.375	7.94324	0.122588	16	0.0479128	3.23718	
4	2	2	0.8	2.31396	5.28302	0.381897	7.97888	0.125043	16	0.0498838	3.422	
4	2	2	0.9	2.52319	5.00446	0.382935	7.91058	0.124944	16	0.0499819	3.04053	
4	2	2	1	2.71851	4.7337	0.387573	7.83978	0.126333	16	0.0511673	3.15283	
4	3	2	0	0	30.0848	2.05658	32.1414	0.550012	16	0.255293	14.7015	
4	3	2	0.1	2.78668	30.1019	2.17529	35.0639	0.584767	16	0.292712	17.6096	
4	3	2	0.2	4.46643	28.683	2.15173	35.3012	0.57968	16	0.28758	17.9308	
4	3	2	0.3	5.94781	27.8395	2.16095	35.9483	0.586564	16	0.293877	18.5507	
4	3	2	0.4	7.13977	26.6562	2.10803	35.9041	0.574077	16	0.281249	18.5322	
4	3	2	0.5	8.44879	25.447	2.07794	35.9737	0.570636	16	0.278448	18.3182	
4	3	2	0.6	9.31897	23.9269	2.0174	35.2633	0.557762	16	0.264476	17.4084	
4	3	2	0.7	10.7158	21.7963	1.98029	34.4924	0.550528	16	0.258104	16.7213	
4	3	2	0.8	11.4112	20.2901	1.96722	33.6685	0.552325	16	0.258703	16.0237	
4	3	2	0.9	11.7242	19.2085	1.98389	32.9166	0.559699	16	0.265678	15.0687	
4	3	2	1	12.0453	17.8069	1.98041	31.8326	0.560519	16	0.267202	14.0626	
4	4	2	0	0	132.587	9.39105	141.978	2.40305	16	1.13595	66.1616	
4	4	2	0.1	11.198	130.81	9.66577	151.674	2.49999	16	1.24767	76.2137	
4	4	2	0.2	18.3011	130.171	10.1328	158.605	2.64172	16	1.38897	83.055	
4	4	2	0.3	24.9982	125.233	9.97723	160.209	2.60509	16	1.35235	84.6166	
4	4	2	0.4	31.9135	121.022	10.0513	162.987	2.64314	16	1.39056	87.4532	
4	4	2	0.5	38.6548	161.715	17.5477	217.917	4.82137	16	3.56836	142.293	
4	4	2	0.6	44.4352	384.137	59.5974	488.169	16.8762	16	15.6218	412.031	
4	4	2	0.7	51.1868	119.945	11.799	182.931	3.28556	16	2.03217	107.185	
4	4	2	0.8	58.1893	424.334	71.2382	553.761	20.1399	16	18.8858	477.979	
4	4	2	0.9	63.3053	778.011	130.301	971.617	37.3314	16	36.0778	896.287	
4	4	2	1	66.9095	1442.67	258.201	1767.78	72.1656	16	70.9087	1692.46	
4	0	2	0	0	0.450073	0.0321045	0.482178	0.0106664	14	0.00692303	0.238464	
4	0	2	0.1	0.17926	0.496033	0.0355835	0.710876	0.0112079	14	0.00733656	0.511475	
4	0	2	0.2	0.181152	0.458191	0.0314331	0.670776	0.00981078	14	0.00599973	0.461548	
4	0	2	0.3	0.203857	0.422241	0.0319214	0.65802	0.0105185	14	0.00671476	0.383179	
4	0	2	0.4	0.194336	0.428955	0.0324097	0.655701	0.00923929	14	0.00546388	0.377747	
4	0	2	0.5	0.186462	0.343933	0.0247803	0.555176	0.0084269	14	0.00464288	0.187927	
4	0	2	0.6	0.225525	0.346741	0.0279541	0.60022	0.00903406	14	0.00502237	0.246216	
4	0	2	0.7	0.242859	0.32196	0.0280151	0.592834	0.00907813	14	0.00509976	0.314392	
4	0	2	0.8	0.255615	0.29303	0.0281372	0.576782	0.00931779	14	0.00511132	0.303284	
4	0	2	0.9	0.285522	0.314087	0.0311279	0.630737	0.00978166	14	0.00566853	0.43103	
4	0	2	1	0.342834	0.302795	0.0372314	0.682861	0.01129	14	0.0056194	0.365662	
4	1	2	0	0	2.14301	0.13269	2.2757	0.0414521	16	0.0235121	1.39386	
4	1	2	0.1	0.52124	2.32397	0.153503	2.99872	0.0476273	16	0.0290869	1.88605	
4	1	2	0.2	0.576111	2.19598	0.143799	2.91589	0.0436484	16	0.0251921	1.68011	
4	1	2	0.3	0.636719	2.51331	0.191528	3.34155	0.0564593	16	0.0378114	2.32104	
4	1	2	0.4	0.638672	1.86597	0.124084	2.62872	0.039624	16	0.0211751	1.41113	
4	1	2	0.5	0.65387	1.72528	0.110596	2.48975	0.0348887	16	0.0170236	1.25458	
4	1	2	0.6	0.7146	1.61456	0.11499	2.44415	0.0355452	16	0.0173942	1.22308	
4	1	2	0.7	0.84613	1.46222	0.105225	2.41357	0.0335538	16	0.0145127	1.33954	
4	1	2	0.8	0.910339	1.33618	0.105225	2.35175	0.0342736	16	0.0155342	1.1889	
4	1	2	0.9	0.963257	1.39032	0.117188	2.47076	0.0375297	16	0.0173141	1.15289	
4	1	2	1	0.996155	1.2478	0.115173	2.35913	0.0383618	16	0.0177399	1.06647	
4	2	2	0	0	7.75635	0.455017	8.21136	0.145607	16	0.0710244	3.92218	
4	2	2	0.1	0.770508	7.85535	0.562073	9.18793	0.159054	16	0.0850859	5.06024	
4	2	2	0.2	0.932373	7.71906	0.53302	9.18445	0.167999	16	0.0939129	4.94739	
4	2	2	0.3	1.09644	7.13879	0.473633	8.70886	0.151028	16	0.0765518	4.56085	
4	2	2	0.4	1.32098	6.8418	0.462341	8.62512	0.146663	16	0.0728949	4.46521	
4	2	2	0.5	1.60547	6.36969	0.427917	8.40308	0.137286	16	0.0629171	4.04962	
4	2	2	0.6	1.85968	5.84979	0.384766	8.09424	0.125223	16	0.0510027	3.58252	
4	2	2	0.7	2.02649	5.49384	0.377502	7.89783	0.122643	16	0.0481079	3.21527	
4	2	2	0.8	2.31335	5.2655	0.385254	7.96411	0.124854	16	0.0498373	3.26508	
4	2	2	0.9	2.58704	5.10095	0.393738	8.08173	0.126994	16	0.0518902	3.2204	
4	2	2	1	2.80945	4.77478	0.393677	7.97791	0.127139	16	0.0522777	3.21832	
4	3	2	0	0	30.2291	2.07117	32.3003	0.553766	16	0.258322	14.8828	
4	3	2	0.1	2.8855	29.9632	2.159	35.0077	0.581849	16	0.289708	17.7175	
4	3	2	0.2	4.53735	29.591	2.33624	36.4646	0.628786	16	0.336264	19.1275	
4	3	2	0.3	5.80255	27.6539	2.10468	35.5612	0.569769	16	0.277374	18.123	
4	3	2	0.4	7.0174	26.4133	2.05902	35.4897	0.563583	16	0.271457	18.151	
4	3	2	0.5	8.56274	25.5544	2.0741	36.1912	0.570319	16	0.277876	18.5692	
4	3	2	0.6	9.45563	23.7464	2.02509	35.2271	0.55825	16	0.266127	17.5385	
4	3	2	0.7	10.8794	21.7504	1.98053	34.6103	0.551997	16	0.259587	16.84	
4	3	2	0.8	11.447	20.2888	1.96729	33.7031	0.55066	16	0.256368	15.9668	
4	3	2	0.9	11.6905	19.8206	2.03809	33.5492	0.575622	16	0.281589	15.7275	
4	3	2	1	11.9989	18.106	1.99841	32.1033	0.569688	16	0.272414	14.2558	
4	4	2	0	0	132.486	9.39313	141.879	2.40556	16	1.13858	66.1885	
4	4	2	0.1	11.4271	131.023	9.7265	152.177	2.52121	16	1.26637	76.8558	
4	4	2	0.2	18.3432	128.34	9.85675	156.54	2.56279	16	1.30941	80.9427	
4	4	2	0.3	24.7624	125.062	9.94434	159.768	2.59307	16	1.33955	84.0362	
4	4	2	0.4	31.4251	121.456	10.0921	162.973	2.64459	16	1.39087	87.2628	
4	4	2	0.5	38.1327	142.656	13.3604	194.149	3.65006	16	2.39707	118.414	
4	4	2	0.6	44.6973	108.797	10.0049	163.499	2.65153	16	1.39907	87.3998	
4	4	2	0.7	51.4792	100.753	10.1555	162.387	2.72229	16	1.46784	86.5981	
4	4	2	0.8	58.5529	343.395	53.7203	455.668	15.3669	16	14.1117	379.777	
4	4	2	0.9	63.1608	873.769	149.824	1086.75	42.8986	16	41.6452	1011.3	
4	4	2	1	66.283	1399.08	244.769	1710.14	70.0896	16	68.8355	1634.65	
4	0	2	0	0	0.490417	0.0353394	0.525757	0.0106912	14	0.00690945	0.28949	
4	0	2	0.1	0.207458	0.491882	0.0343628	0.733704	0.0105497	14	0.00679315	0.455078	
4	0	2	0.2	0.211853	0.4422	0.0308838	0.684937	0.0100343	14	0.0061566	0.394836	
4	0	2	0.3	0.200928	0.424011	0.0319214	0.65686	0.0103074	14	0.00650788	0.452698	
4	0	2	0.4	0.188538	0.396484	0.0288086	0.613831	0.00950739	14	0.0056527	0.336975	
4	0	2	0.5	0.201233	0.38385	0.0282593	0.613342	0.00843537	14	0.00460423	0.392151	
4	0	2	0.6	0.222839	0.347229	0.027832	0.5979	0.00875949	14	0.00497644	0.389526	
4	0	2	0.7	0.241333	0.317322	0.0281982	0.586853	0.00868257	14	0.00483842	0.307129	
4	0	2	0.8	0.256836	0.299927	0.0284424	0.585205	0.00935658	14	0.00535158	0.245544	
4	0	2	0.9	0.262146	0.334106	0.0320435	0.628296	0.0090513	14	0.00515912	0.322449	
4	0	2	1	0.340332	0.267517	0.0333862	0.641235	0.0112646	14	0.00594613	0.46228	
4	1	2	0	0	2.09662	0.128723	2.22534	0.0416282	16	0.0235256	1.17798	
4	1	2	0.1	0.474915	2.3927	0.162781	3.0304	0.0482489	16	0.0301291	2.05951	
4	1	2	0.2	0.551941	2.13928	0.140869	2.83209	0.0436505	16	0.0255188	1.61865	
4	1	2	0.3	0.631714	2.04352	0.137268	2.8125	0.0415265	16	0.0232134	1.63477	
4	1	2	0.4	0.688721	1.91534	0.131165	2.73523	0.0411529	16	0.0226148	1.61517	
4	1	2	0.5	0.685059	1.67334	0.110352	2.46875	0.0353709	16	0.0175625	1.18964	
4	1	2	0.6	0.713379	1.48883	0.0997925	2.302	0.0324555	16	0.0143805	1.07416	
4	1	2	0.7	0.80365	1.41309	0.102234	2.31897	0.0326268	16	0.0140088	1.16846	
4	1	2	0.8	0.952087	1.38818	0.110657	2.45093	0.0361132	16	0.0158505	1.13843	
4	1	2	0.9	0.942383	1.28674	0.10553	2.33466	0.0343203	16	0.015908	1.18799	
4	1	2	1	1.00458	1.30487	0.0883789	2.39783	0.0371554	16	0.0172941	1.15161	
4	2	2	0	0	7.71234	0.449707	8.16205	0.144179	16	0.0700626	3.92487	
4	2	2	0.1	0.752441	8.16376	0.548279	9.46448	0.171243	16	0.0970841	5.22363	
4	2	2	0.2	0.941284	7.46826	0.491943	8.90149	0.154934	16	0.0811933	4.73468	
4	2	2	0.3	1.16718	7.11603	0.472046	8.75525	0.149784	16	0.0754812	4.58667	
4	2	2	0.4	1.3808	6.82983	0.459473	8.6701	0.146146	16	0.0720823	4.39716	
4	2	2	0.5	1.61084	6.41827	0.434875	8.46399	0.138483	16	0.0641546	4.16718	
4	2	2	0.6	1.83179	5.91986	0.387329	8.13898	0.125688	16	0.0516089	3.48553	
4	2	2	0.7	1.97552	5.57532	0.37738	7.92822	0.122728	16	0.0481119	3.09766	
4	2	2	0.8	2.29382	5.2876	0.381775	7.9632	0.124964	16	0.0498833	3.23816	
4	2	2	0.9	2.50903	5.05731	0.386169	7.95251	0.124563	16	0.049794	3.17548	
4	2	2	1	2.76703	4.75153	0.396057	7.91461	0.127582	16	0.0525862	3.15564	
4	3	2	0	0	30.1402	2.05994	32.2001	0.55052	16	0.255773	14.8228	
4	3	2	0.1	2.82184	30.2101	2.25507	35.287	0.607011	16	0.314408	17.97	
4	3	2	0.2	4.55255	29.7943	2.26691	36.6137	0.613201	16	0.321542	19.2516	
4	3	2	0.3	5.82764	27.5633	2.10706	35.498	0.571417	16	0.279704	18.1576	
4	3	2	0.4	7.09796	26.3616	2.0636	35.5232	0.563974	16	0.271287	18.0374	
4	3	2	0.5	8.487	25.4982	2.078	36.0632	0.570245	16	0.278143	18.583	
4	3	2	0.6	9.10315	23.9251	2.02765	35.0559	0.558524	16	0.266504	17.2528	
4	3	2	0.7	10.6022	21.9449	1.98694	34.534	0.551171	16	0.258523	16.692	
4	3	2	0.8	11.4142	20.4064	1.9801	33.8007	0.553464	16	0.260713	16.0466	
4	3	2	0.9	11.5499	19.1842	1.96698	32.7011	0.557121	16	0.263326	14.9531	
4	3	2	1	11.7642	17.8342	1.97174	31.5701	0.559923	16	0.263367	13.7267	
4	4	2	0	0	132.395	9.383	141.778	2.40591	16	1.13882	66.1569	
4	4	2	0.1	11.3541	130.858	9.79065	152.003	2.53227	16	1.27932	76.7685	
4	4	2	0.2	18.1754	128.283	9.8446	156.303	2.55624	16	1.30353	80.7251	
4	4	2	0.3	24.9779	124.773	9.93665	159.687	2.59393	16	1.34085	84.1441	
4	4	2	0.4	31.6854	121.724	10.0539	163.463	2.64257	16	1.38603	87.8877	
4	4	2	0.5	37.9516	118.787	10.2065	166.945	2.68788	16	1.43324	91.0083	
4	4	2	0.6	44.5161	109.399	10.028	163.944	2.66309	16	1.40779	87.6185	
4	4	2	0.7	51.1891	102.485	10.2692	163.944	2.76058	16	1.5063	87.8966	
4	4	2	0.8	58.3527	379.861	61.9752	500.189	17.5971	16	16.3427	424.553	
4	4	2	0.9	63.0325	739.14	133.146	935.318	37.7017	16	36.4469	860.06	
4	4	2	1	66.2339	2387.19	430.872	2884.29	123.357	16	122.098	2809.07	
4	0	2	0	0	0.482849	0.0349731	0.517822	0.0108946	14	0.0071348	0.330078	
4	0	2	0.1	0.202454	0.484436	0.034729	0.721619	0.0112617	14	0.00742809	0.514587	
4	0	2	0.2	0.194092	0.482056	0.0354004	0.711548	0.0105463	14	0.00683866	0.373413	
4	0	2	0.3	0.211426	0.4599	0.0358276	0.707153	0.0106671	14	0.00693189	0.374878	
4	0	2	0.4	0.19165	0.438538	0.0323486	0.662537	0.00934558	14	0.0056256	0.381836	
4	0	2	0.5	0.201111	0.374512	0.0284424	0.604065	0.00902362	14	0.00509024	0.46283	
4	0	2	0.6	0.226074	0.358093	0.0279541	0.612122	0.00886205	14	0.00492225	0.332092	
4	0	2	0.7	0.233887	0.310913	0.0285645	0.573364	0.00908021	14	0.00498497	0.37085	
4	0	2	0.8	0.258606	0.282043	0.0274048	0.568054	0.00970655	14	0.00529273	0.365295	
4	0	2	0.9	0.279114	0.320435	0.0313721	0.63092	0.00963525	14	0.00553005	0.303711	
4	0	2	1	0.328613	0.275879	0.0345459	0.639038	0.0104648	14	0.00557657	0.342529	
4	1	2	0	0	2.15723	0.133728	2.29095	0.0412164	16	0.0232183	1.39972	
4	1	2	0.1	0.458984	2.3551	0.154114	2.9682	0.0471772	16	0.0287477	1.90253	
4	1	2	0.2	0.525574	2.17554	0.139099	2.84021	0.0428205	16	0.0246166	1.74329	
4	1	2	0.3	0.623413	1.96777	0.131714	2.7229	0.0413755	16	0.0231128	1.60333	
4	1	2	0.4	0.662903	1.9502	0.133179	2.74628	0.0402212	16	0.0219138	1.67914	
4	1	2	0.5	0.667786	1.69244	0.111206	2.47144	0.0347434	16	0.01676	1.22717	
4	1	2	0.6	0.694275	1.47668	0.0961914	2.26715	0.0311531	16	0.0134927	0.90332	
4	1	2	0.7	0.764709	1.40765	0.0996094	2.27197	0.0318084	16	0.0137274	1.00775	
4	1	2	0.8	0.870544	1.42438	0.110962	2.40588	0.0342085	16	0.0154692	0.872131	
4	1	2	0.9	0.93219	1.34888	0.110291	2.39136	0.0362689	16	0.0163414	1.14203	
4	1	2	1	0.999695	1.33179	0.124878	2.45636	0.0390537	16	0.018272	1.20459	
4	2	2	0	0	7.75952	0.456421	8.21594	0.145147	16	0.0709941	3.89404	
4	2	2	0.1	0.712769	8.17053	0.540527	9.42383	0.168696	16	0.094948	5.10211	
4	2	2	0.2	0.946899	7.61804	0.513367	9.07831	0.163283	16	0.0892341	4.93134	
4	2	2	0.3	1.10254	7.10663	0.47113	8.6803	0.151518	16	0.0775087	4.41577	
4	2	2	0.4	1.28711	6.72577	0.449707	8.46259	0.143744	16	0.0698863	4.36676	
4	2	2	0.5	1.69049	6.38721	0.432312	8.51001	0.137697	16	0.0634477	4.09454	
4	2	2	0.6	1.78668	5.83002	0.383606	8.00031	0.125263	16	0.0512086	3.31201	
4	2	2	0.7	2.03595	5.4942	0.373596	7.90375	0.12185	16	0.047188	3.14014	
4	2	2	0.8	2.30664	5.27496	0.382935	7.96454	0.124928	16	0.0502942	3.27563	
4	2	2	0.9	2.56134	5.0719	0.389832	8.02307	0.125525	16	0.0506404	3.18958	
4	2	2	1	2.7724	4.69305	0.394836	7.86029	0.127902	16	0.0526308	3.20538	
4	3	2	0	0	30.1512	2.05737	32.2086	0.551792	16	0.256745	14.7902	
4	3	2	0.1	2.77521	30.0405	2.26044	35.0761	0.607469	16	0.315524	17.8601	
4	3	2	0.2	4.49878	28.744	2.18134	35.4241	0.588823	16	0.296763	18.1916	
4	3	2	0.3	5.771	27.9391	2.16058	35.8707	0.586822	16	0.295524	18.4617	
4	3	2	0.4	7.32623	27.0545	2.18549	36.5662	0.597992	16	0.306215	19.3017	
4	3	2	0.5	8.6156	25.5441	2.11096	36.2706	0.579801	16	0.287508	18.8847	
4	3	2	0.6	9.48053	23.7657	2.03693	35.2831	0.561987	16	0.269347	17.6246	
4	3	2	0.7	10.7618	21.9046	1.99481	34.6612	0.554562	16	0.261447	16.8373	
4	3	2	0.8	11.4149	20.3663	1.98175	33.7629	0.556227	16	0.263074	16.0812	
4	3	2	0.9	11.6212	18.9645	1.96161	32.5473	0.555198	16	0.261642	14.7448	
4	3	2	1	11.9351	18.8471	2.08301	32.8652	0.589703	16	0.286852	14.9796	
4	4	2	0	0	132.27	9.38086	141.651	2.40318	16	1.13652	66.0727	
4	4	2	0.1	11.4514	130.857	9.6756	151.984	2.50653	16	1.25007	76.4522	
4	4	2	0.2	18.5236	127.952	9.87201	156.347	2.56811	16	1.31481	81.0943	
4	4	2	0.3	24.9252	125.025	9.96344	159.914	2.60088	16	1.34583	84.1613	
4	4	2	0.4	31.4309	121.312	10.0179	162.761	2.63026	16	1.3771	87.2698	
4	4	2	0.5	37.9308	118.34	10.1835	166.454	2.68205	16	1.42848	90.5411	
4	4	2	0.6	44.5786	109.131	10.067	163.776	2.67142	16	1.4179	87.4723	
4	4	2	0.7	51.218	631.751	107.719	790.688	30.3638	16	29.1071	714.75	
4	4	2	0.8	57.916	94.0281	10.3018	162.246	2.79253	16	1.53931	86.4845	
4	4	2	0.9	63.7905	833.994	144.268	1042.05	41.1908	16	39.9383	966.739	
4	4	2	1	66.9125	81.8012	10.743	159.457	2.95568	16	1.70175	83.8162	
4	0	2	0	0	0.479187	0.0357666	0.514954	0.0110302	14	0.00727865	0.416443	
4	0	2	0.1	0.187378	0.461914	0.031189	0.680481	0.0105558	14	0.00683106	0.397217	
4	0	2	0.2	0.212585	0.46582	0.0350952	0.713501	0.0101346	14	0.00638889	0.399292	
4	0	2	0.3	0.204834	0.461426	0.0361328	0.702393	0.0104262	14	0.00668082	0.439636	
4	0	2	0.4	0.203613	0.415771	0.0316772	0.651062	0.00978633	14	0.00589319	0.444641	
4	0	2	0.5	0.199097	0.369507	0.0284424	0.597046	0.00858645	14	0.00472823	0.381165	
4	0	2	0.6	0.212097	0.354126	0.0288696	0.595093	0.00878165	14	0.00490847	0.389893	
4	0	2	0.7	0.231812	0.339355	0.0284424	0.599609	0.00856671	14	0.00481922	0.320435	
4	0	2	0.8	0.256592	0.304993	0.0286255	0.59021	0.00917504	14	0.00525321	0.382141	
4	0	2	0.9	0.268127	0.323608	0.0321045	0.62384	0.00941891	14	0.00546565	0.368164	
4	0	2	1	0.326599	0.286804	0.0343628	0.647766	0.0104428	14	0.00568847	0.404419	
4	1	2	0	0	2.10181	0.129272	2.23108	0.0412053	16	0.0233291	1.35339	
4	1	2	0.1	0.549561	2.5249	0.173157	3.24762	0.0516521	16	0.0333108	1.91589	
4	1	2	0.2	0.54541	2.15527	0.142395	2.84308	0.0440977	16	0.0257853	1.71576	
4	1	2	0.3	0.626282	2.12482	0.142883	2.89398	0.0437492	16	0.0250959	1.72736	
4	1	2	0.4	0.593567	1.88837	0.126038	2.60797	0.0387438	16	0.020721	1.43823	
4	1	2	0.5	0.683899	1.71082	0.114685	2.5094	0.0358822	16	0.0177198	1.27118	
4	1	2	0.6	0.67926	1.4729	0.0957642	2.24792	0.0313344	16	0.0132929	1.07141	
4	1	2	0.7	0.788818	1.43042	0.103149	2.32239	0.0326928	16	0.0144249	1.03943	
4	1	2	0.8	0.896179	1.31403	0.102539	2.31274	0.0331644	16	0.0147016	1.21094	
4	1	2	0.9	0.975708	1.3421	0.113464	2.43127	0.0372925	16	0.0174471	1.09607	
4	1	2	1	0.987366	1.26117	0.116577	2.36511	0.0377399	16	0.0172696	1.13098	
4	2	2	0	0	7.72034	0.44989	8.17023	0.14395	16	0.0699363	3.97266	
4	2	2	0.1	0.677612	8.07397	0.532776	9.28436	0.167971	16	0.0938849	5.00665	
4	2	2	0.2	0.93335	7.5415	0.513489	8.98834	0.161789	16	0.0871699	4.70282	
4	2	2	0.3	1.12238	7.12421	0.474609	8.72119	0.151546	16	0.076912	4.34747	
4	2	2	0.4	1.35211	6.72986	0.448914	8.53088	0.142905	16	0.069144	4.43835	
4	2	2	0.5	1.6983	6.38489	0.429443	8.51263	0.137965	16	0.0635538	4.21783	
4	2	2	0.6	1.78027	5.86432	0.385742	8.03033	0.125387	16	0.0515415	3.47913	
4	2	2	0.7	1.99457	5.5235	0.377075	7.89514	0.122638	16	0.0481767	3.05048	
4	2	2	0.8	2.28339	5.25214	0.381042	7.91656	0.123648	16	0.0489566	3.23358	
4	2	2	0.9	2.56012	5.02527	0.383728	7.96912	0.125223	16	0.0505668	3.25409	
4	2	2	1	2.77332	4.72406	0.396301	7.89368	0.127667	16	0.0527458	3.16547	
4	3	2	0	0.00689697	30.1261	2.08331	32.2163	0.559338	16	0.264722	14.801	
4	3	2	0.1	2.84851	30.2714	2.23419	35.3541	0.60217	16	0.310144	18.03	
4	3	2	0.2	4.49805	29.1622	2.20062	35.8608	0.594977	16	0.295734	18.1739	
4	3	2	0.3	5.84167	27.4915	2.09644	35.4296	0.57135	16	0.279321	18.1331	
4	3	2	0.4	7.12366	26.6529	2.0968	35.8734	0.573016	16	0.28097	18.5109	
4	3	2	0.5	8.63611	25.4447	2.10297	36.1838	0.577871	16	0.284311	18.6423	
4	3	2	0.6	9.52167	25.3322	2.23987	37.0938	0.62245	16	0.329994	19.4231	
4	3	2	0.7	10.7747	22.0157	1.99689	34.7874	0.555723	16	0.262638	16.9704	
4	3	2	0.8	11.5243	20.2072	1.96667	33.6981	0.551506	16	0.258247	15.9758	
4	3	2	0.9	11.7673	19.712	2.02692	33.5062	0.571534	16	0.278126	15.7305	
4	3	2	1	11.9541	18.0671	2.02545	32.0466	0.574366	16	0.268677	13.9409	
4	4	2	0	0	132.295	9.3797	141.675	2.40149	16	1.13457	66.0186	
4	4	2	0.1	11.3616	131.294	9.71246	152.368	2.51424	16	1.26019	76.7668	
4	4	2	0.2	18.3492	128.223	9.86169	156.434	2.56273	16	1.30926	80.8878	
4	4	2	0.3	24.9877	125.122	9.95667	160.066	2.59922	16	1.34669	84.4171	
4	4	2	0.4	31.4713	123.361	10.171	165.004	2.67934	16	1.42517	89.3254	
4	4	2	0.5	37.9839	118.755	10.2034	166.943	2.69085	16	1.43664	91.2441	
4	4	2	0.6	44.4799	121.763	11.215	177.458	3.05624	16	1.80266	101.41	
4	4	2	0.7	51.4541	102.311	10.2061	163.971	2.74742	16	1.49024	88.2225	
4	4	2	0.8	58.2677	901.172	152.838	1112.28	43.1075	16	41.8537	1036.47	
4	4	2	0.9	63.6692	86.3881	10.3935	160.451	2.83726	16	1.5831	84.9092	
4	4	2	1	66.7457	762.691	131.196	960.633	35.5283	16	34.2713	885.167	
4	0	2	0	0	0.483154	0.0351562	0.518311	0.0109427	14	0.00719783	0.38092	
4	0	2	0.1	0.19989	0.495605	0.034729	0.730225	0.0108463	14	0.00712823	0.522583	
4	0	2	0.2	0.191833	0.437378	0.0317993	0.661011	0.0104204	14	0.00664907	0.384644	
4	0	2	0.3	0.203186	0.467529	0.0360718	0.706787	0.0104846	14	0.00674549	0.444946	
4	0	2	0.4	0.197876	0.416809	0.0321045	0.64679	0.00967835	14	0.00582444	0.374268	
4	0	2	0.5	0.192932	0.377258	0.0286255	0.598816	0.00877619	14	0.00488008	0.383362	
4	0	2	0.6	0.219849	0.355713	0.0286865	0.604248	0.00869017	14	0.00495544	0.315369	
4	0	2	0.7	0.233215	0.310791	0.0281982	0.572205	0.00933644	14	0.00536146	0.225098	
4	0	2	0.8	0.261719	0.296021	0.0275269	0.585266	0.00924544	14	0.00508492	0.316833	
4	0	2	0.9	0.266602	0.279785	0.02771	0.574097	0.00961766	14	0.00561541	0.247498	
4	0	2	1	0.309875	0.270142	0.0308838	0.610901	0.00998109	14	0.00529427	0.253235	
4	1	2	0	0	2.14392	0.132019	2.27594	0.0415006	16	0.0234051	1.35303	
4	1	2	0.1	0.489868	2.36084	0.158447	3.00916	0.047886	16	0.029573	1.77649	
4	1	2	0.2	0.55542	2.12299	0.135376	2.81378	0.0417104	16	0.0234703	1.7655	
4	1	2	0.3	0.62323	2.06244	0.138489	2.82416	0.0425882	16	0.0240605	1.60474	
4	1	2	0.4	0.631531	1.90375	0.12915	2.66443	0.0405575	16	0.0220884	1.44586	
4	1	2	0.5	0.698425	1.71991	0.117004	2.53534	0.0372849	16	0.0188456	1.33862	
4	1	2	0.6	0.674072	1.47223	0.0969238	2.24323	0.0312135	16	0.0133915	0.982361	
4	1	2	0.7	0.769836	1.45148	0.103394	2.32471	0.0327383	16	0.0144451	0.986023	
4	1	2	0.8	0.806458	1.33673	0.100403	2.24359	0.0323753	16	0.0142818	0.963928	
4	1	2	0.9	0.968506	1.30988	0.109375	2.38776	0.0350663	16	0.0161851	1.30652	
4	1	2	1	0.975586	1.29181	0.117249	2.38464	0.0376093	16	0.0169802	1.14062	
4	2	2	0	0	7.79407	0.471008	8.26508	0.149546	16	0.0748309	4.01007	
4	2	2	0.1	0.698547	8.04791	0.530518	9.27698	0.166353	16	0.0922625	5.07867	
4	2	2	0.2	0.981018	7.77734	0.530945	9.28931	0.167501	16	0.0932757	5.11841	
4	2	2	0.3	1.12543	7.22992	0.477234	8.83258	0.151095	16	0.0771983	4.54083	
4	2	2	0.4	1.33032	6.77954	0.457458	8.56732	0.145814	16	0.0716121	4.45087	
4	2	2	0.5	1.59509	6.42639	0.429993	8.45148	0.137452	16	0.0630247	4.12439	
4	2	2	0.6	1.92365	5.87299	0.397644	8.19427	0.127341	16	0.0529616	3.59601	
4	2	2	0.7	2.0564	5.51904	0.375549	7.95099	0.122493	16	0.0478924	3.10645	
4	2	2	0.8	2.29291	5.24023	0.38031	7.91345	0.12357	16	0.0491577	3.19879	
4	2	2	0.9	2.52704	5.06183	0.387146	7.97601	0.124899	16	0.0501139	3.31531	
4	2	2	1	2.79626	4.75732	0.397644	7.95123	0.127833	16	0.0527511	3.22504	
4	3	2	0	0	30.1812	2.06409	32.2452	0.552666	16	0.258265	14.8499	
4	3	2	0.1	2.82477	30.0398	2.18152	35.0461	0.586998	16	0.294039	17.7066	
4	3	2	0.2	4.49835	28.7193	2.16345	35.3811	0.583282	16	0.291453	18.1028	
4	3	2	0.3	5.77991	27.5885	2.09058	35.459	0.565898	16	0.27395	18.0574	
4	3	2	0.4	7.30316	26.5693	2.09009	35.9625	0.572183	16	0.27975	18.5502	
4	3	2	0.5	8.55505	25.8807	2.12457	36.5604	0.580592	16	0.288434	19.0345	
4	3	2	0.6	9.47614	23.7307	2.01788	35.2247	0.555474	16	0.263108	17.386	
4	3	2	0.7	10.8643	21.7886	1.98596	34.6389	0.55245	16	0.259573	16.8272	
4	3	2	0.8	11.4756	20.4503	1.97595	33.9019	0.553935	16	0.260467	16.084	
4	3	2	0.9	11.5759	19.0797	1.96167	32.6173	0.55374	16	0.259861	14.808	
4	3	2	1	11.9475	17.8447	1.97815	31.7704	0.559785	16	0.264448	13.9529	
4	4	2	0	0	132.395	9.39355	141.788	2.4086	16	1.14218	66.2866	
4	4	2	0.1	11.4897	130.73	9.69757	151.917	2.51268	16	1.25902	76.4574	
4	4	2	0.2	18.3918	128.183	9.89087	156.466	2.57609	16	1.32254	81.0081	
4	4	2	0.3	25.0153	124.647	9.96289	159.625	2.60231	16	1.34939	84.0825	
4	4	2	0.4	31.4008	122.124	10.1071	163.632	2.65051	16	1.39596	87.8655	
4	4	2	0.5	38.386	118.421	10.1871	166.994	2.68762	16	1.43407	91.3381	
4	4	2	0.6	44.4966	146.689	13.6728	204.859	3.86842	16	2.61525	128.514	
4	4	2	0.7	51.4261	254.032	36.2498	341.708	10.2806	16	9.02585	265.863	
4	4	2	0.8	58.227	752.849	124.75	935.826	35.7529	16	34.4978	860.336	
4	4	2	0.9	63.3273	87.1572	10.4596	160.944	2.85858	16	1.60383	85.2324	
4	4	2	1	66.2797	1143.7	201.289	1411.27	55.9902	16	54.7326	1335.64	
4	0	2	0	0	0.46875	0.0357666	0.504517	0.0111416	14	0.00732491	0.316406	
4	0	2	0.1	0.214539	0.483765	0.03479	0.733093	0.0106593	14	0.00679206	0.451294	
4	0	2	0.2	0.202026	0.483459	0.0354614	0.720947	0.0101167	14	0.0063514	0.37323	
4	0	2	0.3	0.20874	0.423401	0.0314331	0.663574	0.0104244	14	0.00659607	0.459412	
4	0	2	0.4	0.207397	0.43042	0.0321655	0.669983	0.00973758	14	0.00588553	0.461243	
4	0	2	0.5	0.182617	0.35144	0.0252075	0.559265	0.0081712	14	0.00447865	0.189331	
4	0	2	0.6	0.2052	0.315002	0.0249023	0.545105	0.00876225	14	0.004886	0.340027	
4	0	2	0.7	0.222046	0.322449	0.02948	0.573975	0.00878659	14	0.00501654	0.225891	
4	0	2	0.8	0.248718	0.291626	0.0281372	0.568481	0.00967377	14	0.005515	0.371094	
4	0	2	0.9	0.266235	0.323364	0.0320435	0.621643	0.00967874	14	0.00554859	0.301941	
4	0	2	1	0.335022	0.292114	0.0343628	0.661499	0.0105459	14	0.00577684	0.284912	
4	1	2	0	0	2.12585	0.132874	2.25873	0.0416119	16	0.0234449	1.26355	
4	1	2	0.1	0.502014	2.30939	0.155579	2.96698	0.0470543	16	0.0287536	1.65613	
4	1	2	0.2	0.565369	2.14868	0.143921	2.85797	0.0439038	16	0.0254088	1.60339	
4	1	2	0.3	0.662842	1.93207	0.128479	2.72339	0.0404055	16	0.0223084	1.44232	
4	1	2	0.4	0.704102	1.96283	0.134949	2.80188	0.0414244	16	0.0227323	1.74469	
4	1	2	0.5	0.658081	1.69574	0.110046	2.46387	0.0354439	16	0.0171505	1.21606	
4	1	2	0.6	0.739929	1.54993	0.105713	2.39557	0.0338488	16	0.0153121	1.22382	
4	1	2	0.7	0.789917	1.39575	0.098938	2.28461	0.0323781	16	0.0139227	1.02637	
4	1	2	0.8	0.912292	1.41663	0.114502	2.44342	0.0360637	16	0.0162332	1.16278	
4	1	2	0.9	0.934448	1.32599	0.113098	2.37354	0.0371061	16	0.0168636	1.06207	
4	1	2	1	1.00043	1.30042	0.11908	2.41992	0.037494	16	0.0177082	1.17578	
4	2	2	0	0	7.83661	0.464905	8.30151	0.148378	16	0.0744893	4.00195	
4	2	2	0.1	0.679504	8.23566	0.559753	9.47491	0.175147	16	0.100818	5.22742	
4	2	2	0.2	0.94281	7.48584	0.493835	8.92249	0.158266	16	0.0837208	4.6889	
4	2	2	0.3	1.14221	7.22882	0.494873	8.86591	0.156008	16	0.081748	4.54688	
4	2	2	0.4	1.3064	6.82996	0.460083	8.59644	0.147588	16	0.0733121	4.51709	
4	2	2	0.5	1.53278	6.33832	0.42627	8.29736	0.137428	16	0.0631232	4.09503	
4	2	2	0.6	1.84326	5.92432	0.393921	8.1615	0.125574	16	0.0518812	3.59143	
4	2	2	0.7	2.03125	5.53278	0.373962	7.93799	0.122057	16	0.0479003	3.06403	
4	2	2	0.8	2.30847	5.31287	0.386902	8.00824	0.126231	16	0.0515657	3.18835	
4	2	2	0.9	2.55054	5.07642	0.387512	8.01447	0.125445	16	0.0501924	3.19281	
4	2	2	1	2.80756	4.75354	0.394348	7.95544	0.127245	16	0.0523599	3.28967	
4	3	2	0	0	30.1976	2.05841	32.256	0.551838	16	0.257409	14.9077	
4	3	2	0.1	2.82104	30.5961	2.25732	35.6745	0.609352	16	0.317524	18.3512	
4	3	2	0.2	4.56775	29.1328	2.18726	35.8878	0.590662	16	0.298154	18.4499	
4	3	2	0.3	5.82184	27.5413	2.08881	35.4519	0.56819	16	0.276279	18.0148	
4	3	2	0.4	7.31793	26.8885	2.14453	36.351	0.585358	16	0.292204	18.9328	
4	3	2	0.5	8.37695	25.5278	2.07855	35.9833	0.569028	16	0.276218	18.3824	
4	3	2	0.6	9.18481	23.8201	2.00391	35.0089	0.55318	16	0.260919	17.1901	
4	3	2	0.7	10.6591	21.8172	1.98456	34.4608	0.55066	16	0.257898	16.6379	
4	3	2	0.8	11.4854	20.3526	1.9787	33.8167	0.554743	16	0.261431	16.1473	
4	3	2	0.9	11.6736	19.7969	2.03668	33.5071	0.573622	16	0.280243	15.6672	
4	3	2	1	11.9454	18.7979	2.05945	32.8027	0.58464	16	0.285794	14.9249	
4	4	2	0	0	132.232	9.37842	141.61	2.40349	16	1.13508	66.0455	
4	4	2	0.1	11.39	131.06	9.80603	152.256	2.53939	16	1.28506	76.8915	
4	4	2	0.2	18.1708	128.596	9.87537	156.642	2.5635	16	1.30992	80.9337	
4	4	2	0.3	25.1689	124.561	9.94031	159.671	2.59679	16	1.34318	84.0466	
4	4	2	0.4	31.5675	122.433	10.1235	164.124	2.66502	16	1.41129	88.5869	
4	4	2	0.5	38.0732	118.819	10.1936	167.086	2.69075	16	1.43777	91.376	
4	4	2	0.6	45.2713	866.409	149.238	1060.92	42.4054	16	41.1506	985.208	
4	4	2	0.7	51.717	197.509	22.3172	271.543	6.508	16	5.2534	195.62	
4	4	2	0.8	57.6201	621.858	102.169	781.646	29.2979	16	28.0423	706.114	
4	4	2	0.9	63.2465	560.144	94.9521	718.343	27.1801	16	25.9256	642.863	
4	4	2	1	66.0678	518.715	88.5948	673.378	25.187	16	23.9253	597.995	
4	0	2	0	0	0.480774	0.0350952	0.515869	0.0109128	14	0.00714174	0.219971	
4	0	2	0.1	0.212524	0.487488	0.0344849	0.734497	0.0106313	14	0.00684892	0.455139	
4	0	2	0.2	0.206665	0.452148	0.03125	0.690063	0.00979291	14	0.00606662	0.396667	
4	0	2	0.3	0.221008	0.465393	0.0355835	0.721985	0.0108899	14	0.00705077	0.516663	
4	0	2	0.4	0.180908	0.384827	0.0288696	0.594604	0.00923945	14	0.00556586	0.387573	
4	0	2	0.5	0.205627	0.376892	0.0284424	0.610962	0.00888895	14	0.00502089	0.31958	
4	0	2	0.6	0.197205	0.324341	0.0248413	0.546387	0.0084207	14	0.00470224	0.213074	
4	0	2	0.7	0.233215	0.32019	0.0280762	0.581482	0.00894183	14	0.00513891	0.378906	
4	0	2	0.8	0.275696	0.311218	0.0314941	0.618408	0.0095883	14	0.00544256	0.421021	
4	0	2	0.9	0.266785	0.326294	0.0320435	0.625122	0.00939035	14	0.00541939	0.352783	
4	0	2	1	0.303345	0.260498	0.0308228	0.594666	0.0103055	14	0.00543521	0.285034	
4	1	2	0	0.0159912	2.10907	0.129761	2.25482	0.0412942	16	0.0233439	1.24829	
4	1	2	0.1	0.478088	2.25586	0.145752	2.8797	0.0453751	16	0.0274819	1.83899	
4	1	2	0.2	0.575684	2.0813	0.138611	2.79559	0.0430261	16	0.02452	1.70477	
4	1	2	0.3	0.630371	2.0144	0.134094	2.77887	0.0422937	16	0.0235968	1.83032	
4	1	2	0.4	0.666382	1.89447	0.132202	2.69305	0.0413069	16	0.0229482	1.5163	
4	1	2	0.5	0.700134	1.71204	0.118042	2.53021	0.0370876	16	0.0188227	1.46851	
4	1	2	0.6	0.689758	1.51288	0.0996094	2.30225	0.0318315	16	0.0137816	0.903748	
4	1	2	0.7	0.765137	1.40057	0.0996704	2.26538	0.0324246	16	0.0141668	0.759705	
4	1	2	0.8	0.917603	1.34344	0.107117	2.36816	0.0355061	16	0.0155325	1.1792	
4	1	2	0.9	0.942932	1.35254	0.113892	2.40936	0.0370611	16	0.0169433	1.22949	
4	1	2	1	0.990417	1.23694	0.116028	2.34338	0.0379346	16	0.0176743	1.04358	
4	2	2	0	0	7.67737	0.506897	8.18427	0.144379	16	0.0702057	3.7785	
4	2	2	0.1	0.7146	8.0451	0.546875	9.30658	0.171333	16	0.0966832	5.0575	
4	2	2	0.2	0.95459	7.44299	0.482422	8.88	0.153536	16	0.0794347	4.81256	
4	2	2	0.3	1.07831	7.18817	0.474121	8.7406	0.150903	16	0.07656	4.58948	
4	2	2	0.4	1.34747	6.75464	0.44751	8.54962	0.14318	16	0.0692855	4.4444	
4	2	2	0.5	1.58142	6.36511	0.428772	8.37531	0.136588	16	0.0627261	4.1084	
4	2	2	0.6	1.81091	5.8938	0.387817	8.09253	0.125211	16	0.0511288	3.60608	
4	2	2	0.7	1.99023	5.48901	0.372559	7.85181	0.120471	16	0.0463306	3.02808	
4	2	2	0.8	2.2962	5.26813	0.382385	7.94672	0.124261	16	0.0493842	3.23004	
4	2	2	0.9	2.5332	5.0929	0.388062	8.01416	0.124471	16	0.0499815	3.22821	
4	2	2	1	2.76422	4.7699	0.399597	7.93372	0.128507	16	0.0522355	3.21741	
4	3	2	0	0	30.1415	2.06006	32.2016	0.550996	16	0.256505	14.7943	
4	3	2	0.1	2.81689	30.0599	2.19818	35.075	0.592318	16	0.300232	17.8235	
4	3	2	0.2	4.54169	28.9667	2.19427	35.7026	0.590942	16	0.298373	18.2698	
4	3	2	0.3	5.81726	27.3356	2.07587	35.2287	0.564936	16	0.273078	17.8914	
4	3	2	0.4	7.0473	26.5343	2.09039	35.672	0.567482	16	0.275319	18.1204	
4	3	2	0.5	8.37982	25.4531	2.04987	35.8828	0.562751	16	0.269563	18.3707	
4	3	2	0.6	9.33661	24.6084	2.12756	36.0726	0.586888	16	0.294062	18.3786	
4	3	2	0.7	10.92	21.7098	1.95648	34.5863	0.550078	16	0.257095	16.7631	
4	3	2	0.8	11.3895	20.5192	1.97327	33.882	0.554	16	0.260431	16.1325	
4	3	2	0.9	11.743	19.2869	1.98822	33.0182	0.562911	16	0.269512	15.1458	
4	3	2	1	11.8254	17.5869	1.95508	31.3674	0.554043	16	0.260746	13.5995	
4	4	2	0	0	132.284	9.37262	141.657	2.40041	16	1.13447	66.0455	
4	4	2	0.1	11.4728	130.78	9.71991	151.973	2.51835	16	1.26511	76.5547	
4	4	2	0.2	18.3103	128.281	9.89526	156.487	2.56736	16	1.31324	80.9352	
4	4	2	0.3	25.1269	125.578	10.0216	160.727	2.61645	16	1.3619	84.8879	
4	4	2	0.4	31.4803	121.843	10.0524	163.376	2.64132	16	1.38721	87.7491	
4	4	2	0.5	38.1675	137.309	11.9408	187.417	3.27203	16	2.01953	111.616	
4	4	2	0.6	44.89	108.255	10.0176	163.162	2.65473	16	1.40172	87.1533	
4	4	2	0.7	51.3926	936.844	162.725	1150.96	46.4402	16	45.1863	1075.33	
4	4	2	0.8	58.3297	98.1333	10.8074	167.27	2.97033	16	1.71431	91.7261	
4	4	2	0.9	63.293	187.792	28.0669	279.152	7.89354	16	6.63862	203.9	
4	4	2	1	66.967	2662.13	493.442	3222.54	141.261	16	140.008	3147.59	
4	0	2	0	0	0.482178	0.0355225	0.5177	0.0109033	14	0.00699756	0.378784	
4	0	2	0.1	0.199463	0.48999	0.0343018	0.723755	0.0109587	14	0.00715334	0.449951	
4	0	2	0.2	0.193848	0.437805	0.0316162	0.663269	0.0100611	14	0.0063375	0.383667	
4	0	2	0.3	0.200928	0.478394	0.0357056	0.715027	0.0103746	14	0.00669636	0.511169	
4	0	2	0.4	0.186951	0.38501	0.0285645	0.600525	0.00961096	14	0.00578213	0.32312	
4	0	2	0.5	0.193176	0.384277	0.0281982	0.605652	0.00831458	14	0.00461366	0.383728	
4	0	2	0.6	0.190186	0.319763	0.0249634	0.534912	0.00851243	14	0.00479185	0.393188	
4	0	2	0.7	0.24176	0.354431	0.0321655	0.628357	0.00917502	14	0.00531119	0.303162	
4	0	2	0.8	0.241516	0.308228	0.0289917	0.578735	0.00910172	14	0.0052798	0.306763	
4	0	2	0.9	0.270081	0.282288	0.0280151	0.580383	0.00959597	14	0.00543896	0.309204	
4	0	2	1	0.296692	0.263611	0.0308228	0.591125	0.0100931	14	0.00521837	0.412109	
4	1	2	0	0	2.09943	0.128479	2.22791	0.0413719	16	0.0232792	1.24182	
4	1	2	0.1	0.459717	2.27985	0.147705	2.88727	0.0447891	16	0.0267577	1.82996	
4	1	2	0.2	0.525879	2.19342	0.141968	2.86127	0.0437559	16	0.0253597	1.64514	
4	1	2	0.3	0.63855	2.02118	0.135132	2.79486	0.0418992	16	0.0234538	1.47192	
4	1	2	0.4	0.65979	1.90326	0.128479	2.69153	0.0399946	16	0.0215456	1.6178	
4	1	2	0.5	0.690918	1.72827	0.117981	2.53717	0.0360348	16	0.0179763	1.25781	
4	1	2	0.6	0.719727	1.52386	0.103638	2.34723	0.0330395	16	0.014697	1.13	
4	1	2	0.7	0.865723	1.38678	0.103394	2.3559	0.0347254	16	0.0147824	1.21307	
4	1	2	0.8	0.893188	1.3476	0.106873	2.34766	0.0340653	16	0.0154382	1.2655	
4	1	2	0.9	0.946777	1.35321	0.114807	2.41479	0.0365943	16	0.0167012	1.15857	
4	1	2	1	0.983521	1.30115	0.12146	2.40613	0.0384969	16	0.0178902	1.12897	
4	2	2	0	0	7.66406	0.447266	8.11133	0.143519	16	0.0697562	3.81274	
4	2	2	0.1	0.694641	8.23187	0.576721	9.50323	0.180289	16	0.106012	5.27887	
4	2	2	0.2	0.958435	7.6001	0.511292	9.06982	0.161496	16	0.0873373	4.93811	
4	2	2	0.3	1.08344	7.29694	0.488403	8.86877	0.154612	16	0.0806721	4.63013	
4	2	2	0.4	1.34967	6.77905	0.456299	8.58502	0.146147	16	0.0717634	4.37323	
4	2	2	0.5	1.57428	6.37488	0.427246	8.3764	0.136509	16	0.0626999	4.06757	
4	2	2	0.6	1.76324	5.86389	0.385071	8.01221	0.124681	16	0.0510069	3.56738	
4	2	2	0.7	2.01923	5.50696	0.375854	7.90204	0.121865	16	0.0477821	3.23297	
4	2	2	0.8	2.28833	5.15997	0.372253	7.82056	0.122343	16	0.048341	3.24939	
4	2	2	0.9	2.51117	5.06183	0.384155	7.95715	0.124768	16	0.0496976	3.18188	
4	2	2	1	2.80469	4.7583	0.394165	7.95715	0.127733	16	0.0529483	3.25116	
4	3	2	0	0	30.0158	2.0542	32.07	0.550798	16	0.255944	14.7411	
4	3	2	0.1	2.83606	29.9122	2.16736	34.9156	0.583792	16	0.29219	17.6503	
4	3	2	0.2	4.4635	28.5643	2.12836	35.1562	0.575259	16	0.282723	17.8934	
4	3	2	0.3	5.97009	27.7722	2.15546	35.8977	0.586601	16	0.294402	18.4965	
4	3	2	0.4	7.30579	26.6533	2.11151	36.0706	0.57865	16	0.286575	18.8102	
4	3	2	0.5	8.98932	25.7058	2.16241	36.8575	0.593995	16	0.301016	19.3375	
4	3	2	0.6	9.54004	23.8893	2.03149	35.4609	0.561924	16	0.269579	17.7038	
4	3	2	0.7	10.7296	22.1921	2.00226	34.9239	0.557364	16	0.264014	17.0711	
4	3	2	0.8	11.4623	20.6156	1.9931	34.071	0.559714	16	0.265546	16.2941	
4	3	2	0.9	11.8036	19.2567	1.9906	33.0508	0.562824	16	0.269709	15.201	
4	3	2	1	12.0889	17.7637	2.00031	31.8528	0.56894	16	0.272478	14.1443	
4	4	2	0	0	132.094	9.37042	141.465	2.40263	16	1.13543	65.928	
4	4	2	0.1	11.3864	130.921	9.71423	152.022	2.51612	16	1.26297	76.5779	
4	4	2	0.2	18.2872	127.823	9.83905	155.95	2.55744	16	1.30326	80.4602	
4	4	2	0.3	24.9238	125.155	10.0145	160.094	2.6173	16	1.36418	84.6779	
4	4	2	0.4	31.5383	121.234	10.0239	162.796	2.63218	16	1.37658	87.1055	
4	4	2	0.5	38.401	317.282	45.0167	400.7	12.711	16	11.4573	324.993	
4	4	2	0.6	44.6356	156.906	16.7932	218.334	4.69185	16	3.4383	142.382	
4	4	2	0.7	51.1696	1190.83	210.122	1452.12	59.841	16	58.5864	1376.75	
4	4	2	0.8	57.9314	1203.58	216.819	1478.33	61.9338	16	60.6797	1403.11	
4	4	2	0.9	62.7853	683.947	119.001	865.733	34.0111	16	32.7566	790.573	
4	4	2	1	66.3426	466.807	77.782	610.932	22.3892	16	21.1357	535.7	
4	0	2	0	0	0.444214	0.0321045	0.476318	0.0106242	14	0.00694574	0.332703	
4	0	2	0.1	0.17926	0.498718	0.0355835	0.713562	0.0107778	14	0.0069291	0.377441	
4	0	2	0.2	0.194946	0.442322	0.0317383	0.669006	0.0102212	14	0.00628523	0.456665	
4	0	2	0.3	0.187988	0.42865	0.0321045	0.648743	0.0104468	14	0.00668033	0.37738	
4	0	2	0.4	0.192932	0.423828	0.0326538	0.649414	0.00934329	14	0.00550323	0.342285	
4	0	2	0.5	0.199402	0.372375	0.0282593	0.600037	0.00920389	14	0.00530821	0.383484	
4	0	2	0.6	0.200928	0.331726	0.0250854	0.557739	0.00830858	14	0.00460311	0.431763	
4	0	2	0.7	0.248901	0.341248	0.0318604	0.622009	0.00927212	14	0.00538818	0.265869	
4	0	2	0.8	0.260864	0.310242	0.0280762	0.599182	0.00906112	14	0.0050699	0.339966	
4	0	2	0.9	0.257935	0.299438	0.0285645	0.585938	0.00910951	14	0.00526857	0.382324	
4	0	2	1	0.310608	0.261597	0.0305786	0.602783	0.0102219	14	0.00537919	0.358765	
4	1	2	0	0	2.09912	0.128662	2.22778	0.0413643	16	0.0233953	1.40912	
4	1	2	0.1	0.462341	2.32416	0.152588	2.93909	0.0470929	16	0.0285797	1.94781	
4	1	2	0.2	0.593079	2.03217	0.13208	2.75732	0.0410473	16	0.0229606	1.37415	
4	1	2	0.3	0.647522	2.03064	0.137146	2.81531	0.0433039	16	0.0245955	1.76343	
4	1	2	0.4	0.637512	1.92084	0.128662	2.68701	0.0401163	16	0.0216658	1.45642	
4	1	2	0.5	0.700684	1.69775	0.113892	2.51233	0.0365916	16	0.0184391	1.23102	
4	1	2	0.6	0.67804	1.49677	0.100464	2.27527	0.0314249	16	0.013677	0.918091	
4	1	2	0.7	0.767334	1.39392	0.100281	2.26154	0.0323068	16	0.014203	0.968994	
4	1	2	0.8	0.90686	1.35815	0.105469	2.37048	0.0335845	16	0.0149284	1.21082	
4	1	2	0.9	0.974365	1.33167	0.113281	2.41931	0.0374872	16	0.0174842	1.16339	
4	1	2	1	0.978394	1.28357	0.115906	2.37787	0.0378869	16	0.0175703	1.07605	
4	2	2	0	0	7.68683	0.451477	8.13831	0.144056	16	0.0700256	3.85321	
4	2	2	0.1	0.707214	7.99811	0.528137	9.23346	0.165937	16	0.0919137	4.8988	
4	2	2	0.2	0.930054	7.5694	0.507019	9.00647	0.160243	16	0.0860656	4.81189	
4	2	2	0.3	1.19373	7.09412	0.470703	8.75854	0.149443	16	0.075352	4.53571	
4	2	2	0.4	1.42847	6.87952	0.467407	8.77539	0.147694	16	0.0734745	4.50073	
4	2	2	0.5	1.58118	6.3642	0.438538	8.38391	0.140165	16	0.0659605	4.14001	
4	2	2	0.6	1.79431	5.88959	0.388855	8.07275	0.125738	16	0.0516521	3.52966	
4	2	2	0.7	2.01294	5.53766	0.376648	7.92725	0.122286	16	0.0477049	3.25391	
4	2	2	0.8	2.29816	5.21899	0.380188	7.89734	0.124076	16	0.0491903	3.28387	
4	2	2	0.9	2.5528	5.09943	0.388306	8.04053	0.125493	16	0.0502872	3.25787	
4	2	2	1	2.76379	4.79614	0.396606	7.95654	0.127134	16	0.0521294	3.23224	
4	3	2	0	0	30.0616	2.06049	32.1221	0.552671	16	0.257781	14.7441	
4	3	2	0.1	2.81836	29.9665	2.20941	34.9943	0.597379	16	0.305431	17.6675	
4	3	2	0.2	4.57001	28.8322	2.20453	35.6067	0.592725	16	0.300698	18.2899	
4	3	2	0.3	5.7597	27.477	2.08606	35.3228	0.565772	16	0.274191	17.9515	
4	3	2	0.4	7.1532	26.4667	2.06519	35.6851	0.564349	16	0.272198	18.3529	
4	3	2	0.5	8.41199	25.4097	2.06317	35.8848	0.565724	16	0.272935	18.2909	
4	3	2	0.6	9.41156	23.6301	2.00873	35.0504	0.554485	16	0.261858	17.457	
4	3	2	0.7	10.657	21.9	1.98175	34.5388	0.551699	16	0.258601	16.738	
4	3	2	0.8	11.5096	20.3553	1.97974	33.8447	0.556001	16	0.26272	16.0973	
4	3	2	0.9	11.7266	20.0035	2.0603	33.7905	0.580955	16	0.287975	15.9794	
4	3	2	1	11.8514	17.7781	1.97723	31.6068	0.561885	16	0.265929	13.9382	
4	4	2	0	0	131.86	9.36847	141.228	2.40327	16	1.13713	66.0051	
4	4	2	0.1	11.6019	131.32	9.78174	152.704	2.53377	16	1.27993	77.3195	
4	4	2	0.2	18.3551	128.317	9.85577	156.527	2.56261	16	1.30793	80.9227	
4	4	2	0.3	25.1362	124.642	9.94458	159.722	2.59653	16	1.34327	84.1037	
4	4	2	0.4	31.5214	121.923	10.0777	163.522	2.64565	16	1.38877	87.8214	
4	4	2	0.5	38.1161	118.228	10.1728	166.516	2.67767	16	1.42252	90.6392	
4	4	2	0.6	44.4555	155.594	17.2162	217.266	4.76998	16	3.51742	140.9	
4	4	2	0.7	51.4493	403.218	62.7885	517.456	17.9036	16	16.65	441.88	
4	4	2	0.8	57.624	339.267	53.2447	450.135	15.2277	16	13.9736	374.261	
4	4	2	0.9	63.2236	1155.2	208.777	1427.2	59.5727	16	58.3184	1351.78	
4	4	2	1	67.0682	76.7507	10.4672	154.286	2.86292	16	1.60131	78.5729	
