2	2	2	0.000000	0.614929	0.047119	0.662048	0.015564	14	0.010382	0.441406	
2	2	2	0.000000	0.595215	0.046631	0.641846	0.016461	14	0.010692	0.469299	
2	2	2	0.000000	0.584900	0.044617	0.629517	0.015536	14	0.010319	0.363586	
2	2	2	0.000000	0.612000	0.047119	0.659119	0.015731	14	0.010529	0.358887	
2	2	2	0.000000	0.619263	0.047302	0.666565	0.015802	14	0.010495	0.447937	
2	2	2	0.000000	0.578857	0.044617	0.623474	0.015336	14	0.010216	0.596558	
2	2	2	0.000000	0.599487	0.047241	0.646729	0.015581	14	0.010395	0.413330	
2	2	2	0.000000	0.618042	0.047241	0.665283	0.015211	14	0.010143	0.599121	
2	2	2	0.000000	0.599060	0.047363	0.646423	0.015907	14	0.010397	0.454102	
2	2	2	0.000000	0.618652	0.047058	0.665710	0.015621	14	0.010313	0.556396	
2	4	2	0.000000	2.462646	0.160645	2.623291	0.055921	16	0.040902	2.110779	
2	4	2	0.000000	2.416199	0.155396	2.571594	0.053755	16	0.039888	1.974609	
2	4	2	0.000000	2.441711	0.155334	2.597046	0.053698	16	0.039924	1.925842	
2	4	2	0.000000	2.426697	0.150024	2.576721	0.051197	16	0.038847	1.932495	
2	4	2	0.000000	2.463562	0.160339	2.623901	0.055493	16	0.040355	2.061584	
2	4	2	0.000000	2.428650	0.157410	2.586060	0.054596	16	0.040305	2.024170	
2	4	2	0.000000	2.452759	0.160400	2.613159	0.055533	16	0.040734	2.130066	
2	4	2	0.000000	2.455872	0.155640	2.611511	0.053290	16	0.039550	2.047485	
2	4	2	0.000000	2.443542	0.155945	2.599487	0.053533	16	0.039795	2.039307	
2	4	2	0.000000	2.476501	0.159851	2.636353	0.055213	16	0.040591	1.974426	
2	6	2	0.000000	8.776855	0.511841	9.288696	0.177824	16	0.139148	7.426453	
2	6	2	0.000000	8.863281	0.516663	9.379944	0.179139	16	0.140328	7.303772	
2	6	2	0.000000	8.781433	0.511719	9.293152	0.178201	16	0.139400	7.202332	
2	6	2	0.000000	8.922241	0.519958	9.442200	0.180237	16	0.141553	7.444336	
2	6	2	0.000000	8.756592	0.505798	9.262390	0.177150	16	0.138780	7.367371	
2	6	2	0.000000	8.889893	0.519653	9.409546	0.180021	16	0.141333	7.317749	
2	6	2	0.000000	8.770813	0.511414	9.282227	0.178059	16	0.139393	7.128174	
2	6	2	0.000000	8.774048	0.510925	9.284973	0.177528	16	0.138855	7.274048	
2	6	2	0.000000	8.843933	0.512756	9.356689	0.178915	16	0.140508	7.562866	
2	6	2	0.000000	8.872314	0.516907	9.389221	0.179798	16	0.139526	7.267639	
2	8	2	0.000000	34.239319	2.229187	36.468506	0.659164	16	0.525609	29.084534	
2	8	2	0.000000	34.448608	2.232239	36.680847	0.659526	16	0.526278	29.235291	
2	8	2	0.000000	34.248840	2.216980	36.465820	0.658047	16	0.526143	29.198120	
2	8	2	0.000000	34.394104	2.227417	36.621521	0.657646	16	0.525307	29.380432	
2	8	2	0.000000	34.726929	2.255371	36.982300	0.664891	16	0.532530	29.465515	
2	8	2	0.000000	34.629944	2.231018	36.860962	0.657424	16	0.524971	29.361389	
2	8	2	0.000000	34.802612	2.254456	37.057068	0.664402	16	0.525902	29.494629	
2	8	2	0.000000	34.885254	2.259399	37.144653	0.664590	16	0.528840	29.679382	
2	8	2	0.000000	34.692017	2.248535	36.940552	0.658948	16	0.526168	29.548401	
2	8	2	0.000000	34.837585	2.242065	37.079651	0.659109	16	0.526302	29.562439	
2	10	2	0.000000	151.178040	9.734253	160.912292	2.797621	16	2.225043	128.448547	
2	10	2	0.000000	149.933411	9.656738	159.590149	2.771766	16	2.226396	128.884827	
2	10	2	0.000000	152.599182	9.759583	162.358765	2.795899	16	2.248570	130.655090	
2	10	2	0.000000	151.095398	9.684753	160.780151	2.774889	16	2.229887	129.904724	
2	10	2	0.000000	151.673401	9.716675	161.390076	2.779619	16	2.232850	130.286316	
2	10	2	0.000000	153.495056	9.816589	163.311646	2.808224	16	2.262817	132.208679	
2	10	2	0.000000	152.285095	9.706177	161.991272	2.773114	16	2.224505	130.580688	
2	10	2	0.000000	151.853455	9.704163	161.557617	2.777270	16	2.231385	130.546936	
2	10	2	0.000000	154.543396	9.847229	164.390625	2.813234	16	2.226473	130.827759	
2	10	2	0.000000	152.253845	9.712830	161.966675	2.773753	16	2.228281	130.762085	
